%!PS-Adobe-3.0 EPSF-3.0
%%Creator: (MATLAB, The Mathworks, Inc. Version 8.4.0.150421 \(R2014b\). Operating System: Windows 8)
%%Title: ./1D_HV_2p.eps
%%CreationDate: 2017-04-18T15:13:49
%%Pages: (atend)
%%BoundingBox: (atend)
%%LanguageLevel: 3
%%EndComments
%%BeginProlog
%%BeginResource: procset (Apache XML Graphics Std ProcSet) 1.2 0
%%Version: 1.2 0
%%Copyright: (Copyright 2001-2003,2010 The Apache Software Foundation. License terms: http://www.apache.org/licenses/LICENSE-2.0)
/bd{bind def}bind def
/ld{load def}bd
/GR/grestore ld
/M/moveto ld
/LJ/setlinejoin ld
/C/curveto ld
/f/fill ld
/LW/setlinewidth ld
/GC/setgray ld
/t/show ld
/N/newpath ld
/CT/concat ld
/cp/closepath ld
/S/stroke ld
/L/lineto ld
/CC/setcmykcolor ld
/A/ashow ld
/GS/gsave ld
/RC/setrgbcolor ld
/RM/rmoveto ld
/ML/setmiterlimit ld
/re {4 2 roll M
1 index 0 rlineto
0 exch rlineto
neg 0 rlineto
cp } bd
/_ctm matrix def
/_tm matrix def
/BT { _ctm currentmatrix pop matrix _tm copy pop 0 0 moveto } bd
/ET { _ctm setmatrix } bd
/iTm { _ctm setmatrix _tm concat } bd
/Tm { _tm astore pop iTm 0 0 moveto } bd
/ux 0.0 def
/uy 0.0 def
/F {
  /Tp exch def
  /Tf exch def
  Tf findfont Tp scalefont setfont
  /cf Tf def  /cs Tp def
} bd
/ULS {currentpoint /uy exch def /ux exch def} bd
/ULE {
  /Tcx currentpoint pop def
  gsave
  newpath
  cf findfont cs scalefont dup
  /FontMatrix get 0 get /Ts exch def /FontInfo get dup
  /UnderlinePosition get Ts mul /To exch def
  /UnderlineThickness get Ts mul /Tt exch def
  ux uy To add moveto  Tcx uy To add lineto
  Tt setlinewidth stroke
  grestore
} bd
/OLE {
  /Tcx currentpoint pop def
  gsave
  newpath
  cf findfont cs scalefont dup
  /FontMatrix get 0 get /Ts exch def /FontInfo get dup
  /UnderlinePosition get Ts mul /To exch def
  /UnderlineThickness get Ts mul /Tt exch def
  ux uy To add cs add moveto Tcx uy To add cs add lineto
  Tt setlinewidth stroke
  grestore
} bd
/SOE {
  /Tcx currentpoint pop def
  gsave
  newpath
  cf findfont cs scalefont dup
  /FontMatrix get 0 get /Ts exch def /FontInfo get dup
  /UnderlinePosition get Ts mul /To exch def
  /UnderlineThickness get Ts mul /Tt exch def
  ux uy To add cs 10 mul 26 idiv add moveto Tcx uy To add cs 10 mul 26 idiv add lineto
  Tt setlinewidth stroke
  grestore
} bd
/QT {
/Y22 exch store
/X22 exch store
/Y21 exch store
/X21 exch store
currentpoint
/Y21 load 2 mul add 3 div exch
/X21 load 2 mul add 3 div exch
/X21 load 2 mul /X22 load add 3 div
/Y21 load 2 mul /Y22 load add 3 div
/X22 load /Y22 load curveto
} bd
/SSPD {
dup length /d exch dict def
{
/v exch def
/k exch def
currentpagedevice k known {
/cpdv currentpagedevice k get def
v cpdv ne {
/upd false def
/nullv v type /nulltype eq def
/nullcpdv cpdv type /nulltype eq def
nullv nullcpdv or
{
/upd true def
} {
/sametype v type cpdv type eq def
sametype {
v type /arraytype eq {
/vlen v length def
/cpdvlen cpdv length def
vlen cpdvlen eq {
0 1 vlen 1 sub {
/i exch def
/obj v i get def
/cpdobj cpdv i get def
obj cpdobj ne {
/upd true def
exit
} if
} for
} {
/upd true def
} ifelse
} {
v type /dicttype eq {
v {
/dv exch def
/dk exch def
/cpddv cpdv dk get def
dv cpddv ne {
/upd true def
exit
} if
} forall
} {
/upd true def
} ifelse
} ifelse
} if
} ifelse
upd true eq {
d k v put
} if
} if
} if
} forall
d length 0 gt {
d setpagedevice
} if
} bd
%%EndResource
%%BeginResource: procset (Apache XML Graphics EPS ProcSet) 1.0 0
%%Version: 1.0 0
%%Copyright: (Copyright 2002-2003 The Apache Software Foundation. License terms: http://www.apache.org/licenses/LICENSE-2.0)
/BeginEPSF { %def
/b4_Inc_state save def         % Save state for cleanup
/dict_count countdictstack def % Count objects on dict stack
/op_count count 1 sub def      % Count objects on operand stack
userdict begin                 % Push userdict on dict stack
/showpage { } def              % Redefine showpage, { } = null proc
0 setgray 0 setlinecap         % Prepare graphics state
1 setlinewidth 0 setlinejoin
10 setmiterlimit [ ] 0 setdash newpath
/languagelevel where           % If level not equal to 1 then
{pop languagelevel             % set strokeadjust and
1 ne                           % overprint to their defaults.
{false setstrokeadjust false setoverprint
} if
} if
} bd
/EndEPSF { %def
count op_count sub {pop} repeat            % Clean up stacks
countdictstack dict_count sub {end} repeat
b4_Inc_state restore
} bd
%%EndResource
%FOPBeginFontDict
%%IncludeResource: font Courier-Bold
%%IncludeResource: font Helvetica
%%IncludeResource: font Courier-BoldOblique
%%IncludeResource: font Courier-Oblique
%%IncludeResource: font Times-Roman
%%IncludeResource: font Helvetica-BoldOblique
%%IncludeResource: font Helvetica-Bold
%%IncludeResource: font Helvetica-Oblique
%%IncludeResource: font Times-BoldItalic
%%IncludeResource: font Courier
%%IncludeResource: font Times-Italic
%%IncludeResource: font Times-Bold
%%IncludeResource: font Symbol
%%IncludeResource: font ZapfDingbats
%FOPEndFontDict
%%BeginResource: encoding WinAnsiEncoding
/WinAnsiEncoding [
/.notdef /.notdef /.notdef /.notdef /.notdef
/.notdef /.notdef /.notdef /.notdef /.notdef
/.notdef /.notdef /.notdef /.notdef /.notdef
/.notdef /.notdef /.notdef /.notdef /.notdef
/.notdef /.notdef /.notdef /.notdef /.notdef
/.notdef /.notdef /.notdef /.notdef /.notdef
/.notdef /.notdef /space /exclam /quotedbl
/numbersign /dollar /percent /ampersand /quotesingle
/parenleft /parenright /asterisk /plus /comma
/hyphen /period /slash /zero /one
/two /three /four /five /six
/seven /eight /nine /colon /semicolon
/less /equal /greater /question /at
/A /B /C /D /E
/F /G /H /I /J
/K /L /M /N /O
/P /Q /R /S /T
/U /V /W /X /Y
/Z /bracketleft /backslash /bracketright /asciicircum
/underscore /quoteleft /a /b /c
/d /e /f /g /h
/i /j /k /l /m
/n /o /p /q /r
/s /t /u /v /w
/x /y /z /braceleft /bar
/braceright /asciitilde /bullet /Euro /bullet
/quotesinglbase /florin /quotedblbase /ellipsis /dagger
/daggerdbl /circumflex /perthousand /Scaron /guilsinglleft
/OE /bullet /Zcaron /bullet /bullet
/quoteleft /quoteright /quotedblleft /quotedblright /bullet
/endash /emdash /asciitilde /trademark /scaron
/guilsinglright /oe /bullet /zcaron /Ydieresis
/space /exclamdown /cent /sterling /currency
/yen /brokenbar /section /dieresis /copyright
/ordfeminine /guillemotleft /logicalnot /sfthyphen /registered
/macron /degree /plusminus /twosuperior /threesuperior
/acute /mu /paragraph /middot /cedilla
/onesuperior /ordmasculine /guillemotright /onequarter /onehalf
/threequarters /questiondown /Agrave /Aacute /Acircumflex
/Atilde /Adieresis /Aring /AE /Ccedilla
/Egrave /Eacute /Ecircumflex /Edieresis /Igrave
/Iacute /Icircumflex /Idieresis /Eth /Ntilde
/Ograve /Oacute /Ocircumflex /Otilde /Odieresis
/multiply /Oslash /Ugrave /Uacute /Ucircumflex
/Udieresis /Yacute /Thorn /germandbls /agrave
/aacute /acircumflex /atilde /adieresis /aring
/ae /ccedilla /egrave /eacute /ecircumflex
/edieresis /igrave /iacute /icircumflex /idieresis
/eth /ntilde /ograve /oacute /ocircumflex
/otilde /odieresis /divide /oslash /ugrave
/uacute /ucircumflex /udieresis /yacute /thorn
/ydieresis
] def
%%EndResource
%FOPBeginFontReencode
/Courier-Bold findfont
dup length dict begin
  {1 index /FID ne {def} {pop pop} ifelse} forall
  /Encoding WinAnsiEncoding def
  currentdict
end
/Courier-Bold exch definefont pop
/Helvetica findfont
dup length dict begin
  {1 index /FID ne {def} {pop pop} ifelse} forall
  /Encoding WinAnsiEncoding def
  currentdict
end
/Helvetica exch definefont pop
/Courier-BoldOblique findfont
dup length dict begin
  {1 index /FID ne {def} {pop pop} ifelse} forall
  /Encoding WinAnsiEncoding def
  currentdict
end
/Courier-BoldOblique exch definefont pop
/Courier-Oblique findfont
dup length dict begin
  {1 index /FID ne {def} {pop pop} ifelse} forall
  /Encoding WinAnsiEncoding def
  currentdict
end
/Courier-Oblique exch definefont pop
/Times-Roman findfont
dup length dict begin
  {1 index /FID ne {def} {pop pop} ifelse} forall
  /Encoding WinAnsiEncoding def
  currentdict
end
/Times-Roman exch definefont pop
/Helvetica-BoldOblique findfont
dup length dict begin
  {1 index /FID ne {def} {pop pop} ifelse} forall
  /Encoding WinAnsiEncoding def
  currentdict
end
/Helvetica-BoldOblique exch definefont pop
/Helvetica-Bold findfont
dup length dict begin
  {1 index /FID ne {def} {pop pop} ifelse} forall
  /Encoding WinAnsiEncoding def
  currentdict
end
/Helvetica-Bold exch definefont pop
/Helvetica-Oblique findfont
dup length dict begin
  {1 index /FID ne {def} {pop pop} ifelse} forall
  /Encoding WinAnsiEncoding def
  currentdict
end
/Helvetica-Oblique exch definefont pop
/Times-BoldItalic findfont
dup length dict begin
  {1 index /FID ne {def} {pop pop} ifelse} forall
  /Encoding WinAnsiEncoding def
  currentdict
end
/Times-BoldItalic exch definefont pop
/Courier findfont
dup length dict begin
  {1 index /FID ne {def} {pop pop} ifelse} forall
  /Encoding WinAnsiEncoding def
  currentdict
end
/Courier exch definefont pop
/Times-Italic findfont
dup length dict begin
  {1 index /FID ne {def} {pop pop} ifelse} forall
  /Encoding WinAnsiEncoding def
  currentdict
end
/Times-Italic exch definefont pop
/Times-Bold findfont
dup length dict begin
  {1 index /FID ne {def} {pop pop} ifelse} forall
  /Encoding WinAnsiEncoding def
  currentdict
end
/Times-Bold exch definefont pop
%FOPEndFontReencode
%%EndProlog
%%Page: 1 1
%%PageBoundingBox: 0 0 2126 1701
%%BeginPageSetup
[1 0 0 -1 0 1701] CT
%%EndPageSetup
GS
[1.97033 0 0 1.9685 0 0.21265] CT
N
0 0 M
1079 0 L
1079 864 L
0 864 L
0 0 L
cp
clip
0.997 GC
N
0 0 1079 864 re
f
GR
GS
[1.97033 0 0 1.9685 0 0.21265] CT
N
0 0 M
1079 0 L
1079 864 L
0 864 L
0 0 L
cp
clip
0.997 GC
N
0 0 1079 864 re
f
GR
GS
[1.97033 0 0 1.9685 0 0.21265] CT
0.997 GC
N
502 237 M
141 237 L
141 598 L
502 598 L
cp
f
GR
GS
[2.7733 0 0 2.77073 279.21099 468.14145] CT
[1 0 0 1 0 0] CT
N
0 256 M
0 0 L
256 0 L
256 256 L
cp
clip
GS
0 0 translate
256 256 scale
%AXGBeginBitmap: java.awt.image.BufferedImage
{{
/RawData currentfile /ASCII85Decode filter def
/Data RawData /FlateDecode filter def
/DeviceGray setcolorspace
<<
  /Decode [0 1]
  /BitsPerComponent 8
  /Width 256
  /ImageType 1
  /DataSource Data
  /ImageMatrix [256 0 0 256 0 0]
  /Height 256
>> image
} stopped {handleerror} if
  RawData flushfile
} exec
Gb"0M+V"Jp$j8l1c`;sh&e*n83[:]:ii2tYzzzzzzz!4EIRIiqF7^-=M<zz!8uNmh<nS4Dq#jJ*WQ0?z
zzz!:[Z*W#*F)~>

%AXGEndBitmap
GR
GR
GS
[1.97033 0 0 1.9685 633.46059 1260.63436] CT
0 GC
/Helvetica-Bold 29 F
GS
[1 0 0 1 0 0] CT
-38.671 29.156 moveto 
1 -1 scale
(x \(px\)) t 
GR
GR
GS
[1.97033 0 0 1.9685 0 0.21265] CT
0 GC
2 setlinecap
10.0 ML
N
141 598 M
502 598 L
S
GR
GS
[1.97033 0 0 1.9685 0 0.21265] CT
0 GC
2 setlinecap
10.0 ML
N
141 237 M
502 237 L
S
GR
GS
[1.97033 0 0 1.9685 0 0.21265] CT
0 GC
2 setlinecap
10.0 ML
N
141 598 M
141 594.39 L
S
GR
GS
[1.97033 0 0 1.9685 0 0.21265] CT
0 GC
2 setlinecap
10.0 ML
N
141 237 M
141 240.61 L
S
GR
GS
[1.97033 0 0 1.9685 0 0.21265] CT
0 GC
2 setlinecap
10.0 ML
N
282.569 598 M
282.569 594.39 L
S
GR
GS
[1.97033 0 0 1.9685 0 0.21265] CT
0 GC
2 setlinecap
10.0 ML
N
282.569 237 M
282.569 240.61 L
S
GR
GS
[1.97033 0 0 1.9685 0 0.21265] CT
0 GC
2 setlinecap
10.0 ML
N
424.137 598 M
424.137 594.39 L
S
GR
GS
[1.97033 0 0 1.9685 0 0.21265] CT
0 GC
2 setlinecap
10.0 ML
N
424.137 237 M
424.137 240.61 L
S
GR
GS
[1.97033 0 0 1.9685 277.81631 1193.126] CT
0 GC
/Helvetica-Bold 27 F
GS
[1 0 0 1 0 0] CT
-7.508 27.145 moveto 
1 -1 scale
(0) t 
GR
GR
GS
[1.97033 0 0 1.9685 556.75301 1193.126] CT
0 GC
/Helvetica-Bold 27 F
GS
[1 0 0 1 0 0] CT
-22.524 27.145 moveto 
1 -1 scale
(100) t 
GR
GR
GS
[1.97033 0 0 1.9685 835.68972 1193.126] CT
0 GC
/Helvetica-Bold 27 F
GS
[1 0 0 1 0 0] CT
-22.524 27.145 moveto 
1 -1 scale
(200) t 
GR
GR
GS
[0 -1.9685 1.97033 0 165.41234 822.06302] CT
0 GC
/Helvetica-Bold 29 F
GS
[1 0 0 1 0 0] CT
-38.671 -6.321 moveto 
1 -1 scale
(y \(px\)) t 
GR
GR
GS
[1.97033 0 0 1.9685 0 0.21265] CT
0 GC
2 setlinecap
10.0 ML
N
141 237 M
141 598 L
S
GR
GS
[1.97033 0 0 1.9685 0 0.21265] CT
0 GC
2 setlinecap
10.0 ML
N
502 237 M
502 598 L
S
GR
GS
[1.97033 0 0 1.9685 0 0.21265] CT
0 GC
2 setlinecap
10.0 ML
N
141 237 M
144.61 237 L
S
GR
GS
[1.97033 0 0 1.9685 0 0.21265] CT
0 GC
2 setlinecap
10.0 ML
N
502 237 M
498.39 237 L
S
GR
GS
[1.97033 0 0 1.9685 0 0.21265] CT
0 GC
2 setlinecap
10.0 ML
N
141 307.784 M
144.61 307.784 L
S
GR
GS
[1.97033 0 0 1.9685 0 0.21265] CT
0 GC
2 setlinecap
10.0 ML
N
502 307.784 M
498.39 307.784 L
S
GR
GS
[1.97033 0 0 1.9685 0 0.21265] CT
0 GC
2 setlinecap
10.0 ML
N
141 378.569 M
144.61 378.569 L
S
GR
GS
[1.97033 0 0 1.9685 0 0.21265] CT
0 GC
2 setlinecap
10.0 ML
N
502 378.569 M
498.39 378.569 L
S
GR
GS
[1.97033 0 0 1.9685 0 0.21265] CT
0 GC
2 setlinecap
10.0 ML
N
141 449.353 M
144.61 449.353 L
S
GR
GS
[1.97033 0 0 1.9685 0 0.21265] CT
0 GC
2 setlinecap
10.0 ML
N
502 449.353 M
498.39 449.353 L
S
GR
GS
[1.97033 0 0 1.9685 0 0.21265] CT
0 GC
2 setlinecap
10.0 ML
N
141 520.137 M
144.61 520.137 L
S
GR
GS
[1.97033 0 0 1.9685 0 0.21265] CT
0 GC
2 setlinecap
10.0 ML
N
502 520.137 M
498.39 520.137 L
S
GR
GS
[1.97033 0 0 1.9685 0 0.21265] CT
0 GC
2 setlinecap
10.0 ML
N
141 590.922 M
144.61 590.922 L
S
GR
GS
[1.97033 0 0 1.9685 0 0.21265] CT
0 GC
2 setlinecap
10.0 ML
N
502 590.922 M
498.39 590.922 L
S
GR
GS
[1.97033 0 0 1.9685 262.05368 466.74807] CT
0 GC
/Helvetica-Bold 27 F
GS
[1 0 0 1 0 0] CT
-15.016 10.665 moveto 
1 -1 scale
(0) t 
GR
GR
GS
[1.97033 0 0 1.9685 262.05368 606.08724] CT
0 GC
/Helvetica-Bold 27 F
GS
[1 0 0 1 0 0] CT
-30.032 10.665 moveto 
1 -1 scale
(50) t 
GR
GR
GS
[1.97033 0 0 1.9685 262.05368 745.42647] CT
0 GC
/Helvetica-Bold 27 F
GS
[1 0 0 1 0 0] CT
-45.048 10.665 moveto 
1 -1 scale
(100) t 
GR
GR
GS
[1.97033 0 0 1.9685 262.05368 884.76564] CT
0 GC
/Helvetica-Bold 27 F
GS
[1 0 0 1 0 0] CT
-45.048 10.665 moveto 
1 -1 scale
(150) t 
GR
GR
GS
[1.97033 0 0 1.9685 262.05368 1024.10488] CT
0 GC
/Helvetica-Bold 27 F
GS
[1 0 0 1 0 0] CT
-45.048 10.665 moveto 
1 -1 scale
(200) t 
GR
GR
GS
[1.97033 0 0 1.9685 262.05368 1163.44405] CT
0 GC
/Helvetica-Bold 27 F
GS
[1 0 0 1 0 0] CT
-45.048 10.665 moveto 
1 -1 scale
(250) t 
GR
GR
GS
[1.97033 0 0 1.9685 0 0.21265] CT
0.997 GC
N
978 237 M
617 237 L
617 598 L
978 598 L
cp
f
GR
GS
[2.7733 0 0 2.77073 1217.08729 468.14145] CT
[1 0 0 1 0 0] CT
N
0 256 M
0 0 L
256 0 L
256 256 L
cp
clip
GS
0 0 translate
256 256 scale
%AXGBeginBitmap: java.awt.image.BufferedImage
{{
/RawData currentfile /ASCII85Decode filter def
/Data RawData /FlateDecode filter def
/DeviceGray setcolorspace
<<
  /Decode [0 1]
  /BitsPerComponent 8
  /Width 256
  /ImageType 1
  /DataSource Data
  /ImageMatrix [256 0 0 256 0 0]
  /Height 256
>> image
} stopped {handleerror} if
  RawData flushfile
} exec
Gb"0NYmnT9&-G5+YH$[cm)4Gj"F`8Aj=gn4kI^W*Ip?@E\ut2CJ+<+Xnad:2c_&/%58ZV7&jQD(r;9.a
r.FP2-h6d=`m:9qcT`72IhG!G@/Tpor;;3;o-a)"&&uqf`6UXb5CX;1s'Yd&8c8L=nae-uo+/jeT>]&?
(dEK_5Q>-hr(6haKCSO\nad:2c_&/%58ZV7&jQD(r;9.ar.FP2-h6d=`m:9qcT`72IhG!G@/Tpor;;3;
o-^*s+,uomjS8+l&jQD(r;9.ar.FP2-h6d=`m:9qcT`72IhG!G@/Tpor;;3;o-a)"&&uqf`'<M4io`Nd
r^m.Sqp3T\`6UXb5CX;1s'Yd&8c8L=nae-uo+/jeT>]&?(dEK_5Q>-hr(6haKCSO\nad:2c_&/%58ZV7
&jQD(r;9.ar.FP2-h6d=`m:9qcT`72IhG!G@/Tpor;;3;o-a)"&&uqf1uSB67/=fR~>

%AXGEndBitmap
GR
GR
GS
[1.97033 0 0 1.9685 1571.33692 1260.63436] CT
0 GC
/Helvetica-Bold 29 F
GS
[1 0 0 1 0 0] CT
-38.671 29.156 moveto 
1 -1 scale
(x \(px\)) t 
GR
GR
GS
[1.97033 0 0 1.9685 0 0.21265] CT
0 GC
2 setlinecap
10.0 ML
N
617 598 M
978 598 L
S
GR
GS
[1.97033 0 0 1.9685 0 0.21265] CT
0 GC
2 setlinecap
10.0 ML
N
617 237 M
978 237 L
S
GR
GS
[1.97033 0 0 1.9685 0 0.21265] CT
0 GC
2 setlinecap
10.0 ML
N
617 598 M
617 594.39 L
S
GR
GS
[1.97033 0 0 1.9685 0 0.21265] CT
0 GC
2 setlinecap
10.0 ML
N
617 237 M
617 240.61 L
S
GR
GS
[1.97033 0 0 1.9685 0 0.21265] CT
0 GC
2 setlinecap
10.0 ML
N
758.569 598 M
758.569 594.39 L
S
GR
GS
[1.97033 0 0 1.9685 0 0.21265] CT
0 GC
2 setlinecap
10.0 ML
N
758.569 237 M
758.569 240.61 L
S
GR
GS
[1.97033 0 0 1.9685 0 0.21265] CT
0 GC
2 setlinecap
10.0 ML
N
900.137 598 M
900.137 594.39 L
S
GR
GS
[1.97033 0 0 1.9685 0 0.21265] CT
0 GC
2 setlinecap
10.0 ML
N
900.137 237 M
900.137 240.61 L
S
GR
GS
[1.97033 0 0 1.9685 1215.69264 1193.126] CT
0 GC
/Helvetica-Bold 27 F
GS
[1 0 0 1 0 0] CT
-7.508 27.145 moveto 
1 -1 scale
(0) t 
GR
GR
GS
[1.97033 0 0 1.9685 1494.62928 1193.126] CT
0 GC
/Helvetica-Bold 27 F
GS
[1 0 0 1 0 0] CT
-22.524 27.145 moveto 
1 -1 scale
(100) t 
GR
GR
GS
[1.97033 0 0 1.9685 1773.56605 1193.126] CT
0 GC
/Helvetica-Bold 27 F
GS
[1 0 0 1 0 0] CT
-22.524 27.145 moveto 
1 -1 scale
(200) t 
GR
GR
GS
[0 -1.9685 1.97033 0 1103.28867 822.06302] CT
0 GC
/Helvetica-Bold 29 F
GS
[1 0 0 1 0 0] CT
-38.671 -6.321 moveto 
1 -1 scale
(y \(px\)) t 
GR
GR
GS
[1.97033 0 0 1.9685 0 0.21265] CT
0 GC
2 setlinecap
10.0 ML
N
617 237 M
617 598 L
S
GR
GS
[1.97033 0 0 1.9685 0 0.21265] CT
0 GC
2 setlinecap
10.0 ML
N
978 237 M
978 598 L
S
GR
GS
[1.97033 0 0 1.9685 0 0.21265] CT
0 GC
2 setlinecap
10.0 ML
N
617 237 M
620.61 237 L
S
GR
GS
[1.97033 0 0 1.9685 0 0.21265] CT
0 GC
2 setlinecap
10.0 ML
N
978 237 M
974.39 237 L
S
GR
GS
[1.97033 0 0 1.9685 0 0.21265] CT
0 GC
2 setlinecap
10.0 ML
N
617 307.784 M
620.61 307.784 L
S
GR
GS
[1.97033 0 0 1.9685 0 0.21265] CT
0 GC
2 setlinecap
10.0 ML
N
978 307.784 M
974.39 307.784 L
S
GR
GS
[1.97033 0 0 1.9685 0 0.21265] CT
0 GC
2 setlinecap
10.0 ML
N
617 378.569 M
620.61 378.569 L
S
GR
GS
[1.97033 0 0 1.9685 0 0.21265] CT
0 GC
2 setlinecap
10.0 ML
N
978 378.569 M
974.39 378.569 L
S
GR
GS
[1.97033 0 0 1.9685 0 0.21265] CT
0 GC
2 setlinecap
10.0 ML
N
617 449.353 M
620.61 449.353 L
S
GR
GS
[1.97033 0 0 1.9685 0 0.21265] CT
0 GC
2 setlinecap
10.0 ML
N
978 449.353 M
974.39 449.353 L
S
GR
GS
[1.97033 0 0 1.9685 0 0.21265] CT
0 GC
2 setlinecap
10.0 ML
N
617 520.137 M
620.61 520.137 L
S
GR
GS
[1.97033 0 0 1.9685 0 0.21265] CT
0 GC
2 setlinecap
10.0 ML
N
978 520.137 M
974.39 520.137 L
S
GR
GS
[1.97033 0 0 1.9685 0 0.21265] CT
0 GC
2 setlinecap
10.0 ML
N
617 590.922 M
620.61 590.922 L
S
GR
GS
[1.97033 0 0 1.9685 0 0.21265] CT
0 GC
2 setlinecap
10.0 ML
N
978 590.922 M
974.39 590.922 L
S
GR
GS
[1.97033 0 0 1.9685 1199.93001 466.74807] CT
0 GC
/Helvetica-Bold 27 F
GS
[1 0 0 1 0 0] CT
-15.016 10.665 moveto 
1 -1 scale
(0) t 
GR
GR
GS
[1.97033 0 0 1.9685 1199.93001 606.08724] CT
0 GC
/Helvetica-Bold 27 F
GS
[1 0 0 1 0 0] CT
-30.032 10.665 moveto 
1 -1 scale
(50) t 
GR
GR
GS
[1.97033 0 0 1.9685 1199.93001 745.42647] CT
0 GC
/Helvetica-Bold 27 F
GS
[1 0 0 1 0 0] CT
-45.048 10.665 moveto 
1 -1 scale
(100) t 
GR
GR
GS
[1.97033 0 0 1.9685 1199.93001 884.76564] CT
0 GC
/Helvetica-Bold 27 F
GS
[1 0 0 1 0 0] CT
-45.048 10.665 moveto 
1 -1 scale
(150) t 
GR
GR
GS
[1.97033 0 0 1.9685 1199.93001 1024.10488] CT
0 GC
/Helvetica-Bold 27 F
GS
[1 0 0 1 0 0] CT
-45.048 10.665 moveto 
1 -1 scale
(200) t 
GR
GR
GS
[1.97033 0 0 1.9685 1199.93001 1163.44405] CT
0 GC
/Helvetica-Bold 27 F
GS
[1 0 0 1 0 0] CT
-45.048 10.665 moveto 
1 -1 scale
(250) t 
GR
GR
%%Trailer
%%BoundingBox: 95 368 1927 1266
%%Pages: 1
%%EOF
