%!PS-Adobe-3.0 EPSF-3.0
%%Creator: (MATLAB, The Mathworks, Inc. Version 8.4.0.150421 \(R2014b\). Operating System: Windows 8)
%%Title: ./dataSimulaceOdrazivosti_full_output_20.eps
%%CreationDate: 2017-08-21T11:16:04
%%Pages: (atend)
%%BoundingBox: (atend)
%%LanguageLevel: 3
%%EndComments
%%BeginProlog
%%BeginResource: procset (Apache XML Graphics Std ProcSet) 1.2 0
%%Version: 1.2 0
%%Copyright: (Copyright 2001-2003,2010 The Apache Software Foundation. License terms: http://www.apache.org/licenses/LICENSE-2.0)
/bd{bind def}bind def
/ld{load def}bd
/GR/grestore ld
/M/moveto ld
/LJ/setlinejoin ld
/C/curveto ld
/f/fill ld
/LW/setlinewidth ld
/GC/setgray ld
/t/show ld
/N/newpath ld
/CT/concat ld
/cp/closepath ld
/S/stroke ld
/L/lineto ld
/CC/setcmykcolor ld
/A/ashow ld
/GS/gsave ld
/RC/setrgbcolor ld
/RM/rmoveto ld
/ML/setmiterlimit ld
/re {4 2 roll M
1 index 0 rlineto
0 exch rlineto
neg 0 rlineto
cp } bd
/_ctm matrix def
/_tm matrix def
/BT { _ctm currentmatrix pop matrix _tm copy pop 0 0 moveto } bd
/ET { _ctm setmatrix } bd
/iTm { _ctm setmatrix _tm concat } bd
/Tm { _tm astore pop iTm 0 0 moveto } bd
/ux 0.0 def
/uy 0.0 def
/F {
  /Tp exch def
  /Tf exch def
  Tf findfont Tp scalefont setfont
  /cf Tf def  /cs Tp def
} bd
/ULS {currentpoint /uy exch def /ux exch def} bd
/ULE {
  /Tcx currentpoint pop def
  gsave
  newpath
  cf findfont cs scalefont dup
  /FontMatrix get 0 get /Ts exch def /FontInfo get dup
  /UnderlinePosition get Ts mul /To exch def
  /UnderlineThickness get Ts mul /Tt exch def
  ux uy To add moveto  Tcx uy To add lineto
  Tt setlinewidth stroke
  grestore
} bd
/OLE {
  /Tcx currentpoint pop def
  gsave
  newpath
  cf findfont cs scalefont dup
  /FontMatrix get 0 get /Ts exch def /FontInfo get dup
  /UnderlinePosition get Ts mul /To exch def
  /UnderlineThickness get Ts mul /Tt exch def
  ux uy To add cs add moveto Tcx uy To add cs add lineto
  Tt setlinewidth stroke
  grestore
} bd
/SOE {
  /Tcx currentpoint pop def
  gsave
  newpath
  cf findfont cs scalefont dup
  /FontMatrix get 0 get /Ts exch def /FontInfo get dup
  /UnderlinePosition get Ts mul /To exch def
  /UnderlineThickness get Ts mul /Tt exch def
  ux uy To add cs 10 mul 26 idiv add moveto Tcx uy To add cs 10 mul 26 idiv add lineto
  Tt setlinewidth stroke
  grestore
} bd
/QT {
/Y22 exch store
/X22 exch store
/Y21 exch store
/X21 exch store
currentpoint
/Y21 load 2 mul add 3 div exch
/X21 load 2 mul add 3 div exch
/X21 load 2 mul /X22 load add 3 div
/Y21 load 2 mul /Y22 load add 3 div
/X22 load /Y22 load curveto
} bd
/SSPD {
dup length /d exch dict def
{
/v exch def
/k exch def
currentpagedevice k known {
/cpdv currentpagedevice k get def
v cpdv ne {
/upd false def
/nullv v type /nulltype eq def
/nullcpdv cpdv type /nulltype eq def
nullv nullcpdv or
{
/upd true def
} {
/sametype v type cpdv type eq def
sametype {
v type /arraytype eq {
/vlen v length def
/cpdvlen cpdv length def
vlen cpdvlen eq {
0 1 vlen 1 sub {
/i exch def
/obj v i get def
/cpdobj cpdv i get def
obj cpdobj ne {
/upd true def
exit
} if
} for
} {
/upd true def
} ifelse
} {
v type /dicttype eq {
v {
/dv exch def
/dk exch def
/cpddv cpdv dk get def
dv cpddv ne {
/upd true def
exit
} if
} forall
} {
/upd true def
} ifelse
} ifelse
} if
} ifelse
upd true eq {
d k v put
} if
} if
} if
} forall
d length 0 gt {
d setpagedevice
} if
} bd
%%EndResource
%%BeginResource: procset (Apache XML Graphics EPS ProcSet) 1.0 0
%%Version: 1.0 0
%%Copyright: (Copyright 2002-2003 The Apache Software Foundation. License terms: http://www.apache.org/licenses/LICENSE-2.0)
/BeginEPSF { %def
/b4_Inc_state save def         % Save state for cleanup
/dict_count countdictstack def % Count objects on dict stack
/op_count count 1 sub def      % Count objects on operand stack
userdict begin                 % Push userdict on dict stack
/showpage { } def              % Redefine showpage, { } = null proc
0 setgray 0 setlinecap         % Prepare graphics state
1 setlinewidth 0 setlinejoin
10 setmiterlimit [ ] 0 setdash newpath
/languagelevel where           % If level not equal to 1 then
{pop languagelevel             % set strokeadjust and
1 ne                           % overprint to their defaults.
{false setstrokeadjust false setoverprint
} if
} if
} bd
/EndEPSF { %def
count op_count sub {pop} repeat            % Clean up stacks
countdictstack dict_count sub {end} repeat
b4_Inc_state restore
} bd
%%EndResource
%FOPBeginFontDict
%%IncludeResource: font Courier-Bold
%%IncludeResource: font Helvetica
%%IncludeResource: font Courier-BoldOblique
%%IncludeResource: font Courier-Oblique
%%IncludeResource: font Times-Roman
%%IncludeResource: font Helvetica-BoldOblique
%%IncludeResource: font Helvetica-Bold
%%IncludeResource: font Helvetica-Oblique
%%IncludeResource: font Times-BoldItalic
%%IncludeResource: font Courier
%%IncludeResource: font Times-Italic
%%IncludeResource: font Times-Bold
%%IncludeResource: font Symbol
%%IncludeResource: font ZapfDingbats
%FOPEndFontDict
%%BeginResource: encoding WinAnsiEncoding
/WinAnsiEncoding [
/.notdef /.notdef /.notdef /.notdef /.notdef
/.notdef /.notdef /.notdef /.notdef /.notdef
/.notdef /.notdef /.notdef /.notdef /.notdef
/.notdef /.notdef /.notdef /.notdef /.notdef
/.notdef /.notdef /.notdef /.notdef /.notdef
/.notdef /.notdef /.notdef /.notdef /.notdef
/.notdef /.notdef /space /exclam /quotedbl
/numbersign /dollar /percent /ampersand /quotesingle
/parenleft /parenright /asterisk /plus /comma
/hyphen /period /slash /zero /one
/two /three /four /five /six
/seven /eight /nine /colon /semicolon
/less /equal /greater /question /at
/A /B /C /D /E
/F /G /H /I /J
/K /L /M /N /O
/P /Q /R /S /T
/U /V /W /X /Y
/Z /bracketleft /backslash /bracketright /asciicircum
/underscore /quoteleft /a /b /c
/d /e /f /g /h
/i /j /k /l /m
/n /o /p /q /r
/s /t /u /v /w
/x /y /z /braceleft /bar
/braceright /asciitilde /bullet /Euro /bullet
/quotesinglbase /florin /quotedblbase /ellipsis /dagger
/daggerdbl /circumflex /perthousand /Scaron /guilsinglleft
/OE /bullet /Zcaron /bullet /bullet
/quoteleft /quoteright /quotedblleft /quotedblright /bullet
/endash /emdash /asciitilde /trademark /scaron
/guilsinglright /oe /bullet /zcaron /Ydieresis
/space /exclamdown /cent /sterling /currency
/yen /brokenbar /section /dieresis /copyright
/ordfeminine /guillemotleft /logicalnot /sfthyphen /registered
/macron /degree /plusminus /twosuperior /threesuperior
/acute /mu /paragraph /middot /cedilla
/onesuperior /ordmasculine /guillemotright /onequarter /onehalf
/threequarters /questiondown /Agrave /Aacute /Acircumflex
/Atilde /Adieresis /Aring /AE /Ccedilla
/Egrave /Eacute /Ecircumflex /Edieresis /Igrave
/Iacute /Icircumflex /Idieresis /Eth /Ntilde
/Ograve /Oacute /Ocircumflex /Otilde /Odieresis
/multiply /Oslash /Ugrave /Uacute /Ucircumflex
/Udieresis /Yacute /Thorn /germandbls /agrave
/aacute /acircumflex /atilde /adieresis /aring
/ae /ccedilla /egrave /eacute /ecircumflex
/edieresis /igrave /iacute /icircumflex /idieresis
/eth /ntilde /ograve /oacute /ocircumflex
/otilde /odieresis /divide /oslash /ugrave
/uacute /ucircumflex /udieresis /yacute /thorn
/ydieresis
] def
%%EndResource
%FOPBeginFontReencode
/Courier-Bold findfont
dup length dict begin
  {1 index /FID ne {def} {pop pop} ifelse} forall
  /Encoding WinAnsiEncoding def
  currentdict
end
/Courier-Bold exch definefont pop
/Helvetica findfont
dup length dict begin
  {1 index /FID ne {def} {pop pop} ifelse} forall
  /Encoding WinAnsiEncoding def
  currentdict
end
/Helvetica exch definefont pop
/Courier-BoldOblique findfont
dup length dict begin
  {1 index /FID ne {def} {pop pop} ifelse} forall
  /Encoding WinAnsiEncoding def
  currentdict
end
/Courier-BoldOblique exch definefont pop
/Courier-Oblique findfont
dup length dict begin
  {1 index /FID ne {def} {pop pop} ifelse} forall
  /Encoding WinAnsiEncoding def
  currentdict
end
/Courier-Oblique exch definefont pop
/Times-Roman findfont
dup length dict begin
  {1 index /FID ne {def} {pop pop} ifelse} forall
  /Encoding WinAnsiEncoding def
  currentdict
end
/Times-Roman exch definefont pop
/Helvetica-BoldOblique findfont
dup length dict begin
  {1 index /FID ne {def} {pop pop} ifelse} forall
  /Encoding WinAnsiEncoding def
  currentdict
end
/Helvetica-BoldOblique exch definefont pop
/Helvetica-Bold findfont
dup length dict begin
  {1 index /FID ne {def} {pop pop} ifelse} forall
  /Encoding WinAnsiEncoding def
  currentdict
end
/Helvetica-Bold exch definefont pop
/Helvetica-Oblique findfont
dup length dict begin
  {1 index /FID ne {def} {pop pop} ifelse} forall
  /Encoding WinAnsiEncoding def
  currentdict
end
/Helvetica-Oblique exch definefont pop
/Times-BoldItalic findfont
dup length dict begin
  {1 index /FID ne {def} {pop pop} ifelse} forall
  /Encoding WinAnsiEncoding def
  currentdict
end
/Times-BoldItalic exch definefont pop
/Courier findfont
dup length dict begin
  {1 index /FID ne {def} {pop pop} ifelse} forall
  /Encoding WinAnsiEncoding def
  currentdict
end
/Courier exch definefont pop
/Times-Italic findfont
dup length dict begin
  {1 index /FID ne {def} {pop pop} ifelse} forall
  /Encoding WinAnsiEncoding def
  currentdict
end
/Times-Italic exch definefont pop
/Times-Bold findfont
dup length dict begin
  {1 index /FID ne {def} {pop pop} ifelse} forall
  /Encoding WinAnsiEncoding def
  currentdict
end
/Times-Bold exch definefont pop
%FOPEndFontReencode
%%EndProlog
%%Page: 1 1
%%PageBoundingBox: 0 0 4535 2551
%%BeginPageSetup
[1 0 0 -1 0 2551] CT
%%EndPageSetup
GS
[2.95468 0 0 2.95276 0 -0.18115] CT
0.997 GC
N
0 0 1535 864 re
f
GR
GS
[2.95468 0 0 2.95276 0 -0.18115] CT
0.997 GC
N
0 0 1535 864 re
f
GR
GS
[2.95468 0 0 2.95276 0 -0.18115] CT
0.997 GC
N
176 770 M
1228 770 L
1228 65 L
176 65 L
cp
f
GR
GS
[2.95468 0 0 2.95276 2074.18504 2398.32554] CT
0 GC
/Helvetica-Bold 29 F
GS
[1 0 0 1 0 0] CT
-79.743 29.156 moveto 
1 -1 scale
(Angle \(deg\)) t 
GR
GR
GS
[2.95468 0 0 2.95276 0 -0.18115] CT
0 GC
2 setlinecap
10.0 ML
N
176 770 M
1228 770 L
S
GR
GS
[2.95468 0 0 2.95276 0 -0.18115] CT
0 GC
2 setlinecap
10.0 ML
N
176 770 M
176 759.48 L
S
GR
GS
[2.95468 0 0 2.95276 0 -0.18115] CT
0 GC
2 setlinecap
10.0 ML
N
281.2 770 M
281.2 759.48 L
S
GR
GS
[2.95468 0 0 2.95276 0 -0.18115] CT
0 GC
2 setlinecap
10.0 ML
N
386.4 770 M
386.4 759.48 L
S
GR
GS
[2.95468 0 0 2.95276 0 -0.18115] CT
0 GC
2 setlinecap
10.0 ML
N
491.6 770 M
491.6 759.48 L
S
GR
GS
[2.95468 0 0 2.95276 0 -0.18115] CT
0 GC
2 setlinecap
10.0 ML
N
596.8 770 M
596.8 759.48 L
S
GR
GS
[2.95468 0 0 2.95276 0 -0.18115] CT
0 GC
2 setlinecap
10.0 ML
N
702 770 M
702 759.48 L
S
GR
GS
[2.95468 0 0 2.95276 0 -0.18115] CT
0 GC
2 setlinecap
10.0 ML
N
807.2 770 M
807.2 759.48 L
S
GR
GS
[2.95468 0 0 2.95276 0 -0.18115] CT
0 GC
2 setlinecap
10.0 ML
N
912.4 770 M
912.4 759.48 L
S
GR
GS
[2.95468 0 0 2.95276 0 -0.18115] CT
0 GC
2 setlinecap
10.0 ML
N
1017.6 770 M
1017.6 759.48 L
S
GR
GS
[2.95468 0 0 2.95276 0 -0.18115] CT
0 GC
2 setlinecap
10.0 ML
N
1122.8 770 M
1122.8 759.48 L
S
GR
GS
[2.95468 0 0 2.95276 0 -0.18115] CT
0 GC
2 setlinecap
10.0 ML
N
1228 770 M
1228 759.48 L
S
GR
GS
[2.95468 0 0 2.95276 520.0236 2297.06299] CT
0 GC
/Helvetica-Bold 27 F
GS
[1 0 0 1 0 0] CT
-7.508 27.145 moveto 
1 -1 scale
(0) t 
GR
GR
GS
[2.95468 0 0 2.95276 830.85592 2297.06299] CT
0 GC
/Helvetica-Bold 27 F
GS
[1 0 0 1 0 0] CT
-18.767 27.145 moveto 
1 -1 scale
(0.2) t 
GR
GR
GS
[2.95468 0 0 2.95276 1141.68816 2297.06299] CT
0 GC
/Helvetica-Bold 27 F
GS
[1 0 0 1 0 0] CT
-18.767 27.145 moveto 
1 -1 scale
(0.4) t 
GR
GR
GS
[2.95468 0 0 2.95276 1452.52048 2297.06299] CT
0 GC
/Helvetica-Bold 27 F
GS
[1 0 0 1 0 0] CT
-18.767 27.145 moveto 
1 -1 scale
(0.6) t 
GR
GR
GS
[2.95468 0 0 2.95276 1763.35272 2297.06299] CT
0 GC
/Helvetica-Bold 27 F
GS
[1 0 0 1 0 0] CT
-18.767 27.145 moveto 
1 -1 scale
(0.8) t 
GR
GR
GS
[2.95468 0 0 2.95276 2074.18504 2297.06299] CT
0 GC
/Helvetica-Bold 27 F
GS
[1 0 0 1 0 0] CT
-7.508 27.145 moveto 
1 -1 scale
(1) t 
GR
GR
GS
[2.95468 0 0 2.95276 2385.01737 2297.06299] CT
0 GC
/Helvetica-Bold 27 F
GS
[1 0 0 1 0 0] CT
-18.767 27.145 moveto 
1 -1 scale
(1.2) t 
GR
GR
GS
[2.95468 0 0 2.95276 2695.84951 2297.06299] CT
0 GC
/Helvetica-Bold 27 F
GS
[1 0 0 1 0 0] CT
-18.767 27.145 moveto 
1 -1 scale
(1.4) t 
GR
GR
GS
[2.95468 0 0 2.95276 3006.68202 2297.06299] CT
0 GC
/Helvetica-Bold 27 F
GS
[1 0 0 1 0 0] CT
-18.767 27.145 moveto 
1 -1 scale
(1.6) t 
GR
GR
GS
[2.95468 0 0 2.95276 3317.51398 2297.06299] CT
0 GC
/Helvetica-Bold 27 F
GS
[1 0 0 1 0 0] CT
-18.767 27.145 moveto 
1 -1 scale
(1.8) t 
GR
GR
GS
[2.95468 0 0 2.95276 3628.34648 2297.06299] CT
0 GC
/Helvetica-Bold 27 F
GS
[1 0 0 1 0 0] CT
-7.508 27.145 moveto 
1 -1 scale
(2) t 
GR
GR
GS
[0 -2.95276 2.95468 0 373.66742 1232.59446] CT
0 GC
/Helvetica-Bold 29 F
GS
[1 0 0 1 0 0] CT
-95.878 -6.321 moveto 
1 -1 scale
(Reflectivity \(-\)) t 
GR
GR
GS
[2.95468 0 0 2.95276 0 -0.18115] CT
0 GC
2 setlinecap
10.0 ML
N
176 770 M
176 65 L
S
GR
GS
[2.95468 0 0 2.95276 0 -0.18115] CT
0 GC
2 setlinecap
10.0 ML
N
176 770 M
186.52 770 L
S
GR
GS
[2.95468 0 0 2.95276 0 -0.18115] CT
0 GC
2 setlinecap
10.0 ML
N
176 699.5 M
186.52 699.5 L
S
GR
GS
[2.95468 0 0 2.95276 0 -0.18115] CT
0 GC
2 setlinecap
10.0 ML
N
176 629 M
186.52 629 L
S
GR
GS
[2.95468 0 0 2.95276 0 -0.18115] CT
0 GC
2 setlinecap
10.0 ML
N
176 558.5 M
186.52 558.5 L
S
GR
GS
[2.95468 0 0 2.95276 0 -0.18115] CT
0 GC
2 setlinecap
10.0 ML
N
176 488 M
186.52 488 L
S
GR
GS
[2.95468 0 0 2.95276 0 -0.18115] CT
0 GC
2 setlinecap
10.0 ML
N
176 417.5 M
186.52 417.5 L
S
GR
GS
[2.95468 0 0 2.95276 0 -0.18115] CT
0 GC
2 setlinecap
10.0 ML
N
176 347 M
186.52 347 L
S
GR
GS
[2.95468 0 0 2.95276 0 -0.18115] CT
0 GC
2 setlinecap
10.0 ML
N
176 276.5 M
186.52 276.5 L
S
GR
GS
[2.95468 0 0 2.95276 0 -0.18115] CT
0 GC
2 setlinecap
10.0 ML
N
176 206 M
186.52 206 L
S
GR
GS
[2.95468 0 0 2.95276 0 -0.18115] CT
0 GC
2 setlinecap
10.0 ML
N
176 135.5 M
186.52 135.5 L
S
GR
GS
[2.95468 0 0 2.95276 0 -0.18115] CT
0 GC
2 setlinecap
10.0 ML
N
176 65 M
186.52 65 L
S
GR
GS
[2.95468 0 0 2.95276 496.38616 2273.44094] CT
0 GC
/Helvetica-Bold 27 F
GS
[1 0 0 1 0 0] CT
-15.016 10.665 moveto 
1 -1 scale
(0) t 
GR
GR
GS
[2.95468 0 0 2.95276 496.38616 2065.27164] CT
0 GC
/Helvetica-Bold 27 F
GS
[1 0 0 1 0 0] CT
-37.534 10.665 moveto 
1 -1 scale
(0.1) t 
GR
GR
GS
[2.95468 0 0 2.95276 496.38616 1857.10235] CT
0 GC
/Helvetica-Bold 27 F
GS
[1 0 0 1 0 0] CT
-37.534 10.665 moveto 
1 -1 scale
(0.2) t 
GR
GR
GS
[2.95468 0 0 2.95276 496.38616 1648.93305] CT
0 GC
/Helvetica-Bold 27 F
GS
[1 0 0 1 0 0] CT
-37.534 10.665 moveto 
1 -1 scale
(0.3) t 
GR
GR
GS
[2.95468 0 0 2.95276 496.38616 1440.76376] CT
0 GC
/Helvetica-Bold 27 F
GS
[1 0 0 1 0 0] CT
-37.534 10.665 moveto 
1 -1 scale
(0.4) t 
GR
GR
GS
[2.95468 0 0 2.95276 496.38616 1232.59446] CT
0 GC
/Helvetica-Bold 27 F
GS
[1 0 0 1 0 0] CT
-37.534 10.665 moveto 
1 -1 scale
(0.5) t 
GR
GR
GS
[2.95468 0 0 2.95276 496.38616 1024.42508] CT
0 GC
/Helvetica-Bold 27 F
GS
[1 0 0 1 0 0] CT
-37.534 10.665 moveto 
1 -1 scale
(0.6) t 
GR
GR
GS
[2.95468 0 0 2.95276 496.38616 816.25587] CT
0 GC
/Helvetica-Bold 27 F
GS
[1 0 0 1 0 0] CT
-37.534 10.665 moveto 
1 -1 scale
(0.7) t 
GR
GR
GS
[2.95468 0 0 2.95276 496.38616 608.08653] CT
0 GC
/Helvetica-Bold 27 F
GS
[1 0 0 1 0 0] CT
-37.534 10.665 moveto 
1 -1 scale
(0.8) t 
GR
GR
GS
[2.95468 0 0 2.95276 496.38616 399.91733] CT
0 GC
/Helvetica-Bold 27 F
GS
[1 0 0 1 0 0] CT
-37.534 10.665 moveto 
1 -1 scale
(0.9) t 
GR
GR
GS
[2.95468 0 0 2.95276 496.38616 191.74799] CT
0 GC
/Helvetica-Bold 27 F
GS
[1 0 0 1 0 0] CT
-15.016 10.665 moveto 
1 -1 scale
(1) t 
GR
GR
GS
[2.95468 0 0 2.95276 0 -0.18115] CT
0 GC
2 setlinecap
10.0 ML
2.667 LW
N
176 65 M
191.833 65.663 L
207.613 66.327 L
223.445 66.989 L
239.246 67.651 L
255.058 68.313 L
270.87 68.973 L
286.681 69.633 L
302.493 70.293 L
318.305 70.952 L
334.116 71.61 L
349.928 72.268 L
365.739 72.925 L
381.551 73.581 L
397.363 74.238 L
413.174 74.893 L
428.986 75.548 L
444.798 76.202 L
460.609 76.856 L
476.421 77.509 L
492.232 78.162 L
508.044 78.814 L
523.856 79.465 L
539.667 80.117 L
555.479 80.767 L
571.291 81.417 L
587.102 82.066 L
602.914 82.715 L
618.725 83.363 L
634.537 84.011 L
650.349 84.659 L
666.16 85.305 L
681.972 85.952 L
697.784 86.598 L
713.593 87.243 L
729.405 87.888 L
745.216 88.532 L
761.028 89.176 L
776.839 89.82 L
792.651 90.462 L
808.462 91.105 L
824.274 91.747 L
840.091 92.389 L
855.902 93.029 L
871.714 93.67 L
887.525 94.31 L
903.337 94.95 L
919.149 95.589 L
934.96 96.228 L
950.772 96.867 L
966.583 97.505 L
982.395 98.142 L
998.206 98.779 L
1014.018 99.416 L
1029.829 100.052 L
1045.641 100.688 L
1061.453 101.323 L
1077.264 101.958 L
1093.076 102.593 L
1108.887 103.227 L
1124.699 103.861 L
1140.51 104.494 L
1156.322 105.127 L
1172.134 105.76 L
1187.945 106.392 L
1203.757 107.024 L
1219.568 107.656 L
1228.105 107.997 L
S
GR
GS
[2.95468 0 0 2.95276 0 -0.18115] CT
0 GC
[8 2 4 2] 0 setdash
2 LJ
2.667 LW
N
176 65 M
191.833 70.232 L
207.613 75.432 L
223.445 80.604 L
239.246 85.75 L
255.058 90.878 L
270.87 95.99 L
286.681 101.094 L
302.493 106.197 L
318.305 111.295 L
334.116 116.403 L
349.928 121.513 L
365.739 126.643 L
381.551 131.798 L
397.363 136.985 L
413.174 142.195 L
428.986 147.431 L
444.798 152.715 L
460.609 158.055 L
476.421 163.457 L
492.232 168.911 L
508.044 174.419 L
523.856 180.034 L
539.667 185.697 L
555.479 191.485 L
571.291 197.362 L
587.102 203.362 L
602.914 209.469 L
618.725 215.722 L
634.537 222.136 L
650.349 228.695 L
666.16 235.446 L
681.972 242.372 L
697.784 249.527 L
713.593 256.936 L
729.405 264.584 L
745.216 272.537 L
761.028 280.829 L
776.839 289.452 L
792.651 298.49 L
808.462 307.941 L
824.274 317.907 L
840.091 328.454 L
855.902 339.594 L
871.714 351.468 L
887.525 364.174 L
903.337 377.753 L
919.149 392.319 L
934.96 408.162 L
950.772 425.272 L
966.583 443.77 L
982.395 463.847 L
998.206 485.525 L
1014.018 508.666 L
1029.829 532.775 L
1045.641 557.179 L
1061.453 581.224 L
1077.264 603.734 L
1093.076 624.365 L
1108.887 642.542 L
1124.699 658.207 L
1140.51 671.504 L
1156.322 683.035 L
1172.134 693.257 L
1187.945 702.109 L
1203.757 709.44 L
1219.568 715.221 L
1228.105 717.848 L
S
GR
GS
[2.95468 0 0 2.95276 0 -0.18115] CT
0 GC
[8 8] 0 setdash
2 LJ
2.667 LW
N
176 65 M
181.26 67.694 L
186.52 70.381 L
191.833 73.059 L
197.093 75.741 L
202.353 78.413 L
207.613 81.097 L
212.873 83.807 L
218.185 86.471 L
223.445 89.203 L
228.705 91.929 L
233.976 94.645 L
239.246 97.405 L
244.517 100.156 L
249.788 102.961 L
255.058 105.832 L
260.329 108.701 L
265.599 111.562 L
270.87 114.502 L
276.14 117.532 L
281.411 120.565 L
286.681 123.595 L
291.952 126.733 L
297.222 129.994 L
302.493 133.265 L
307.764 136.543 L
313.034 139.966 L
318.305 143.553 L
323.575 147.166 L
328.846 150.968 L
334.116 154.81 L
339.387 158.873 L
344.657 162.991 L
349.928 167.166 L
355.198 171.828 L
360.469 176.367 L
365.739 181.233 L
371.01 186.469 L
376.281 191.862 L
381.551 197.711 L
386.822 203.782 L
392.092 210.426 L
397.363 217.745 L
402.633 225.096 L
407.904 233.69 L
413.174 242.905 L
418.445 252.85 L
423.715 264.213 L
428.986 276.747 L
434.257 291.414 L
439.527 308.071 L
444.798 328.186 L
450.068 352.973 L
455.339 382.741 L
460.609 418.463 L
465.88 461.629 L
471.15 509.171 L
476.421 553.539 L
481.691 590.229 L
486.962 618.659 L
492.232 643.23 L
497.503 664.216 L
502.773 677.277 L
508.044 686.283 L
513.315 698.056 L
518.585 710.216 L
523.856 717.055 L
529.126 719.24 L
534.397 722.624 L
539.667 729.392 L
544.938 736.301 L
550.208 739.826 L
555.479 740.461 L
560.75 741.024 L
566.02 743.492 L
571.291 747.37 L
576.561 750.965 L
581.832 752.869 L
587.102 753.08 L
592.373 752.657 L
597.643 753.01 L
602.914 754.843 L
608.184 757.733 L
613.455 760.06 L
618.725 760.623 L
623.996 759.566 L
629.266 758.367 L
634.537 758.72 L
639.808 760.835 L
645.078 763.436 L
650.349 764.818 L
655.619 764.24 L
660.89 762.668 L
666.16 761.681 L
671.431 762.456 L
676.701 764.416 L
681.972 766.341 L
687.243 766.954 L
692.513 766.122 L
697.784 764.846 L
703.052 764.297 L
708.323 764.966 L
713.593 766.383 L
718.864 767.617 L
724.134 767.948 L
729.405 767.455 L
734.675 766.708 L
739.946 766.376 L
745.216 766.672 L
750.487 767.399 L
755.757 768.082 L
761.028 768.421 L
766.298 768.371 L
771.569 768.132 L
776.839 767.913 L
782.11 767.864 L
787.38 767.998 L
792.651 768.266 L
797.921 768.583 L
803.192 768.858 L
808.462 768.992 L
813.733 768.928 L
819.003 768.717 L
824.274 768.491 L
829.544 768.435 L
834.815 768.625 L
840.091 768.999 L
845.361 769.358 L
850.632 769.485 L
855.902 769.319 L
861.173 768.985 L
866.443 768.731 L
871.714 768.745 L
876.984 769.027 L
882.255 769.427 L
887.525 769.686 L
892.796 769.672 L
898.067 769.429 L
903.337 769.14 L
908.608 769.02 L
913.878 769.133 L
919.149 769.412 L
924.419 769.685 L
929.69 769.798 L
934.96 769.717 L
940.231 769.533 L
945.501 769.383 L
950.772 769.363 L
956.042 769.474 L
961.313 769.643 L
966.583 769.775 L
971.854 769.813 L
977.124 769.768 L
982.395 769.691 L
987.665 769.637 L
992.936 769.631 L
998.206 769.669 L
1003.477 769.726 L
1008.747 769.783 L
1014.018 769.824 L
1019.288 769.843 L
1024.559 769.838 L
1029.829 769.809 L
1035.1 769.77 L
1040.371 769.742 L
1045.641 769.745 L
1050.911 769.788 L
1056.182 769.855 L
1061.453 769.91 L
1066.723 769.925 L
1071.994 769.889 L
1077.264 769.824 L
1082.535 769.774 L
1087.805 769.769 L
1093.076 769.819 L
1098.346 769.894 L
1103.617 769.951 L
1108.887 769.96 L
1114.158 769.919 L
1119.428 769.858 L
1124.699 769.817 L
1129.969 769.821 L
1135.24 769.867 L
1140.51 769.929 L
1145.781 769.969 L
1151.052 769.97 L
1156.322 769.938 L
1161.593 769.898 L
1166.863 769.875 L
1172.134 769.883 L
1177.404 769.914 L
1182.675 769.95 L
1187.945 769.971 L
1193.216 769.972 L
1198.486 769.957 L
1203.757 769.939 L
1209.027 769.93 L
1214.298 769.932 L
1219.568 769.942 L
1224.839 769.956 L
1228.105 769.962 L
S
GR
GS
[2.95468 0 0 2.95276 0 -0.18115] CT
0 GC
[2 2] 0 setdash
2 LJ
2.667 LW
N
176 65 M
181.26 69.382 L
186.52 73.841 L
191.833 78.272 L
197.093 83.006 L
202.353 87.73 L
207.613 93.035 L
212.873 99.274 L
218.185 104.773 L
223.445 112.719 L
228.705 121.508 L
233.976 131.358 L
239.246 145.46 L
244.517 164.067 L
249.788 199.353 L
255.058 316.508 L
260.329 594.152 L
265.599 679.514 L
270.87 725.232 L
276.14 736.724 L
281.411 734.539 L
286.681 755.971 L
291.952 749.484 L
297.222 758.932 L
302.493 762.034 L
307.764 759.002 L
313.034 767.109 L
318.305 761.469 L
323.575 768.639 L
328.846 765.157 L
334.116 768.682 L
339.387 767.37 L
344.657 768.787 L
349.928 768.336 L
355.198 768.985 L
360.469 768.773 L
365.739 769.013 L
371.01 769.133 L
376.281 769.239 L
381.551 769.492 L
386.822 769.436 L
392.092 769.75 L
397.363 769.598 L
402.633 769.857 L
407.904 769.677 L
413.174 769.879 L
418.445 769.764 L
423.715 769.853 L
428.986 769.857 L
434.257 769.848 L
439.527 769.933 L
444.798 769.873 L
450.068 769.969 L
455.339 769.919 L
460.609 769.972 L
465.88 769.955 L
471.15 769.96 L
476.421 769.98 L
481.691 769.949 L
486.962 769.994 L
492.232 769.954 L
497.503 769.998 L
502.773 769.969 L
508.044 769.996 L
513.315 769.985 L
518.585 769.992 L
523.856 769.995 L
529.126 769.99 L
534.397 769.998 L
539.667 769.991 L
544.938 769.998 L
550.208 769.994 L
555.479 769.997 L
560.75 769.997 L
566.02 769.997 L
571.291 769.999 L
576.561 769.998 L
581.832 769.999 L
587.102 769.999 L
592.373 769.999 L
597.643 770 L
602.914 769.999 L
608.184 770 L
613.455 769.999 L
618.725 770 L
623.996 769.999 L
629.266 770 L
634.537 770 L
639.808 770 L
645.078 770 L
650.349 770 L
655.619 770 L
660.89 770 L
666.16 770 L
671.431 770 L
676.701 770 L
681.972 770 L
687.243 770 L
692.513 770 L
697.784 770 L
703.052 770 L
708.323 770 L
713.593 770 L
718.864 770 L
724.134 770 L
729.405 770 L
734.675 770 L
739.946 770 L
745.216 770 L
750.487 770 L
755.757 770 L
761.028 770 L
766.298 770 L
771.569 770 L
776.839 770 L
782.11 770 L
787.38 770 L
792.651 770 L
797.921 770 L
803.192 770 L
808.462 770 L
813.733 770 L
819.003 770 L
824.274 770 L
829.544 770 L
834.815 770 L
840.091 770 L
845.361 770 L
850.632 770 L
855.902 770 L
861.173 770 L
866.443 770 L
871.714 770 L
876.984 770 L
882.255 770 L
887.525 770 L
892.796 770 L
898.067 770 L
903.337 770 L
908.608 770 L
913.878 770 L
919.149 770 L
924.419 770 L
929.69 770 L
934.96 770 L
940.231 770 L
945.501 770 L
950.772 770 L
956.042 770 L
961.313 770 L
966.583 770 L
971.854 770 L
977.124 770 L
982.395 770 L
987.665 770 L
992.936 770 L
998.206 770 L
1003.477 770 L
1008.747 770 L
1014.018 770 L
1019.288 770 L
1024.559 770 L
1029.829 770 L
1035.1 770 L
1040.371 770 L
1045.641 770 L
1050.911 770 L
1056.182 770 L
1061.453 770 L
1066.723 770 L
1071.994 770 L
1077.264 770 L
1082.535 770 L
1087.805 770 L
1093.076 770 L
1098.346 770 L
1103.617 770 L
1108.887 770 L
1114.158 770 L
1119.428 770 L
1124.699 770 L
1129.969 770 L
1135.24 770 L
1140.51 770 L
1145.781 770 L
1151.052 770 L
1156.322 770 L
1161.593 770 L
1166.863 770 L
1172.134 770 L
1177.404 770 L
1182.675 770 L
1187.945 770 L
1193.216 770 L
1198.486 770 L
1203.757 770 L
1209.027 770 L
1214.298 770 L
1219.568 770 L
1224.839 770 L
1228.105 770 L
S
GR
GS
[2.95468 0 0 2.95276 3847.22324 1098.97874] CT
0 GC
/Helvetica-Bold 24 F
GS
[1 0 0 1 0 0] CT
0 9.535 moveto 
1 -1 scale
(110 eV) t 
GR
GR
GS
[2.95468 0 0 2.95276 0 -0.18115] CT
0 GC
2 setlinecap
10.0 ML
2.667 LW
N
1258.012 372.249 M
1298.072 372.249 L
S
GR
GS
[2.95468 0 0 2.95276 3847.22324 1187.07167] CT
0 GC
/Helvetica-Bold 24 F
GS
[1 0 0 1 0 0] CT
0 9.535 moveto 
1 -1 scale
(2123 eV) t 
GR
GR
GS
[2.95468 0 0 2.95276 0 -0.18115] CT
0 GC
[8 2 4 2] 0 setdash
2 LJ
2.667 LW
N
1258.012 402.083 M
1298.072 402.083 L
S
GR
GS
[2.95468 0 0 2.95276 3847.22324 1275.1645] CT
0 GC
/Helvetica-Bold 24 F
GS
[1 0 0 1 0 0] CT
0 9.535 moveto 
1 -1 scale
(8048 eV) t 
GR
GR
GS
[2.95468 0 0 2.95276 0 -0.18115] CT
0 GC
[8 8] 0 setdash
2 LJ
2.667 LW
N
1258.012 431.917 M
1298.072 431.917 L
S
GR
GS
[2.95468 0 0 2.95276 3847.22324 1363.25743] CT
0 GC
/Helvetica-Bold 24 F
GS
[1 0 0 1 0 0] CT
0 9.535 moveto 
1 -1 scale
(30973 eV) t 
GR
GR
GS
[2.95468 0 0 2.95276 0 -0.18115] CT
0 GC
[2 2] 0 setdash
2 LJ
2.667 LW
N
1258.012 461.751 M
1298.072 461.751 L
S
GR
%%Trailer
%%BoundingBox: 268 44 4150 2407
%%Pages: 1
%%EOF
