%!PS-Adobe-3.0 EPSF-3.0
%%Creator: (MATLAB, The Mathworks, Inc. Version 9.6.0.1135713 \(R2019a\) Update 3. Operating System: Windows 10)
%%Title: ./REX_sumH.eps
%%CreationDate: 2019-07-16T22:56:45
%%Pages: (atend)
%%BoundingBox:   123    16  1647   810
%%LanguageLevel: 3
%%EndComments
%%BeginProlog
%%BeginResource: procset (Apache XML Graphics Std ProcSet) 1.2 0
%%Version: 1.2 0
%%Copyright: (Copyright 2001-2003,2010 The Apache Software Foundation. License terms: http://www.apache.org/licenses/LICENSE-2.0)
/bd{bind def}bind def
/ld{load def}bd
/GR/grestore ld
/GS/gsave ld
/RM/rmoveto ld
/C/curveto ld
/t/show ld
/L/lineto ld
/ML/setmiterlimit ld
/CT/concat ld
/f/fill ld
/N/newpath ld
/S/stroke ld
/CC/setcmykcolor ld
/A/ashow ld
/cp/closepath ld
/RC/setrgbcolor ld
/LJ/setlinejoin ld
/GC/setgray ld
/LW/setlinewidth ld
/M/moveto ld
/re {4 2 roll M
1 index 0 rlineto
0 exch rlineto
neg 0 rlineto
cp } bd
/_ctm matrix def
/_tm matrix def
/BT { _ctm currentmatrix pop matrix _tm copy pop 0 0 moveto } bd
/ET { _ctm setmatrix } bd
/iTm { _ctm setmatrix _tm concat } bd
/Tm { _tm astore pop iTm 0 0 moveto } bd
/ux 0.0 def
/uy 0.0 def
/F {
  /Tp exch def
  /Tf exch def
  Tf findfont Tp scalefont setfont
  /cf Tf def  /cs Tp def
} bd
/ULS {currentpoint /uy exch def /ux exch def} bd
/ULE {
  /Tcx currentpoint pop def
  gsave
  newpath
  cf findfont cs scalefont dup
  /FontMatrix get 0 get /Ts exch def /FontInfo get dup
  /UnderlinePosition get Ts mul /To exch def
  /UnderlineThickness get Ts mul /Tt exch def
  ux uy To add moveto  Tcx uy To add lineto
  Tt setlinewidth stroke
  grestore
} bd
/OLE {
  /Tcx currentpoint pop def
  gsave
  newpath
  cf findfont cs scalefont dup
  /FontMatrix get 0 get /Ts exch def /FontInfo get dup
  /UnderlinePosition get Ts mul /To exch def
  /UnderlineThickness get Ts mul /Tt exch def
  ux uy To add cs add moveto Tcx uy To add cs add lineto
  Tt setlinewidth stroke
  grestore
} bd
/SOE {
  /Tcx currentpoint pop def
  gsave
  newpath
  cf findfont cs scalefont dup
  /FontMatrix get 0 get /Ts exch def /FontInfo get dup
  /UnderlinePosition get Ts mul /To exch def
  /UnderlineThickness get Ts mul /Tt exch def
  ux uy To add cs 10 mul 26 idiv add moveto Tcx uy To add cs 10 mul 26 idiv add lineto
  Tt setlinewidth stroke
  grestore
} bd
/QT {
/Y22 exch store
/X22 exch store
/Y21 exch store
/X21 exch store
currentpoint
/Y21 load 2 mul add 3 div exch
/X21 load 2 mul add 3 div exch
/X21 load 2 mul /X22 load add 3 div
/Y21 load 2 mul /Y22 load add 3 div
/X22 load /Y22 load curveto
} bd
/SSPD {
dup length /d exch dict def
{
/v exch def
/k exch def
currentpagedevice k known {
/cpdv currentpagedevice k get def
v cpdv ne {
/upd false def
/nullv v type /nulltype eq def
/nullcpdv cpdv type /nulltype eq def
nullv nullcpdv or
{
/upd true def
} {
/sametype v type cpdv type eq def
sametype {
v type /arraytype eq {
/vlen v length def
/cpdvlen cpdv length def
vlen cpdvlen eq {
0 1 vlen 1 sub {
/i exch def
/obj v i get def
/cpdobj cpdv i get def
obj cpdobj ne {
/upd true def
exit
} if
} for
} {
/upd true def
} ifelse
} {
v type /dicttype eq {
v {
/dv exch def
/dk exch def
/cpddv cpdv dk get def
dv cpddv ne {
/upd true def
exit
} if
} forall
} {
/upd true def
} ifelse
} ifelse
} if
} ifelse
upd true eq {
d k v put
} if
} if
} if
} forall
d length 0 gt {
d setpagedevice
} if
} bd
/RE { % /NewFontName [NewEncodingArray] /FontName RE -
  findfont dup length dict begin
  {
    1 index /FID ne
    {def} {pop pop} ifelse
  } forall
  /Encoding exch def
  /FontName 1 index def
  currentdict definefont pop
  end
} bind def
%%EndResource
%%BeginResource: procset (Apache XML Graphics EPS ProcSet) 1.0 0
%%Version: 1.0 0
%%Copyright: (Copyright 2002-2003 The Apache Software Foundation. License terms: http://www.apache.org/licenses/LICENSE-2.0)
/BeginEPSF { %def
/b4_Inc_state save def         % Save state for cleanup
/dict_count countdictstack def % Count objects on dict stack
/op_count count 1 sub def      % Count objects on operand stack
userdict begin                 % Push userdict on dict stack
/showpage { } def              % Redefine showpage, { } = null proc
0 setgray 0 setlinecap         % Prepare graphics state
1 setlinewidth 0 setlinejoin
10 setmiterlimit [ ] 0 setdash newpath
/languagelevel where           % If level not equal to 1 then
{pop languagelevel             % set strokeadjust and
1 ne                           % overprint to their defaults.
{false setstrokeadjust false setoverprint
} if
} if
} bd
/EndEPSF { %def
count op_count sub {pop} repeat            % Clean up stacks
countdictstack dict_count sub {end} repeat
b4_Inc_state restore
} bd
%%EndResource
%FOPBeginFontDict
%%IncludeResource: font Courier-Oblique
%%IncludeResource: font Courier-BoldOblique
%%IncludeResource: font Courier-Bold
%%IncludeResource: font ZapfDingbats
%%IncludeResource: font Symbol
%%IncludeResource: font Helvetica
%%IncludeResource: font Helvetica-Oblique
%%IncludeResource: font Helvetica-Bold
%%IncludeResource: font Helvetica-BoldOblique
%%IncludeResource: font Times-Roman
%%IncludeResource: font Times-Italic
%%IncludeResource: font Times-Bold
%%IncludeResource: font Times-BoldItalic
%%IncludeResource: font Courier
%FOPEndFontDict
%%BeginResource: encoding WinAnsiEncoding
/WinAnsiEncoding [
/.notdef /.notdef /.notdef /.notdef /.notdef
/.notdef /.notdef /.notdef /.notdef /.notdef
/.notdef /.notdef /.notdef /.notdef /.notdef
/.notdef /.notdef /.notdef /.notdef /.notdef
/.notdef /.notdef /.notdef /.notdef /.notdef
/.notdef /.notdef /.notdef /.notdef /.notdef
/.notdef /.notdef /space /exclam /quotedbl
/numbersign /dollar /percent /ampersand /quotesingle
/parenleft /parenright /asterisk /plus /comma
/hyphen /period /slash /zero /one
/two /three /four /five /six
/seven /eight /nine /colon /semicolon
/less /equal /greater /question /at
/A /B /C /D /E
/F /G /H /I /J
/K /L /M /N /O
/P /Q /R /S /T
/U /V /W /X /Y
/Z /bracketleft /backslash /bracketright /asciicircum
/underscore /quoteleft /a /b /c
/d /e /f /g /h
/i /j /k /l /m
/n /o /p /q /r
/s /t /u /v /w
/x /y /z /braceleft /bar
/braceright /asciitilde /bullet /Euro /bullet
/quotesinglbase /florin /quotedblbase /ellipsis /dagger
/daggerdbl /circumflex /perthousand /Scaron /guilsinglleft
/OE /bullet /Zcaron /bullet /bullet
/quoteleft /quoteright /quotedblleft /quotedblright /bullet
/endash /emdash /asciitilde /trademark /scaron
/guilsinglright /oe /bullet /zcaron /Ydieresis
/space /exclamdown /cent /sterling /currency
/yen /brokenbar /section /dieresis /copyright
/ordfeminine /guillemotleft /logicalnot /sfthyphen /registered
/macron /degree /plusminus /twosuperior /threesuperior
/acute /mu /paragraph /middot /cedilla
/onesuperior /ordmasculine /guillemotright /onequarter /onehalf
/threequarters /questiondown /Agrave /Aacute /Acircumflex
/Atilde /Adieresis /Aring /AE /Ccedilla
/Egrave /Eacute /Ecircumflex /Edieresis /Igrave
/Iacute /Icircumflex /Idieresis /Eth /Ntilde
/Ograve /Oacute /Ocircumflex /Otilde /Odieresis
/multiply /Oslash /Ugrave /Uacute /Ucircumflex
/Udieresis /Yacute /Thorn /germandbls /agrave
/aacute /acircumflex /atilde /adieresis /aring
/ae /ccedilla /egrave /eacute /ecircumflex
/edieresis /igrave /iacute /icircumflex /idieresis
/eth /ntilde /ograve /oacute /ocircumflex
/otilde /odieresis /divide /oslash /ugrave
/uacute /ucircumflex /udieresis /yacute /thorn
/ydieresis
] def
%%EndResource
%FOPBeginFontReencode
/Courier-Oblique findfont
dup length dict begin
  {1 index /FID ne {def} {pop pop} ifelse} forall
  /Encoding WinAnsiEncoding def
  currentdict
end
/Courier-Oblique exch definefont pop
/Courier-BoldOblique findfont
dup length dict begin
  {1 index /FID ne {def} {pop pop} ifelse} forall
  /Encoding WinAnsiEncoding def
  currentdict
end
/Courier-BoldOblique exch definefont pop
/Courier-Bold findfont
dup length dict begin
  {1 index /FID ne {def} {pop pop} ifelse} forall
  /Encoding WinAnsiEncoding def
  currentdict
end
/Courier-Bold exch definefont pop
/Helvetica findfont
dup length dict begin
  {1 index /FID ne {def} {pop pop} ifelse} forall
  /Encoding WinAnsiEncoding def
  currentdict
end
/Helvetica exch definefont pop
/Helvetica-Oblique findfont
dup length dict begin
  {1 index /FID ne {def} {pop pop} ifelse} forall
  /Encoding WinAnsiEncoding def
  currentdict
end
/Helvetica-Oblique exch definefont pop
/Helvetica-Bold findfont
dup length dict begin
  {1 index /FID ne {def} {pop pop} ifelse} forall
  /Encoding WinAnsiEncoding def
  currentdict
end
/Helvetica-Bold exch definefont pop
/Helvetica-BoldOblique findfont
dup length dict begin
  {1 index /FID ne {def} {pop pop} ifelse} forall
  /Encoding WinAnsiEncoding def
  currentdict
end
/Helvetica-BoldOblique exch definefont pop
/Times-Roman findfont
dup length dict begin
  {1 index /FID ne {def} {pop pop} ifelse} forall
  /Encoding WinAnsiEncoding def
  currentdict
end
/Times-Roman exch definefont pop
/Times-Italic findfont
dup length dict begin
  {1 index /FID ne {def} {pop pop} ifelse} forall
  /Encoding WinAnsiEncoding def
  currentdict
end
/Times-Italic exch definefont pop
/Times-Bold findfont
dup length dict begin
  {1 index /FID ne {def} {pop pop} ifelse} forall
  /Encoding WinAnsiEncoding def
  currentdict
end
/Times-Bold exch definefont pop
/Times-BoldItalic findfont
dup length dict begin
  {1 index /FID ne {def} {pop pop} ifelse} forall
  /Encoding WinAnsiEncoding def
  currentdict
end
/Times-BoldItalic exch definefont pop
/Courier findfont
dup length dict begin
  {1 index /FID ne {def} {pop pop} ifelse} forall
  /Encoding WinAnsiEncoding def
  currentdict
end
/Courier exch definefont pop
%FOPEndFontReencode
%%EndProlog
%%Page: 1 1
%%PageBoundingBox: 0 0 1728 864
%%BeginPageSetup
[1 0 0 -1 0 864] CT
%%EndPageSetup
GS
[0.9 0 0 0.9 0 0] CT
1 GC
N
0 0 1920 960 re
f
GR
GS
[0.9 0 0 0.9 0 0] CT
1 GC
N
0 0 1920 960 re
f
GR
GS
[0.9 0 0 0.9 0 0] CT
1 GC
N
250 854 M
1738 854 L
1738 72 L
250 72 L
cp
f
GR
GS
[0.9 0 0 0.9 0 0] CT
0.873 GC
1 LJ
0.556 LW
N
250 854 M
250 72 L
S
GR
GS
[0.9 0 0 0.9 0 0] CT
0.873 GC
1 LJ
0.556 LW
N
462.571 854 M
462.571 72 L
S
GR
GS
[0.9 0 0 0.9 0 0] CT
0.873 GC
1 LJ
0.556 LW
N
675.143 854 M
675.143 72 L
S
GR
GS
[0.9 0 0 0.9 0 0] CT
0.873 GC
1 LJ
0.556 LW
N
887.714 854 M
887.714 72 L
S
GR
GS
[0.9 0 0 0.9 0 0] CT
0.873 GC
1 LJ
0.556 LW
N
1100.286 854 M
1100.286 72 L
S
GR
GS
[0.9 0 0 0.9 0 0] CT
0.873 GC
1 LJ
0.556 LW
N
1312.857 854 M
1312.857 72 L
S
GR
GS
[0.9 0 0 0.9 0 0] CT
0.873 GC
1 LJ
0.556 LW
N
1525.429 854 M
1525.429 72 L
S
GR
GS
[0.9 0 0 0.9 0 0] CT
0.873 GC
1 LJ
0.556 LW
N
1738 854 M
1738 72 L
S
GR
GS
[0.9 0 0 0.9 0 0] CT
0.851 GC
1 LJ
0.556 LW
N
1738 854 M
250 854 L
S
GR
GS
[0.9 0 0 0.9 0 0] CT
0.851 GC
1 LJ
0.556 LW
N
1738 782.909 M
250 782.909 L
S
GR
GS
[0.9 0 0 0.9 0 0] CT
0.851 GC
1 LJ
0.556 LW
N
1738 711.818 M
250 711.818 L
S
GR
GS
[0.9 0 0 0.9 0 0] CT
0.851 GC
1 LJ
0.556 LW
N
1738 640.727 M
250 640.727 L
S
GR
GS
[0.9 0 0 0.9 0 0] CT
0.851 GC
1 LJ
0.556 LW
N
1738 569.636 M
250 569.636 L
S
GR
GS
[0.9 0 0 0.9 0 0] CT
0.851 GC
1 LJ
0.556 LW
N
1738 498.545 M
250 498.545 L
S
GR
GS
[0.9 0 0 0.9 0 0] CT
0.851 GC
1 LJ
0.556 LW
N
1738 427.455 M
250 427.455 L
S
GR
GS
[0.9 0 0 0.9 0 0] CT
0.851 GC
1 LJ
0.556 LW
N
1738 356.364 M
250 356.364 L
S
GR
GS
[0.9 0 0 0.9 0 0] CT
0.851 GC
1 LJ
0.556 LW
N
1738 285.273 M
250 285.273 L
S
GR
GS
[0.9 0 0 0.9 0 0] CT
0.851 GC
1 LJ
0.556 LW
N
1738 214.182 M
250 214.182 L
S
GR
GS
[0.9 0 0 0.9 0 0] CT
0.851 GC
1 LJ
0.556 LW
N
1738 143.091 M
250 143.091 L
S
GR
GS
[0.9 0 0 0.9 0 0] CT
0.851 GC
1 LJ
0.556 LW
N
1738 72 M
250 72 L
S
GR
GS
[0.9 0 0 0.9 0 0] CT
0.149 GC
2 setlinecap
1 LJ
0.556 LW
N
250 854 M
1738 854 L
S
GR
GS
[0.9 0 0 0.9 0 0] CT
0.149 GC
2 setlinecap
1 LJ
0.556 LW
N
250 72 M
1738 72 L
S
GR
GS
[0.9 0 0 0.9 0 0] CT
0.149 GC
2 setlinecap
1 LJ
0.556 LW
N
250 854 M
250 839.12 L
S
GR
GS
[0.9 0 0 0.9 0 0] CT
0.149 GC
2 setlinecap
1 LJ
0.556 LW
N
462.571 854 M
462.571 839.12 L
S
GR
GS
[0.9 0 0 0.9 0 0] CT
0.149 GC
2 setlinecap
1 LJ
0.556 LW
N
675.143 854 M
675.143 839.12 L
S
GR
GS
[0.9 0 0 0.9 0 0] CT
0.149 GC
2 setlinecap
1 LJ
0.556 LW
N
887.714 854 M
887.714 839.12 L
S
GR
GS
[0.9 0 0 0.9 0 0] CT
0.149 GC
2 setlinecap
1 LJ
0.556 LW
N
1100.286 854 M
1100.286 839.12 L
S
GR
GS
[0.9 0 0 0.9 0 0] CT
0.149 GC
2 setlinecap
1 LJ
0.556 LW
N
1312.857 854 M
1312.857 839.12 L
S
GR
GS
[0.9 0 0 0.9 0 0] CT
0.149 GC
2 setlinecap
1 LJ
0.556 LW
N
1525.429 854 M
1525.429 839.12 L
S
GR
GS
[0.9 0 0 0.9 0 0] CT
0.149 GC
2 setlinecap
1 LJ
0.556 LW
N
1738 854 M
1738 839.12 L
S
GR
GS
[0.9 0 0 0.9 0 0] CT
0.149 GC
2 setlinecap
1 LJ
0.556 LW
N
250 72 M
250 86.88 L
S
GR
GS
[0.9 0 0 0.9 0 0] CT
0.149 GC
2 setlinecap
1 LJ
0.556 LW
N
462.571 72 M
462.571 86.88 L
S
GR
GS
[0.9 0 0 0.9 0 0] CT
0.149 GC
2 setlinecap
1 LJ
0.556 LW
N
675.143 72 M
675.143 86.88 L
S
GR
GS
[0.9 0 0 0.9 0 0] CT
0.149 GC
2 setlinecap
1 LJ
0.556 LW
N
887.714 72 M
887.714 86.88 L
S
GR
GS
[0.9 0 0 0.9 0 0] CT
0.149 GC
2 setlinecap
1 LJ
0.556 LW
N
1100.286 72 M
1100.286 86.88 L
S
GR
GS
[0.9 0 0 0.9 0 0] CT
0.149 GC
2 setlinecap
1 LJ
0.556 LW
N
1312.857 72 M
1312.857 86.88 L
S
GR
GS
[0.9 0 0 0.9 0 0] CT
0.149 GC
2 setlinecap
1 LJ
0.556 LW
N
1525.429 72 M
1525.429 86.88 L
S
GR
GS
[0.9 0 0 0.9 0 0] CT
0.149 GC
2 setlinecap
1 LJ
0.556 LW
N
1738 72 M
1738 86.88 L
S
GR
GS
[0.9 0 0 0.9 225 777.6] CT
0.149 GC
/Helvetica 33.333 F
GS
[1 0 0 1 0 0] CT
-9.5 31 moveto 
1 -1 scale
(0) t 
GR
GR
GS
[0.9 0 0 0.9 416.3143 777.6] CT
0.149 GC
/Helvetica 33.333 F
GS
[1 0 0 1 0 0] CT
-9.5 31 moveto 
1 -1 scale
(2) t 
GR
GR
GS
[0.9 0 0 0.9 607.62859 777.6] CT
0.149 GC
/Helvetica 33.333 F
GS
[1 0 0 1 0 0] CT
-9.5 31 moveto 
1 -1 scale
(4) t 
GR
GR
GS
[0.9 0 0 0.9 798.94286 777.6] CT
0.149 GC
/Helvetica 33.333 F
GS
[1 0 0 1 0 0] CT
-9.5 31 moveto 
1 -1 scale
(6) t 
GR
GR
GS
[0.9 0 0 0.9 990.25719 777.6] CT
0.149 GC
/Helvetica 33.333 F
GS
[1 0 0 1 0 0] CT
-9.5 31 moveto 
1 -1 scale
(8) t 
GR
GR
GS
[0.9 0 0 0.9 1181.57146 777.6] CT
0.149 GC
/Helvetica 33.333 F
GS
[1 0 0 1 0 0] CT
-19 31 moveto 
1 -1 scale
(10) t 
GR
GR
GS
[0.9 0 0 0.9 1372.88573 777.6] CT
0.149 GC
/Helvetica 33.333 F
GS
[1 0 0 1 0 0] CT
-19 31 moveto 
1 -1 scale
(12) t 
GR
GR
GS
[0.9 0 0 0.9 1564.2 777.6] CT
0.149 GC
/Helvetica 33.333 F
GS
[1 0 0 1 0 0] CT
-19 31 moveto 
1 -1 scale
(14) t 
GR
GR
GS
[0.9 0 0 0.9 894.60066 813.30002] CT
0.149 GC
/Helvetica 33.333 F
GS
[1 0 0 1 0 0] CT
-52 31 moveto 
1 -1 scale
(x \(mm\)) t 
GR
GR
GS
[0.9 0 0 0.9 0 0] CT
2 setlinecap
1 LJ
0.556 LW
N
250 854 M
250 72 L
S
GR
GS
[0.9 0 0 0.9 0 0] CT
2 setlinecap
1 LJ
0.556 LW
N
250 854 M
264.88 854 L
S
GR
GS
[0.9 0 0 0.9 0 0] CT
2 setlinecap
1 LJ
0.556 LW
N
250 782.909 M
264.88 782.909 L
S
GR
GS
[0.9 0 0 0.9 0 0] CT
2 setlinecap
1 LJ
0.556 LW
N
250 711.818 M
264.88 711.818 L
S
GR
GS
[0.9 0 0 0.9 0 0] CT
2 setlinecap
1 LJ
0.556 LW
N
250 640.727 M
264.88 640.727 L
S
GR
GS
[0.9 0 0 0.9 0 0] CT
2 setlinecap
1 LJ
0.556 LW
N
250 569.636 M
264.88 569.636 L
S
GR
GS
[0.9 0 0 0.9 0 0] CT
2 setlinecap
1 LJ
0.556 LW
N
250 498.545 M
264.88 498.545 L
S
GR
GS
[0.9 0 0 0.9 0 0] CT
2 setlinecap
1 LJ
0.556 LW
N
250 427.455 M
264.88 427.455 L
S
GR
GS
[0.9 0 0 0.9 0 0] CT
2 setlinecap
1 LJ
0.556 LW
N
250 356.364 M
264.88 356.364 L
S
GR
GS
[0.9 0 0 0.9 0 0] CT
2 setlinecap
1 LJ
0.556 LW
N
250 285.273 M
264.88 285.273 L
S
GR
GS
[0.9 0 0 0.9 0 0] CT
2 setlinecap
1 LJ
0.556 LW
N
250 214.182 M
264.88 214.182 L
S
GR
GS
[0.9 0 0 0.9 0 0] CT
2 setlinecap
1 LJ
0.556 LW
N
250 143.091 M
264.88 143.091 L
S
GR
GS
[0.9 0 0 0.9 0 0] CT
2 setlinecap
1 LJ
0.556 LW
N
250 72 M
264.88 72 L
S
GR
GS
[0.9 0 0 0.9 216 768.6] CT
/Helvetica 33.333 F
GS
[1 0 0 1 0 0] CT
-67 12 moveto 
1 -1 scale
(-100) t 
GR
GR
GS
[0.9 0 0 0.9 216 704.61821] CT
/Helvetica 33.333 F
GS
[1 0 0 1 0 0] CT
-49 12 moveto 
1 -1 scale
(-50) t 
GR
GR
GS
[0.9 0 0 0.9 216 640.63636] CT
/Helvetica 33.333 F
GS
[1 0 0 1 0 0] CT
-19 12 moveto 
1 -1 scale
(0) t 
GR
GR
GS
[0.9 0 0 0.9 216 576.65457] CT
/Helvetica 33.333 F
GS
[1 0 0 1 0 0] CT
-38 12 moveto 
1 -1 scale
(50) t 
GR
GR
GS
[0.9 0 0 0.9 216 512.67272] CT
/Helvetica 33.333 F
GS
[1 0 0 1 0 0] CT
-56 12 moveto 
1 -1 scale
(100) t 
GR
GR
GS
[0.9 0 0 0.9 216 448.6909] CT
/Helvetica 33.333 F
GS
[1 0 0 1 0 0] CT
-56 12 moveto 
1 -1 scale
(150) t 
GR
GR
GS
[0.9 0 0 0.9 216 384.7091] CT
/Helvetica 33.333 F
GS
[1 0 0 1 0 0] CT
-56 12 moveto 
1 -1 scale
(200) t 
GR
GR
GS
[0.9 0 0 0.9 216 320.72728] CT
/Helvetica 33.333 F
GS
[1 0 0 1 0 0] CT
-56 12 moveto 
1 -1 scale
(250) t 
GR
GR
GS
[0.9 0 0 0.9 216 256.74546] CT
/Helvetica 33.333 F
GS
[1 0 0 1 0 0] CT
-56 12 moveto 
1 -1 scale
(300) t 
GR
GR
GS
[0.9 0 0 0.9 216 192.76364] CT
/Helvetica 33.333 F
GS
[1 0 0 1 0 0] CT
-56 12 moveto 
1 -1 scale
(350) t 
GR
GR
GS
[0.9 0 0 0.9 216 128.78182] CT
/Helvetica 33.333 F
GS
[1 0 0 1 0 0] CT
-56 12 moveto 
1 -1 scale
(400) t 
GR
GR
GS
[0.9 0 0 0.9 216 64.8] CT
/Helvetica 33.333 F
GS
[1 0 0 1 0 0] CT
-56 12 moveto 
1 -1 scale
(450) t 
GR
GR
GS
[0 -0.9 0.9 0 151.2 416.69967] CT
/Helvetica 33.333 F
GS
[1 0 0 1 0 0] CT
-83.5 -7 moveto 
1 -1 scale
(Intensity \(-\)) t 
GR
GR
GS
[0.9 0 0 0.9 0 0] CT
0.929 0.694 0.125 RC
2 setlinecap
1 LJ
0.556 LW
N
1738 854 M
1738 72 L
S
GR
GS
[0.9 0 0 0.9 0 0] CT
0.929 0.694 0.125 RC
2 setlinecap
1 LJ
0.556 LW
N
1738 854 M
1723.12 854 L
S
GR
GS
[0.9 0 0 0.9 0 0] CT
0.929 0.694 0.125 RC
2 setlinecap
1 LJ
0.556 LW
N
1738 767.111 M
1723.12 767.111 L
S
GR
GS
[0.9 0 0 0.9 0 0] CT
0.929 0.694 0.125 RC
2 setlinecap
1 LJ
0.556 LW
N
1738 680.222 M
1723.12 680.222 L
S
GR
GS
[0.9 0 0 0.9 0 0] CT
0.929 0.694 0.125 RC
2 setlinecap
1 LJ
0.556 LW
N
1738 593.333 M
1723.12 593.333 L
S
GR
GS
[0.9 0 0 0.9 0 0] CT
0.929 0.694 0.125 RC
2 setlinecap
1 LJ
0.556 LW
N
1738 506.444 M
1723.12 506.444 L
S
GR
GS
[0.9 0 0 0.9 0 0] CT
0.929 0.694 0.125 RC
2 setlinecap
1 LJ
0.556 LW
N
1738 419.556 M
1723.12 419.556 L
S
GR
GS
[0.9 0 0 0.9 0 0] CT
0.929 0.694 0.125 RC
2 setlinecap
1 LJ
0.556 LW
N
1738 332.667 M
1723.12 332.667 L
S
GR
GS
[0.9 0 0 0.9 0 0] CT
0.929 0.694 0.125 RC
2 setlinecap
1 LJ
0.556 LW
N
1738 245.778 M
1723.12 245.778 L
S
GR
GS
[0.9 0 0 0.9 0 0] CT
0.929 0.694 0.125 RC
2 setlinecap
1 LJ
0.556 LW
N
1738 158.889 M
1723.12 158.889 L
S
GR
GS
[0.9 0 0 0.9 0 0] CT
0.929 0.694 0.125 RC
2 setlinecap
1 LJ
0.556 LW
N
1738 72 M
1723.12 72 L
S
GR
GS
[0.9 0 0 0.9 1573.2 768.6] CT
0.929 0.694 0.125 RC
/Helvetica 33.333 F
GS
[1 0 0 1 0 0] CT
0 12 moveto 
1 -1 scale
(-5) t 
GR
GR
GS
[0.9 0 0 0.9 1573.2 690.39998] CT
0.929 0.694 0.125 RC
/Helvetica 33.333 F
GS
[1 0 0 1 0 0] CT
0 12 moveto 
1 -1 scale
(0) t 
GR
GR
GS
[0.9 0 0 0.9 1573.2 612.20001] CT
0.929 0.694 0.125 RC
/Helvetica 33.333 F
GS
[1 0 0 1 0 0] CT
0 12 moveto 
1 -1 scale
(5) t 
GR
GR
GS
[0.9 0 0 0.9 1573.2 533.99998] CT
0.929 0.694 0.125 RC
/Helvetica 33.333 F
GS
[1 0 0 1 0 0] CT
0 12 moveto 
1 -1 scale
(10) t 
GR
GR
GS
[0.9 0 0 0.9 1573.2 455.80001] CT
0.929 0.694 0.125 RC
/Helvetica 33.333 F
GS
[1 0 0 1 0 0] CT
0 12 moveto 
1 -1 scale
(15) t 
GR
GR
GS
[0.9 0 0 0.9 1573.2 377.59999] CT
0.929 0.694 0.125 RC
/Helvetica 33.333 F
GS
[1 0 0 1 0 0] CT
0 12 moveto 
1 -1 scale
(20) t 
GR
GR
GS
[0.9 0 0 0.9 1573.2 299.39999] CT
0.929 0.694 0.125 RC
/Helvetica 33.333 F
GS
[1 0 0 1 0 0] CT
0 12 moveto 
1 -1 scale
(25) t 
GR
GR
GS
[0.9 0 0 0.9 1573.2 221.19999] CT
0.929 0.694 0.125 RC
/Helvetica 33.333 F
GS
[1 0 0 1 0 0] CT
0 12 moveto 
1 -1 scale
(30) t 
GR
GR
GS
[0.9 0 0 0.9 1573.2 143] CT
0.929 0.694 0.125 RC
/Helvetica 33.333 F
GS
[1 0 0 1 0 0] CT
0 12 moveto 
1 -1 scale
(35) t 
GR
GR
GS
[0.9 0 0 0.9 1573.2 64.8] CT
0.929 0.694 0.125 RC
/Helvetica 33.333 F
GS
[1 0 0 1 0 0] CT
0 12 moveto 
1 -1 scale
(40) t 
GR
GR
GS
[0 -0.9 0.9 0 1611.9 416.69967] CT
0.929 0.694 0.125 RC
/Helvetica 33.333 F
GS
[1 0 0 1 0 0] CT
-134.5 31 moveto 
1 -1 scale
(Diff. in intensity \(-\)) t 
GR
GR
GS
[0.9 0 0 0.9 0 0] CT
N
250 72 M
1739 72 L
1739 855 L
250 855 L
250 72 L
cp
clip
0 0.447 0.741 RC
1 LJ
0.556 LW
N
251.461 697.503 M
254.384 697.406 L
257.307 697.436 L
260.23 697.511 L
263.153 697.293 L
266.076 697.416 L
268.999 697.108 L
271.921 697.08 L
274.844 696.811 L
277.767 696.646 L
280.69 696.574 L
283.613 696.1 L
286.536 696.109 L
289.459 695.946 L
292.381 695.957 L
295.304 695.598 L
298.227 695.556 L
301.15 695.524 L
304.073 695.446 L
306.996 695.568 L
309.919 695.511 L
312.841 695.599 L
315.764 695.721 L
318.687 695.772 L
321.61 696.071 L
324.533 696.146 L
327.456 696.161 L
330.379 696.471 L
333.301 696.611 L
336.224 697.013 L
339.147 697.54 L
342.07 697.729 L
344.993 697.979 L
347.916 697.84 L
350.839 698.052 L
353.761 698.038 L
356.684 697.786 L
359.607 697.701 L
362.53 697.462 L
365.453 697.114 L
368.376 696.635 L
371.299 696.254 L
374.221 695.936 L
377.144 695.56 L
380.067 695.318 L
382.99 694.768 L
385.913 694.185 L
388.836 693.705 L
391.759 693.648 L
394.681 693.42 L
397.604 693.157 L
400.527 693.181 L
403.45 693.186 L
406.373 693.368 L
409.296 693.446 L
412.219 693.715 L
415.141 694.294 L
418.064 694.497 L
420.987 695.19 L
423.91 696.017 L
426.833 696.693 L
429.756 696.994 L
432.679 697.562 L
435.601 697.916 L
438.524 698.543 L
441.447 699.464 L
444.37 700.079 L
447.293 700.805 L
450.216 701.229 L
453.139 701.8 L
456.061 702.237 L
458.984 702.443 L
461.907 702.556 L
464.83 702.427 L
467.753 702.258 L
470.676 701.901 L
473.599 701.31 L
476.521 700.785 L
479.444 700.002 L
482.367 699.044 L
485.29 697.829 L
488.213 696.247 L
491.136 694.604 L
494.059 692.548 L
496.981 690.532 L
499.904 688.174 L
502.827 685.303 L
505.75 681.95 L
508.673 678.294 L
511.596 673.933 L
514.519 669.269 L
517.441 664.568 L
520.364 659.841 L
523.287 655.586 L
526.21 650.814 L
529.133 645.552 L
532.056 640.295 L
534.979 635.565 L
537.901 631.998 L
540.824 631.069 L
543.747 632.257 L
546.67 635.423 L
549.593 640.519 L
552.516 645.997 L
555.439 651.337 L
558.361 656.752 L
561.284 661.173 L
564.207 665.778 L
567.13 669.965 L
570.053 673.742 L
572.976 677.638 L
575.899 681.328 L
578.821 684.805 L
581.744 687.889 L
584.667 690.274 L
587.59 692.146 L
590.513 693.79 L
593.436 695.367 L
596.359 696.703 L
599.281 698.054 L
602.204 699.324 L
605.127 700.485 L
608.05 701.617 L
610.973 702.232 L
613.896 702.888 L
616.819 703.188 L
619.741 703.2 L
622.664 703.27 L
625.587 703.024 L
628.51 702.548 L
631.433 702.055 L
634.356 701.633 L
637.279 700.922 L
640.201 700.283 L
643.124 699.262 L
646.047 698.433 L
648.97 697.512 L
651.893 696.922 L
654.816 696.283 L
657.739 695.63 L
660.661 694.866 L
663.584 693.807 L
666.507 693.589 L
669.43 693.155 L
672.353 693.468 L
675.276 693.604 L
678.199 693.844 L
681.121 694.115 L
684.044 694.71 L
686.967 695.581 L
689.89 696.791 L
692.813 697.646 L
695.736 698.496 L
698.659 698.846 L
701.581 698.887 L
704.504 698.999 L
707.427 699.061 L
710.35 698.658 L
713.273 698.446 L
716.196 697.758 L
719.119 697.031 L
722.041 696.036 L
724.964 694.996 L
727.887 694.098 L
730.81 693.632 L
733.733 692.302 L
736.656 691.093 L
739.579 689.664 L
742.501 689.003 L
745.424 688.607 L
748.347 689.236 L
751.27 689.841 L
754.193 690.632 L
757.116 691.338 L
760.039 692.102 L
762.961 693.09 L
765.884 694.411 L
768.807 696.371 L
771.73 698.291 L
774.653 700.026 L
777.576 701.55 L
780.499 702.565 L
783.421 703.382 L
786.344 704.358 L
789.267 704.949 L
792.19 705.581 L
795.113 706.204 L
798.036 706.705 L
800.959 707.088 L
803.881 707.506 L
806.804 707.824 L
809.727 707.93 L
812.65 707.765 L
815.573 707.339 L
818.496 706.674 L
821.419 705.772 L
824.341 704.679 L
827.264 703.382 L
830.187 701.795 L
833.11 699.769 L
836.033 697.135 L
838.956 693.939 L
841.879 689.939 L
844.801 685.102 L
847.724 679.184 L
850.647 672.029 L
853.57 663.569 L
856.493 653.52 L
859.416 641.983 L
862.339 628.696 L
865.261 613.708 L
868.184 597.283 L
871.107 578.628 L
874.03 557.528 L
876.953 533.929 L
879.876 507.938 L
882.799 479.176 L
885.721 450.539 L
888.644 425.916 L
891.567 410.049 L
894.49 406.199 L
897.413 412.516 L
900.336 424.577 L
903.259 438.995 L
906.181 452.499 L
909.104 465.165 L
912.027 476.753 L
914.95 487.666 L
917.873 498.685 L
920.796 508.989 L
923.719 518.773 L
926.641 527.557 L
929.564 535.599 L
932.487 542.199 L
935.41 547.699 L
938.333 551.776 L
941.256 554.836 L
944.179 557.812 L
947.101 561.653 L
950.024 567.917 L
952.947 576.579 L
955.87 587.307 L
958.793 598.384 L
961.716 609.087 L
964.639 619.376 L
967.561 628.584 L
970.484 636.518 L
973.407 643.443 L
976.33 649.649 L
979.253 655.385 L
982.176 660.894 L
985.099 666.019 L
988.021 670.95 L
990.944 675.416 L
993.867 679.562 L
996.79 683.593 L
999.713 687.095 L
1002.636 690.19 L
1005.559 692.753 L
1008.481 694.754 L
1011.404 696.482 L
1014.327 697.785 L
1017.25 698.965 L
1020.173 700.228 L
1023.096 701.397 L
1026.019 702.277 L
1028.941 703.004 L
1031.864 703.502 L
1034.787 703.606 L
1037.71 703.753 L
1040.633 703.861 L
1043.556 704.052 L
1046.479 704.303 L
1049.401 704.301 L
1052.324 704.184 L
1055.247 703.734 L
1058.17 703.074 L
1061.093 702.361 L
1064.016 701.388 L
1066.939 700.205 L
1069.861 698.9 L
1072.784 697.302 L
1075.707 695.471 L
1078.63 693.718 L
1081.553 692.034 L
1084.476 690.035 L
1087.399 687.907 L
1090.321 685.682 L
1093.244 683.433 L
1096.167 681.291 L
1099.09 680.378 L
1102.013 680.765 L
1104.936 682.301 L
1107.859 684.049 L
1110.781 686.648 L
1113.704 689.205 L
1116.627 692.378 L
1119.55 695.625 L
1122.473 698.923 L
1125.396 701.691 L
1128.319 703.915 L
1131.241 705.605 L
1134.164 706.898 L
1137.087 707.917 L
1140.01 708.817 L
1142.933 709.567 L
1145.856 710.209 L
1148.779 710.696 L
1151.701 711.064 L
1154.624 711.376 L
1157.547 711.623 L
1160.47 711.818 L
1163.393 711.818 L
1166.316 711.818 L
1169.239 711.818 L
1172.161 711.818 L
1175.084 711.818 L
1178.007 711.499 L
1180.93 710.549 L
1183.853 708.964 L
1186.776 706.47 L
1189.699 702.752 L
1192.621 697.418 L
1195.544 689.995 L
1198.467 679.985 L
1201.39 666.837 L
1204.313 649.795 L
1207.236 628.463 L
1210.159 601.892 L
1213.081 570.216 L
1216.004 533.238 L
1218.927 490.427 L
1221.85 443.004 L
1224.773 391.152 L
1227.696 337.304 L
1230.619 281.558 L
1233.541 228.792 L
1236.464 184.306 L
1239.387 153.997 L
1242.31 143.786 L
1245.233 156.385 L
1248.156 189.81 L
1251.078 238.035 L
1254.001 293.528 L
1256.924 350.954 L
1259.847 405.418 L
1262.77 454.97 L
1265.693 500.181 L
1268.616 539.755 L
1271.539 574.576 L
1274.461 604.259 L
1277.384 628.772 L
1280.307 648.802 L
1283.23 664.867 L
1286.153 677.446 L
1289.076 687.116 L
1291.999 694.465 L
1294.922 699.901 L
1297.844 703.865 L
1300.767 706.682 L
1303.69 708.582 L
1306.613 709.852 L
1309.536 710.641 L
1312.459 711.085 L
1315.381 711.294 L
1318.304 711.353 L
1321.227 711.316 L
1324.15 711.203 L
1327.073 711.038 L
1329.996 710.804 L
1332.919 710.482 L
1335.841 710.067 L
1338.764 709.545 L
1341.687 708.884 L
1344.61 708.074 L
1347.533 707.186 L
1350.456 706.14 L
1353.379 704.883 L
1356.301 703.323 L
1359.224 701.484 L
1362.147 699.125 L
1365.07 696.645 L
1367.993 694.011 L
1370.916 691.654 L
1373.839 689.313 L
1376.761 687.469 L
1379.684 685.984 L
1382.607 685.057 L
1385.53 684.288 L
1388.453 683.873 L
1391.376 684.156 L
1394.299 684.933 L
1397.221 685.97 L
1400.144 687.202 L
1403.067 688.653 L
1405.99 690.273 L
1408.913 691.301 L
1411.836 692.792 L
1414.759 694.019 L
1417.681 695.234 L
1420.604 696.473 L
1423.527 697.564 L
1426.45 698.713 L
1429.373 699.818 L
1432.296 700.555 L
1435.219 701.162 L
1438.141 701.442 L
1441.064 701.654 L
1443.987 701.834 L
1446.91 701.774 L
1449.833 701.977 L
1452.756 702.184 L
1455.679 702.437 L
1458.601 702.701 L
1461.524 703.044 L
1464.447 703.365 L
1467.37 703.4 L
1470.293 703.333 L
1473.216 703.151 L
1476.139 702.833 L
1479.061 702.22 L
1481.984 701.468 L
1484.907 700.413 L
1487.83 699.029 L
1490.753 697.561 L
1493.676 695.773 L
1496.599 693.805 L
1499.521 691.562 L
1502.444 689.113 L
1505.367 686.274 L
1508.29 682.989 L
1511.213 679.237 L
1514.136 675.224 L
1517.059 670.9 L
1519.981 666.319 L
1522.904 661.531 L
1525.827 656.52 L
1528.75 651.195 L
1531.673 645.713 L
1534.596 640.283 L
1537.519 634.974 L
1540.441 630.622 L
1543.364 627.758 L
1546.287 626.826 L
1549.21 628.447 L
1552.133 631.873 L
1555.056 636.703 L
1557.979 642.316 L
1560.901 647.638 L
1563.824 652.841 L
1566.747 657.579 L
1569.67 662.585 L
1572.593 667.025 L
1575.516 671.803 L
1578.439 675.885 L
1581.361 679.772 L
1584.284 683.148 L
1587.207 686.169 L
1590.13 688.855 L
1593.053 691.387 L
1595.976 693.695 L
1598.899 695.581 L
1601.821 697.229 L
1604.744 698.745 L
1607.667 699.748 L
1610.59 700.644 L
1613.513 701.459 L
1616.436 702.062 L
1619.359 702.607 L
1622.281 703.126 L
1625.204 703.462 L
1628.127 703.571 L
1631.05 703.41 L
1633.973 703.002 L
1636.896 702.643 L
1639.819 702.022 L
1642.741 701.35 L
1645.664 700.81 L
1648.587 700.114 L
1651.51 699.432 L
1654.433 698.541 L
1657.356 697.849 L
1660.279 696.969 L
1663.201 696.478 L
1666.124 695.313 L
1669.047 694.363 L
1671.97 693.629 L
1674.893 693.181 L
1677.816 692.968 L
1680.739 692.84 L
1683.661 692.718 L
1686.584 692.698 L
1689.507 692.876 L
1692.43 692.823 L
1695.353 693.276 L
1698.276 693.799 L
1701.199 694.419 L
1704.121 694.957 L
1707.044 695.686 L
1709.967 695.928 L
1712.89 696.583 L
1715.813 696.778 L
1718.736 697.098 L
1721.659 697.271 L
1724.581 697.53 L
1727.504 698.029 L
1730.427 698.015 L
1733.35 698.249 L
1736.273 698.1 L
1739.196 698.109 L
1742.119 698.018 L
1745.041 697.836 L
S
GR
GS
[0.9 0 0 0.9 0 0] CT
N
250 72 M
1739 72 L
1739 855 L
250 855 L
250 72 L
cp
clip
0.851 0.325 0.098 RC
1 LJ
0.556 LW
N
251.461 697.459 M
254.384 697.447 L
257.307 697.438 L
260.23 697.413 L
263.153 697.362 L
266.076 697.278 L
268.999 697.157 L
271.921 697.007 L
274.844 696.837 L
277.767 696.653 L
280.69 696.457 L
283.613 696.265 L
286.536 696.104 L
289.459 695.972 L
292.381 695.84 L
295.304 695.708 L
298.227 695.6 L
301.15 695.538 L
304.073 695.518 L
306.996 695.531 L
309.919 695.566 L
312.841 695.631 L
315.764 695.728 L
318.687 695.852 L
321.61 695.992 L
324.533 696.129 L
327.456 696.278 L
330.379 696.475 L
333.301 696.738 L
336.224 697.063 L
339.147 697.392 L
342.07 697.657 L
344.993 697.828 L
347.916 697.917 L
350.839 697.947 L
353.761 697.911 L
356.684 697.799 L
359.607 697.62 L
362.53 697.367 L
365.453 697.042 L
368.376 696.67 L
371.299 696.293 L
374.221 695.932 L
377.144 695.571 L
380.067 695.176 L
382.99 694.734 L
385.913 694.288 L
388.836 693.911 L
391.759 693.634 L
394.681 693.432 L
397.604 693.297 L
400.527 693.242 L
403.45 693.271 L
406.373 693.382 L
409.296 693.573 L
412.219 693.857 L
415.141 694.238 L
418.064 694.716 L
420.987 695.293 L
423.91 695.922 L
426.833 696.515 L
429.756 697.041 L
432.679 697.536 L
435.601 698.069 L
438.524 698.687 L
441.447 699.37 L
444.37 700.051 L
447.293 700.678 L
450.216 701.231 L
453.139 701.706 L
456.061 702.078 L
458.984 702.313 L
461.907 702.397 L
464.83 702.327 L
467.753 702.111 L
470.676 701.751 L
473.599 701.254 L
476.521 700.62 L
479.444 699.819 L
482.367 698.814 L
485.29 697.571 L
488.213 696.083 L
491.136 694.366 L
494.059 692.43 L
496.981 690.253 L
499.904 687.768 L
502.827 684.891 L
505.75 681.577 L
508.673 677.816 L
511.596 673.646 L
514.519 669.19 L
517.441 664.601 L
520.364 659.982 L
523.287 655.315 L
526.21 650.506 L
529.133 645.579 L
532.056 640.819 L
534.979 636.741 L
537.901 633.967 L
540.824 633.002 L
543.747 634.024 L
546.67 636.862 L
549.593 641.066 L
552.516 646.027 L
555.439 651.209 L
558.361 656.263 L
561.284 661.03 L
564.207 665.5 L
567.13 669.703 L
570.053 673.685 L
572.976 677.493 L
575.899 681.104 L
578.821 684.433 L
581.744 687.368 L
584.667 689.845 L
587.59 691.907 L
590.513 693.665 L
593.436 695.225 L
596.359 696.654 L
599.281 697.989 L
602.204 699.235 L
605.127 700.367 L
608.05 701.338 L
610.973 702.103 L
613.896 702.65 L
616.819 702.983 L
619.741 703.115 L
622.664 703.07 L
625.587 702.855 L
628.51 702.496 L
631.433 702.038 L
634.356 701.495 L
637.279 700.858 L
640.201 700.117 L
643.124 699.296 L
646.047 698.457 L
648.97 697.666 L
651.893 696.942 L
654.816 696.251 L
657.739 695.545 L
660.661 694.825 L
663.584 694.178 L
666.507 693.721 L
669.43 693.506 L
672.353 693.509 L
675.276 693.665 L
678.199 693.932 L
681.121 694.345 L
684.044 694.951 L
686.967 695.753 L
689.89 696.655 L
692.813 697.506 L
695.736 698.178 L
698.659 698.615 L
701.581 698.838 L
704.504 698.906 L
707.427 698.831 L
710.35 698.602 L
713.273 698.203 L
716.196 697.622 L
719.119 696.869 L
722.041 696.004 L
724.964 695.099 L
727.887 694.207 L
730.81 693.272 L
733.733 692.224 L
736.656 691.105 L
739.579 690.102 L
742.501 689.423 L
745.424 689.204 L
748.347 689.424 L
751.27 689.951 L
754.193 690.633 L
757.116 691.406 L
760.039 692.297 L
762.961 693.403 L
765.884 694.79 L
768.807 696.427 L
771.73 698.158 L
774.653 699.797 L
777.576 701.219 L
780.499 702.388 L
783.421 703.356 L
786.344 704.185 L
789.267 704.907 L
792.19 705.548 L
795.113 706.122 L
798.036 706.627 L
800.959 707.061 L
803.881 707.414 L
806.804 707.648 L
809.727 707.703 L
812.65 707.534 L
815.573 707.121 L
818.496 706.468 L
821.419 705.586 L
824.341 704.476 L
827.264 703.105 L
830.187 701.4 L
833.11 699.26 L
836.033 696.578 L
838.956 693.247 L
841.879 689.148 L
844.801 684.145 L
847.724 678.087 L
850.647 670.821 L
853.57 662.208 L
856.493 652.122 L
859.416 640.473 L
862.339 627.192 L
865.261 612.206 L
868.184 595.378 L
871.107 576.486 L
874.03 555.306 L
876.953 531.77 L
879.876 506.18 L
882.799 479.626 L
885.721 454.323 L
888.644 433.342 L
891.567 419.616 L
894.49 414.659 L
897.413 417.838 L
900.336 426.849 L
903.259 438.903 L
906.181 451.791 L
909.104 464.338 L
912.027 476.201 L
914.95 487.45 L
917.873 498.199 L
920.796 508.424 L
923.719 517.988 L
926.641 526.73 L
929.564 534.484 L
932.487 541.115 L
935.41 546.575 L
938.333 550.999 L
941.256 554.797 L
944.179 558.679 L
947.101 563.493 L
950.024 569.92 L
952.947 578.153 L
955.87 587.819 L
958.793 598.208 L
961.716 608.611 L
964.639 618.503 L
967.561 627.553 L
970.484 635.628 L
973.407 642.788 L
976.33 649.212 L
979.253 655.103 L
982.176 660.6 L
985.099 665.765 L
988.021 670.612 L
990.944 675.135 L
993.867 679.34 L
996.79 683.21 L
999.713 686.693 L
1002.636 689.735 L
1005.559 692.308 L
1008.481 694.434 L
1011.404 696.184 L
1014.327 697.656 L
1017.25 698.952 L
1020.173 700.138 L
1023.096 701.203 L
1026.019 702.1 L
1028.941 702.79 L
1031.864 703.262 L
1034.787 703.554 L
1037.71 703.743 L
1040.633 703.901 L
1043.556 704.051 L
1046.479 704.156 L
1049.401 704.142 L
1052.324 703.95 L
1055.247 703.552 L
1058.17 702.955 L
1061.093 702.174 L
1064.016 701.207 L
1066.939 700.046 L
1069.861 698.687 L
1072.784 697.145 L
1075.707 695.467 L
1078.63 693.705 L
1081.553 691.86 L
1084.476 689.903 L
1087.399 687.826 L
1090.321 685.703 L
1093.244 683.718 L
1096.167 682.188 L
1099.09 681.445 L
1102.013 681.665 L
1104.936 682.771 L
1107.859 684.568 L
1110.781 686.872 L
1113.704 689.555 L
1116.627 692.508 L
1119.55 695.58 L
1122.473 698.555 L
1125.396 701.227 L
1128.319 703.463 L
1131.241 705.249 L
1134.164 706.653 L
1137.087 707.772 L
1140.01 708.69 L
1142.933 709.455 L
1145.856 710.086 L
1148.779 710.595 L
1151.701 710.999 L
1154.624 711.316 L
1157.547 711.552 L
1160.47 711.707 L
1163.393 711.785 L
1166.316 711.813 L
1169.239 711.809 L
1172.161 711.748 L
1175.084 711.532 L
1178.007 710.991 L
1180.93 709.926 L
1183.853 708.127 L
1186.776 705.349 L
1189.699 701.278 L
1192.621 695.53 L
1195.544 687.65 L
1198.467 677.126 L
1201.39 663.392 L
1204.313 645.857 L
1207.236 623.964 L
1210.159 597.25 L
1213.081 565.415 L
1216.004 528.337 L
1218.927 486.167 L
1221.85 439.417 L
1224.773 389.047 L
1227.696 336.592 L
1230.619 284.487 L
1233.541 236.383 L
1236.464 196.986 L
1239.387 171.232 L
1242.31 163.059 L
1245.233 174.048 L
1248.156 202.737 L
1251.078 245.024 L
1254.001 295.512 L
1256.924 349.023 L
1259.847 401.586 L
1262.77 450.792 L
1265.693 495.499 L
1268.616 535.275 L
1271.539 570.016 L
1274.461 599.772 L
1277.384 624.722 L
1280.307 645.225 L
1283.23 661.752 L
1286.153 674.83 L
1289.076 684.99 L
1291.999 692.743 L
1294.922 698.55 L
1297.844 702.811 L
1300.767 705.863 L
1303.69 707.987 L
1306.613 709.412 L
1309.536 710.324 L
1312.459 710.866 L
1315.381 711.15 L
1318.304 711.258 L
1321.227 711.246 L
1324.15 711.147 L
1327.073 710.975 L
1329.996 710.728 L
1332.919 710.396 L
1335.841 709.967 L
1338.764 709.427 L
1341.687 708.764 L
1344.61 707.974 L
1347.533 707.044 L
1350.456 705.946 L
1353.379 704.627 L
1356.301 703.036 L
1359.224 701.137 L
1362.147 698.953 L
1365.07 696.576 L
1367.993 694.143 L
1370.916 691.794 L
1373.839 689.655 L
1376.761 687.831 L
1379.684 686.381 L
1382.607 685.317 L
1385.53 684.64 L
1388.453 684.384 L
1391.376 684.583 L
1394.299 685.206 L
1397.221 686.168 L
1400.144 687.365 L
1403.067 688.699 L
1405.99 690.067 L
1408.913 691.407 L
1411.836 692.711 L
1414.759 693.983 L
1417.681 695.214 L
1420.604 696.408 L
1423.527 697.553 L
1426.45 698.632 L
1429.373 699.591 L
1432.296 700.372 L
1435.219 700.949 L
1438.141 701.338 L
1441.064 701.586 L
1443.987 701.745 L
1446.91 701.873 L
1449.833 702.023 L
1452.756 702.22 L
1455.679 702.462 L
1458.601 702.733 L
1461.524 702.996 L
1464.447 703.196 L
1467.37 703.277 L
1470.293 703.218 L
1473.216 703.007 L
1476.139 702.623 L
1479.061 702.038 L
1481.984 701.224 L
1484.907 700.167 L
1487.83 698.866 L
1490.753 697.335 L
1493.676 695.575 L
1496.599 693.58 L
1499.521 691.33 L
1502.444 688.784 L
1505.367 685.891 L
1508.29 682.613 L
1511.213 678.956 L
1514.136 674.96 L
1517.059 670.669 L
1519.981 666.116 L
1522.904 661.319 L
1525.827 656.291 L
1528.75 651.068 L
1531.673 645.753 L
1534.596 640.547 L
1537.519 635.787 L
1540.441 631.938 L
1543.364 629.492 L
1546.287 628.836 L
1549.21 630.1 L
1552.133 633.084 L
1555.056 637.337 L
1557.979 642.3 L
1560.901 647.484 L
1563.824 652.599 L
1566.747 657.557 L
1569.67 662.356 L
1572.593 666.998 L
1575.516 671.434 L
1578.439 675.588 L
1581.361 679.388 L
1584.284 682.817 L
1587.207 685.892 L
1590.13 688.662 L
1593.053 691.161 L
1595.976 693.393 L
1598.899 695.347 L
1601.821 697.024 L
1604.744 698.431 L
1607.667 699.586 L
1610.59 700.534 L
1613.513 701.323 L
1616.436 701.986 L
1619.359 702.542 L
1622.281 702.981 L
1625.204 703.263 L
1628.127 703.351 L
1631.05 703.232 L
1633.973 702.936 L
1636.896 702.504 L
1639.819 701.972 L
1642.741 701.378 L
1645.664 700.745 L
1648.587 700.072 L
1651.51 699.348 L
1654.433 698.591 L
1657.356 697.821 L
1660.279 697.043 L
1663.201 696.228 L
1666.124 695.37 L
1669.047 694.543 L
1671.97 693.859 L
1674.893 693.369 L
1677.816 693.062 L
1680.739 692.886 L
1683.661 692.8 L
1686.584 692.795 L
1689.507 692.876 L
1692.43 693.068 L
1695.353 693.401 L
1698.276 693.867 L
1701.199 694.411 L
1704.121 694.978 L
1707.044 695.516 L
1709.967 695.998 L
1712.89 696.413 L
1715.813 696.759 L
1718.736 697.049 L
1721.659 697.319 L
1724.581 697.588 L
1727.504 697.834 L
1730.427 698.01 L
1733.35 698.099 L
1736.273 698.108 L
1739.196 698.069 L
1742.119 698.012 L
1745.041 697.955 L
S
GR
GS
[0.9 0 0 0.9 0 0] CT
N
250 72 M
1739 72 L
1739 855 L
250 855 L
250 72 L
cp
clip
0.929 0.694 0.125 RC
1 LJ
0.556 LW
N
251.461 767.649 M
254.384 766.601 L
257.307 767.095 L
260.23 768.313 L
263.153 766.267 L
266.076 768.798 L
268.999 766.51 L
271.921 767.999 L
274.844 766.788 L
277.767 767.027 L
280.69 768.536 L
283.613 765.099 L
286.536 767.175 L
289.459 766.798 L
292.381 768.534 L
295.304 765.775 L
298.227 766.572 L
301.15 766.942 L
304.073 766.232 L
306.996 767.564 L
309.919 766.437 L
312.841 766.723 L
315.764 767.03 L
318.687 766.135 L
321.61 768.078 L
324.533 767.323 L
327.456 765.684 L
330.379 767.061 L
333.301 765.56 L
336.224 766.507 L
339.147 768.929 L
342.07 767.995 L
344.993 768.959 L
347.916 766.163 L
350.839 768.398 L
353.761 768.668 L
356.684 766.944 L
359.607 768.106 L
362.53 768.266 L
365.453 767.993 L
368.376 766.69 L
371.299 766.631 L
374.221 767.162 L
377.144 766.973 L
380.067 768.843 L
382.99 767.529 L
385.913 765.86 L
388.836 764.595 L
391.759 767.286 L
394.681 766.965 L
397.604 765.395 L
400.527 766.361 L
403.45 766.066 L
406.373 766.938 L
409.296 765.564 L
412.219 765.38 L
415.141 767.793 L
418.064 764.435 L
420.987 765.86 L
423.91 768.275 L
426.833 769.28 L
429.756 766.54 L
432.679 767.43 L
435.601 765.242 L
438.524 765.352 L
441.447 768.255 L
444.37 767.452 L
447.293 768.667 L
450.216 767.089 L
453.139 768.269 L
456.061 769.049 L
458.984 768.699 L
461.907 769.059 L
464.83 768.326 L
467.753 768.903 L
470.676 768.939 L
473.599 767.798 L
476.521 769.136 L
479.444 769.34 L
482.367 769.921 L
485.29 770.274 L
488.213 769.115 L
491.136 770.02 L
494.059 768.551 L
496.981 770.53 L
499.904 772.083 L
502.827 772.144 L
505.75 771.664 L
508.673 772.956 L
511.596 770.613 L
514.519 768.077 L
517.441 766.709 L
520.364 765.382 L
523.287 770.424 L
526.21 770.87 L
529.133 766.779 L
532.056 760.708 L
534.979 752.742 L
537.901 743.036 L
540.824 743.491 L
543.747 745.515 L
546.67 749.532 L
549.593 760.427 L
552.516 766.743 L
555.439 768.675 L
558.361 773.086 L
561.284 768.861 L
564.207 770.514 L
567.13 770.304 L
570.053 767.798 L
572.976 768.885 L
575.899 769.848 L
578.821 771.662 L
581.744 773.48 L
584.667 772.354 L
587.59 770.034 L
590.513 768.641 L
593.436 768.851 L
596.359 767.713 L
599.281 767.904 L
602.204 768.199 L
605.127 768.544 L
608.05 770.527 L
610.973 768.688 L
613.896 770.016 L
616.819 769.616 L
619.741 768.151 L
622.664 769.562 L
625.587 769.178 L
628.51 767.743 L
631.433 767.33 L
634.356 768.793 L
637.279 767.889 L
640.201 769.145 L
643.124 766.691 L
646.047 766.81 L
648.97 765.233 L
651.893 766.863 L
654.816 767.506 L
657.739 768.141 L
660.661 767.616 L
663.584 762.576 L
666.507 765.508 L
669.43 762.821 L
672.353 766.613 L
675.276 766.366 L
678.199 766.036 L
681.121 764.292 L
684.044 764.17 L
686.967 765.006 L
689.89 768.78 L
692.813 768.822 L
695.736 770.994 L
698.659 769.936 L
701.581 767.713 L
704.504 768.251 L
707.427 769.921 L
710.35 767.789 L
713.273 770.088 L
716.196 768.773 L
719.119 769.097 L
722.041 767.5 L
724.964 765.85 L
727.887 765.779 L
730.81 771.515 L
733.733 768.059 L
736.656 766.963 L
739.579 761.754 L
742.501 761.973 L
745.424 759.808 L
748.347 764.804 L
751.27 765.767 L
754.193 767.1 L
757.116 766.281 L
760.039 764.723 L
762.961 763.296 L
765.884 762.473 L
768.807 766.42 L
771.73 768.736 L
774.653 769.901 L
777.576 771.151 L
780.499 769.267 L
783.421 767.427 L
786.344 769.224 L
789.267 767.618 L
792.19 767.506 L
795.113 768.107 L
798.036 768.067 L
800.959 767.44 L
803.881 768.235 L
806.804 769.268 L
809.727 769.876 L
812.65 769.933 L
815.573 769.772 L
818.496 769.629 L
821.419 769.379 L
824.341 769.59 L
827.264 770.506 L
830.187 771.933 L
833.11 773.327 L
836.033 773.91 L
838.956 775.568 L
841.879 776.772 L
844.801 778.8 L
847.724 780.518 L
850.647 781.867 L
853.57 783.755 L
856.493 784.192 L
859.416 785.57 L
862.339 785.491 L
865.261 785.471 L
868.184 790.393 L
871.107 793.29 L
874.03 794.263 L
876.953 793.494 L
879.876 788.597 L
882.799 761.602 L
885.721 720.871 L
888.644 676.351 L
891.567 650.174 L
894.49 663.704 L
897.413 702.055 L
900.336 739.338 L
903.259 768.239 L
906.181 775.758 L
909.104 777.209 L
912.027 773.857 L
914.95 769.756 L
917.873 773.049 L
920.796 774.019 L
923.719 776.698 L
926.641 777.207 L
929.564 780.744 L
932.487 780.362 L
935.41 780.84 L
938.333 776.611 L
941.256 767.59 L
944.179 756.523 L
947.101 744.621 L
950.024 742.63 L
952.947 747.877 L
955.87 760.848 L
958.793 769.255 L
961.716 772.94 L
964.639 777.784 L
967.561 779.708 L
970.484 777.988 L
973.407 775.117 L
976.33 772.448 L
979.253 770.56 L
982.176 770.703 L
985.099 770.216 L
988.021 771.248 L
990.944 770.536 L
993.867 769.83 L
996.79 771.791 L
999.713 772.026 L
1002.636 772.678 L
1005.559 772.556 L
1008.481 771.023 L
1011.404 770.752 L
1014.327 768.698 L
1017.25 767.268 L
1020.173 768.21 L
1023.096 769.484 L
1026.019 769.271 L
1028.941 769.735 L
1031.864 770.038 L
1034.787 767.746 L
1037.71 767.223 L
1040.633 766.622 L
1043.556 767.127 L
1046.479 768.903 L
1049.401 769.055 L
1052.324 769.966 L
1055.247 769.34 L
1058.17 768.569 L
1061.093 769.394 L
1064.016 769.315 L
1066.939 769.056 L
1069.861 769.71 L
1072.784 769.036 L
1075.707 767.153 L
1078.63 767.272 L
1081.553 769.23 L
1084.476 768.724 L
1087.399 768.106 L
1090.321 766.853 L
1093.244 763.622 L
1096.167 756.151 L
1099.09 754.068 L
1102.013 756.114 L
1104.936 761.372 L
1107.859 760.759 L
1110.781 764.377 L
1113.704 762.831 L
1116.627 765.522 L
1119.55 767.67 L
1122.473 771.603 L
1125.396 772.779 L
1128.319 772.637 L
1131.241 771.454 L
1134.164 770.109 L
1137.087 768.879 L
1140.01 768.663 L
1142.933 768.483 L
1145.856 768.614 L
1148.779 768.344 L
1151.701 767.903 L
1154.624 767.85 L
1157.547 767.97 L
1160.47 768.472 L
1163.393 767.516 L
1166.316 767.18 L
1169.239 767.224 L
1172.161 767.967 L
1175.084 770.605 L
1178.007 773.309 L
1180.93 774.723 L
1183.853 777.333 L
1186.776 780.818 L
1189.699 785.133 L
1192.621 790.184 L
1195.544 795.779 L
1198.467 802.047 L
1201.39 809.216 L
1204.313 815.24 L
1207.236 822.108 L
1210.159 823.856 L
1213.081 825.789 L
1216.004 827.014 L
1218.927 819.175 L
1221.85 810.945 L
1224.773 792.836 L
1227.696 775.816 L
1230.619 731.312 L
1233.541 674.329 L
1236.464 612.132 L
1239.387 556.452 L
1242.31 531.553 L
1245.233 551.234 L
1248.156 609.116 L
1251.078 681.689 L
1254.001 742.862 L
1256.924 790.712 L
1259.847 813.951 L
1262.77 818.182 L
1265.693 824.328 L
1268.616 821.873 L
1271.539 822.839 L
1274.461 821.947 L
1277.384 816.601 L
1280.307 810.828 L
1283.23 805.182 L
1286.153 799.085 L
1289.076 793.097 L
1291.999 788.151 L
1294.922 783.628 L
1297.844 779.994 L
1300.767 777.125 L
1303.69 774.387 L
1306.613 772.494 L
1309.536 770.992 L
1312.459 769.777 L
1315.381 768.861 L
1318.304 768.272 L
1321.227 767.962 L
1324.15 767.79 L
1327.073 767.883 L
1329.996 768.05 L
1332.919 768.157 L
1335.841 768.325 L
1338.764 768.563 L
1341.687 768.576 L
1344.61 768.34 L
1347.533 768.839 L
1350.456 769.482 L
1353.379 770.235 L
1356.301 770.626 L
1359.224 771.356 L
1362.147 769.211 L
1365.07 767.957 L
1367.993 765.498 L
1370.916 765.403 L
1373.839 762.933 L
1376.761 762.688 L
1379.684 762.259 L
1382.607 763.929 L
1385.53 762.805 L
1388.453 760.867 L
1391.376 761.897 L
1394.299 763.777 L
1397.221 764.699 L
1400.144 765.121 L
1403.067 766.545 L
1405.99 769.627 L
1408.913 765.818 L
1411.836 768.089 L
1414.759 767.55 L
1417.681 767.347 L
1420.604 767.907 L
1423.527 767.243 L
1426.45 768.103 L
1429.373 769.88 L
1432.296 769.348 L
1435.219 769.714 L
1438.141 768.384 L
1441.064 767.943 L
1443.987 768.196 L
1446.91 765.911 L
1449.833 766.554 L
1452.756 766.672 L
1455.679 766.8 L
1458.601 766.718 L
1461.524 767.687 L
1464.447 769.186 L
1467.37 768.604 L
1470.293 768.513 L
1473.216 768.866 L
1476.139 769.672 L
1479.061 769.337 L
1481.984 770.095 L
1484.907 770.117 L
1487.83 769.095 L
1490.753 769.874 L
1493.676 769.526 L
1496.599 769.871 L
1499.521 769.952 L
1502.444 771.129 L
1505.367 771.798 L
1508.29 771.708 L
1511.213 770.554 L
1514.136 770.344 L
1517.059 769.935 L
1519.981 769.589 L
1522.904 769.703 L
1525.827 769.903 L
1528.75 768.662 L
1531.673 766.622 L
1534.596 763.876 L
1537.519 757.171 L
1540.441 751.036 L
1543.364 745.915 L
1546.287 742.536 L
1549.21 746.902 L
1552.133 752.306 L
1555.056 759.355 L
1557.979 767.307 L
1560.901 768.986 L
1563.824 770.062 L
1566.747 767.376 L
1569.67 769.912 L
1572.593 767.438 L
1575.516 771.617 L
1578.439 770.737 L
1581.361 771.8 L
1584.284 771.152 L
1587.207 770.495 L
1590.13 769.468 L
1593.053 769.874 L
1595.976 770.799 L
1598.899 769.971 L
1601.821 769.616 L
1604.744 770.946 L
1607.667 769.081 L
1610.59 768.461 L
1613.513 768.77 L
1616.436 768.045 L
1619.359 767.909 L
1622.281 768.886 L
1625.204 769.54 L
1628.127 769.8 L
1631.05 769.287 L
1633.973 767.923 L
1636.896 768.815 L
1639.819 767.727 L
1642.741 766.774 L
1645.664 767.901 L
1648.587 767.627 L
1651.51 768.138 L
1654.433 766.49 L
1657.356 767.449 L
1660.279 766.21 L
1663.201 770.174 L
1666.124 766.411 L
1669.047 764.913 L
1671.97 764.302 L
1674.893 764.812 L
1677.816 765.959 L
1680.739 766.547 L
1683.661 766.116 L
1686.584 765.933 L
1689.507 767.119 L
1692.43 764.125 L
1695.353 765.588 L
1698.276 766.27 L
1701.199 767.209 L
1704.121 766.846 L
1707.044 769.191 L
1709.967 766.256 L
1712.89 769.187 L
1715.813 767.341 L
1718.736 767.703 L
1721.659 766.518 L
1724.581 766.404 L
1727.504 769.498 L
1730.427 767.169 L
1733.35 768.954 L
1736.273 767.013 L
1739.196 767.597 L
1742.119 767.182 L
1745.041 765.656 L
S
GR
GS
[0.9 0 0 0.9 469.64312 688.84409] CT
0 0 1 RC
10.0 ML
N
0 -5 M
0 5 L
-5 0 M
5 0 L
-3.143 -3.143 M
3.143 3.143 L
-3.143 3.143 M
3.143 -3.143 L
S
GR
GS
[0.9 0 0 0.9 485.42657 668.73279] CT
0 0 1 RC
10.0 ML
N
0 -5 M
0 5 L
-5 0 M
5 0 L
-3.143 -3.143 M
3.143 3.143 L
-3.143 3.143 M
3.143 -3.143 L
S
GR
GS
[0.9 0 0 0.9 514.36285 691.01796] CT
0 0 1 RC
10.0 ML
N
0 -5 M
0 5 L
-5 0 M
5 0 L
-3.143 -3.143 M
3.143 3.143 L
-3.143 3.143 M
3.143 -3.143 L
S
GR
GS
[0.9 0 0 0.9 598.54114 686.31844] CT
0 0 1 RC
10.0 ML
N
0 -5 M
0 5 L
-5 0 M
5 0 L
-3.143 -3.143 M
3.143 3.143 L
-3.143 3.143 M
3.143 -3.143 L
S
GR
GS
[0.9 0 0 0.9 656.41371 689.20076] CT
0 0 1 RC
10.0 ML
N
0 -5 M
0 5 L
-5 0 M
5 0 L
-3.143 -3.143 M
3.143 3.143 L
-3.143 3.143 M
3.143 -3.143 L
S
GR
GS
[0.9 0 0 0.9 672.19717 683.82708] CT
0 0 1 RC
10.0 ML
N
0 -5 M
0 5 L
-5 0 M
5 0 L
-3.143 -3.143 M
3.143 3.143 L
-3.143 3.143 M
3.143 -3.143 L
S
GR
GS
[0.9 0 0 0.9 803.72571 585.15694] CT
0 0 1 RC
10.0 ML
N
0 -5 M
0 5 L
-5 0 M
5 0 L
-3.143 -3.143 M
3.143 3.143 L
-3.143 3.143 M
3.143 -3.143 L
S
GR
GS
[0.9 0 0 0.9 824.77029 692.78077] CT
0 0 1 RC
10.0 ML
N
0 -5 M
0 5 L
-5 0 M
5 0 L
-3.143 -3.143 M
3.143 3.143 L
-3.143 3.143 M
3.143 -3.143 L
S
GR
GS
[0.9 0 0 0.9 856.33715 668.36744] CT
0 0 1 RC
10.0 ML
N
0 -5 M
0 5 L
-5 0 M
5 0 L
-3.143 -3.143 M
3.143 3.143 L
-3.143 3.143 M
3.143 -3.143 L
S
GR
GS
[0.9 0 0 0.9 990.49625 678.66108] CT
0 0 1 RC
10.0 ML
N
0 -5 M
0 5 L
-5 0 M
5 0 L
-3.143 -3.143 M
3.143 3.143 L
-3.143 3.143 M
3.143 -3.143 L
S
GR
GS
[0.9 0 0 0.9 1050.9995 690.46238] CT
0 0 1 RC
10.0 ML
N
0 -5 M
0 5 L
-5 0 M
5 0 L
-3.143 -3.143 M
3.143 3.143 L
-3.143 3.143 M
3.143 -3.143 L
S
GR
GS
[0.9 0 0 0.9 1119.39434 478.39801] CT
0 0 1 RC
10.0 ML
N
0 -5 M
0 5 L
-5 0 M
5 0 L
-3.143 -3.143 M
3.143 3.143 L
-3.143 3.143 M
3.143 -3.143 L
S
GR
GS
[0.9 0 0 0.9 1250.92288 684.78063] CT
0 0 1 RC
10.0 ML
N
0 -5 M
0 5 L
-5 0 M
5 0 L
-3.143 -3.143 M
3.143 3.143 L
-3.143 3.143 M
3.143 -3.143 L
S
GR
GS
[0.9 0 0 0.9 1392.97368 668.28208] CT
0 0 1 RC
10.0 ML
N
0 -5 M
0 5 L
-5 0 M
5 0 L
-3.143 -3.143 M
3.143 3.143 L
-3.143 3.143 M
3.143 -3.143 L
S
GR
GS
[0.9 0 0 0.9 1524.50233 687.71261] CT
0 0 1 RC
10.0 ML
N
0 -5 M
0 5 L
-5 0 M
5 0 L
-3.143 -3.143 M
3.143 3.143 L
-3.143 3.143 M
3.143 -3.143 L
S
GR
%%Trailer
%%Pages: 1
%%EOF
