%!PS-Adobe-3.0 EPSF-3.0
%%Creator: (MATLAB, The Mathworks, Inc. Version 9.6.0.1135713 \(R2019a\) Update 3. Operating System: Windows 10)
%%Title: ./REX_sumV.eps
%%CreationDate: 2019-07-16T22:56:43
%%Pages: (atend)
%%BoundingBox:   123    16  1647   810
%%LanguageLevel: 3
%%EndComments
%%BeginProlog
%%BeginResource: procset (Apache XML Graphics Std ProcSet) 1.2 0
%%Version: 1.2 0
%%Copyright: (Copyright 2001-2003,2010 The Apache Software Foundation. License terms: http://www.apache.org/licenses/LICENSE-2.0)
/bd{bind def}bind def
/ld{load def}bd
/GR/grestore ld
/GS/gsave ld
/RM/rmoveto ld
/C/curveto ld
/t/show ld
/L/lineto ld
/ML/setmiterlimit ld
/CT/concat ld
/f/fill ld
/N/newpath ld
/S/stroke ld
/CC/setcmykcolor ld
/A/ashow ld
/cp/closepath ld
/RC/setrgbcolor ld
/LJ/setlinejoin ld
/GC/setgray ld
/LW/setlinewidth ld
/M/moveto ld
/re {4 2 roll M
1 index 0 rlineto
0 exch rlineto
neg 0 rlineto
cp } bd
/_ctm matrix def
/_tm matrix def
/BT { _ctm currentmatrix pop matrix _tm copy pop 0 0 moveto } bd
/ET { _ctm setmatrix } bd
/iTm { _ctm setmatrix _tm concat } bd
/Tm { _tm astore pop iTm 0 0 moveto } bd
/ux 0.0 def
/uy 0.0 def
/F {
  /Tp exch def
  /Tf exch def
  Tf findfont Tp scalefont setfont
  /cf Tf def  /cs Tp def
} bd
/ULS {currentpoint /uy exch def /ux exch def} bd
/ULE {
  /Tcx currentpoint pop def
  gsave
  newpath
  cf findfont cs scalefont dup
  /FontMatrix get 0 get /Ts exch def /FontInfo get dup
  /UnderlinePosition get Ts mul /To exch def
  /UnderlineThickness get Ts mul /Tt exch def
  ux uy To add moveto  Tcx uy To add lineto
  Tt setlinewidth stroke
  grestore
} bd
/OLE {
  /Tcx currentpoint pop def
  gsave
  newpath
  cf findfont cs scalefont dup
  /FontMatrix get 0 get /Ts exch def /FontInfo get dup
  /UnderlinePosition get Ts mul /To exch def
  /UnderlineThickness get Ts mul /Tt exch def
  ux uy To add cs add moveto Tcx uy To add cs add lineto
  Tt setlinewidth stroke
  grestore
} bd
/SOE {
  /Tcx currentpoint pop def
  gsave
  newpath
  cf findfont cs scalefont dup
  /FontMatrix get 0 get /Ts exch def /FontInfo get dup
  /UnderlinePosition get Ts mul /To exch def
  /UnderlineThickness get Ts mul /Tt exch def
  ux uy To add cs 10 mul 26 idiv add moveto Tcx uy To add cs 10 mul 26 idiv add lineto
  Tt setlinewidth stroke
  grestore
} bd
/QT {
/Y22 exch store
/X22 exch store
/Y21 exch store
/X21 exch store
currentpoint
/Y21 load 2 mul add 3 div exch
/X21 load 2 mul add 3 div exch
/X21 load 2 mul /X22 load add 3 div
/Y21 load 2 mul /Y22 load add 3 div
/X22 load /Y22 load curveto
} bd
/SSPD {
dup length /d exch dict def
{
/v exch def
/k exch def
currentpagedevice k known {
/cpdv currentpagedevice k get def
v cpdv ne {
/upd false def
/nullv v type /nulltype eq def
/nullcpdv cpdv type /nulltype eq def
nullv nullcpdv or
{
/upd true def
} {
/sametype v type cpdv type eq def
sametype {
v type /arraytype eq {
/vlen v length def
/cpdvlen cpdv length def
vlen cpdvlen eq {
0 1 vlen 1 sub {
/i exch def
/obj v i get def
/cpdobj cpdv i get def
obj cpdobj ne {
/upd true def
exit
} if
} for
} {
/upd true def
} ifelse
} {
v type /dicttype eq {
v {
/dv exch def
/dk exch def
/cpddv cpdv dk get def
dv cpddv ne {
/upd true def
exit
} if
} forall
} {
/upd true def
} ifelse
} ifelse
} if
} ifelse
upd true eq {
d k v put
} if
} if
} if
} forall
d length 0 gt {
d setpagedevice
} if
} bd
/RE { % /NewFontName [NewEncodingArray] /FontName RE -
  findfont dup length dict begin
  {
    1 index /FID ne
    {def} {pop pop} ifelse
  } forall
  /Encoding exch def
  /FontName 1 index def
  currentdict definefont pop
  end
} bind def
%%EndResource
%%BeginResource: procset (Apache XML Graphics EPS ProcSet) 1.0 0
%%Version: 1.0 0
%%Copyright: (Copyright 2002-2003 The Apache Software Foundation. License terms: http://www.apache.org/licenses/LICENSE-2.0)
/BeginEPSF { %def
/b4_Inc_state save def         % Save state for cleanup
/dict_count countdictstack def % Count objects on dict stack
/op_count count 1 sub def      % Count objects on operand stack
userdict begin                 % Push userdict on dict stack
/showpage { } def              % Redefine showpage, { } = null proc
0 setgray 0 setlinecap         % Prepare graphics state
1 setlinewidth 0 setlinejoin
10 setmiterlimit [ ] 0 setdash newpath
/languagelevel where           % If level not equal to 1 then
{pop languagelevel             % set strokeadjust and
1 ne                           % overprint to their defaults.
{false setstrokeadjust false setoverprint
} if
} if
} bd
/EndEPSF { %def
count op_count sub {pop} repeat            % Clean up stacks
countdictstack dict_count sub {end} repeat
b4_Inc_state restore
} bd
%%EndResource
%FOPBeginFontDict
%%IncludeResource: font Courier-Oblique
%%IncludeResource: font Courier-BoldOblique
%%IncludeResource: font Courier-Bold
%%IncludeResource: font ZapfDingbats
%%IncludeResource: font Symbol
%%IncludeResource: font Helvetica
%%IncludeResource: font Helvetica-Oblique
%%IncludeResource: font Helvetica-Bold
%%IncludeResource: font Helvetica-BoldOblique
%%IncludeResource: font Times-Roman
%%IncludeResource: font Times-Italic
%%IncludeResource: font Times-Bold
%%IncludeResource: font Times-BoldItalic
%%IncludeResource: font Courier
%FOPEndFontDict
%%BeginResource: encoding WinAnsiEncoding
/WinAnsiEncoding [
/.notdef /.notdef /.notdef /.notdef /.notdef
/.notdef /.notdef /.notdef /.notdef /.notdef
/.notdef /.notdef /.notdef /.notdef /.notdef
/.notdef /.notdef /.notdef /.notdef /.notdef
/.notdef /.notdef /.notdef /.notdef /.notdef
/.notdef /.notdef /.notdef /.notdef /.notdef
/.notdef /.notdef /space /exclam /quotedbl
/numbersign /dollar /percent /ampersand /quotesingle
/parenleft /parenright /asterisk /plus /comma
/hyphen /period /slash /zero /one
/two /three /four /five /six
/seven /eight /nine /colon /semicolon
/less /equal /greater /question /at
/A /B /C /D /E
/F /G /H /I /J
/K /L /M /N /O
/P /Q /R /S /T
/U /V /W /X /Y
/Z /bracketleft /backslash /bracketright /asciicircum
/underscore /quoteleft /a /b /c
/d /e /f /g /h
/i /j /k /l /m
/n /o /p /q /r
/s /t /u /v /w
/x /y /z /braceleft /bar
/braceright /asciitilde /bullet /Euro /bullet
/quotesinglbase /florin /quotedblbase /ellipsis /dagger
/daggerdbl /circumflex /perthousand /Scaron /guilsinglleft
/OE /bullet /Zcaron /bullet /bullet
/quoteleft /quoteright /quotedblleft /quotedblright /bullet
/endash /emdash /asciitilde /trademark /scaron
/guilsinglright /oe /bullet /zcaron /Ydieresis
/space /exclamdown /cent /sterling /currency
/yen /brokenbar /section /dieresis /copyright
/ordfeminine /guillemotleft /logicalnot /sfthyphen /registered
/macron /degree /plusminus /twosuperior /threesuperior
/acute /mu /paragraph /middot /cedilla
/onesuperior /ordmasculine /guillemotright /onequarter /onehalf
/threequarters /questiondown /Agrave /Aacute /Acircumflex
/Atilde /Adieresis /Aring /AE /Ccedilla
/Egrave /Eacute /Ecircumflex /Edieresis /Igrave
/Iacute /Icircumflex /Idieresis /Eth /Ntilde
/Ograve /Oacute /Ocircumflex /Otilde /Odieresis
/multiply /Oslash /Ugrave /Uacute /Ucircumflex
/Udieresis /Yacute /Thorn /germandbls /agrave
/aacute /acircumflex /atilde /adieresis /aring
/ae /ccedilla /egrave /eacute /ecircumflex
/edieresis /igrave /iacute /icircumflex /idieresis
/eth /ntilde /ograve /oacute /ocircumflex
/otilde /odieresis /divide /oslash /ugrave
/uacute /ucircumflex /udieresis /yacute /thorn
/ydieresis
] def
%%EndResource
%FOPBeginFontReencode
/Courier-Oblique findfont
dup length dict begin
  {1 index /FID ne {def} {pop pop} ifelse} forall
  /Encoding WinAnsiEncoding def
  currentdict
end
/Courier-Oblique exch definefont pop
/Courier-BoldOblique findfont
dup length dict begin
  {1 index /FID ne {def} {pop pop} ifelse} forall
  /Encoding WinAnsiEncoding def
  currentdict
end
/Courier-BoldOblique exch definefont pop
/Courier-Bold findfont
dup length dict begin
  {1 index /FID ne {def} {pop pop} ifelse} forall
  /Encoding WinAnsiEncoding def
  currentdict
end
/Courier-Bold exch definefont pop
/Helvetica findfont
dup length dict begin
  {1 index /FID ne {def} {pop pop} ifelse} forall
  /Encoding WinAnsiEncoding def
  currentdict
end
/Helvetica exch definefont pop
/Helvetica-Oblique findfont
dup length dict begin
  {1 index /FID ne {def} {pop pop} ifelse} forall
  /Encoding WinAnsiEncoding def
  currentdict
end
/Helvetica-Oblique exch definefont pop
/Helvetica-Bold findfont
dup length dict begin
  {1 index /FID ne {def} {pop pop} ifelse} forall
  /Encoding WinAnsiEncoding def
  currentdict
end
/Helvetica-Bold exch definefont pop
/Helvetica-BoldOblique findfont
dup length dict begin
  {1 index /FID ne {def} {pop pop} ifelse} forall
  /Encoding WinAnsiEncoding def
  currentdict
end
/Helvetica-BoldOblique exch definefont pop
/Times-Roman findfont
dup length dict begin
  {1 index /FID ne {def} {pop pop} ifelse} forall
  /Encoding WinAnsiEncoding def
  currentdict
end
/Times-Roman exch definefont pop
/Times-Italic findfont
dup length dict begin
  {1 index /FID ne {def} {pop pop} ifelse} forall
  /Encoding WinAnsiEncoding def
  currentdict
end
/Times-Italic exch definefont pop
/Times-Bold findfont
dup length dict begin
  {1 index /FID ne {def} {pop pop} ifelse} forall
  /Encoding WinAnsiEncoding def
  currentdict
end
/Times-Bold exch definefont pop
/Times-BoldItalic findfont
dup length dict begin
  {1 index /FID ne {def} {pop pop} ifelse} forall
  /Encoding WinAnsiEncoding def
  currentdict
end
/Times-BoldItalic exch definefont pop
/Courier findfont
dup length dict begin
  {1 index /FID ne {def} {pop pop} ifelse} forall
  /Encoding WinAnsiEncoding def
  currentdict
end
/Courier exch definefont pop
%FOPEndFontReencode
%%EndProlog
%%Page: 1 1
%%PageBoundingBox: 0 0 1728 864
%%BeginPageSetup
[1 0 0 -1 0 864] CT
%%EndPageSetup
GS
[0.9 0 0 0.9 0 0] CT
1 GC
N
0 0 1920 960 re
f
GR
GS
[0.9 0 0 0.9 0 0] CT
1 GC
N
0 0 1920 960 re
f
GR
GS
[0.9 0 0 0.9 0 0] CT
1 GC
N
250 854 M
1738 854 L
1738 72 L
250 72 L
cp
f
GR
GS
[0.9 0 0 0.9 0 0] CT
0.873 GC
1 LJ
0.556 LW
N
250 854 M
250 72 L
S
GR
GS
[0.9 0 0 0.9 0 0] CT
0.873 GC
1 LJ
0.556 LW
N
462.571 854 M
462.571 72 L
S
GR
GS
[0.9 0 0 0.9 0 0] CT
0.873 GC
1 LJ
0.556 LW
N
675.143 854 M
675.143 72 L
S
GR
GS
[0.9 0 0 0.9 0 0] CT
0.873 GC
1 LJ
0.556 LW
N
887.714 854 M
887.714 72 L
S
GR
GS
[0.9 0 0 0.9 0 0] CT
0.873 GC
1 LJ
0.556 LW
N
1100.286 854 M
1100.286 72 L
S
GR
GS
[0.9 0 0 0.9 0 0] CT
0.873 GC
1 LJ
0.556 LW
N
1312.857 854 M
1312.857 72 L
S
GR
GS
[0.9 0 0 0.9 0 0] CT
0.873 GC
1 LJ
0.556 LW
N
1525.429 854 M
1525.429 72 L
S
GR
GS
[0.9 0 0 0.9 0 0] CT
0.873 GC
1 LJ
0.556 LW
N
1738 854 M
1738 72 L
S
GR
GS
[0.9 0 0 0.9 0 0] CT
0.851 GC
1 LJ
0.556 LW
N
1738 854 M
250 854 L
S
GR
GS
[0.9 0 0 0.9 0 0] CT
0.851 GC
1 LJ
0.556 LW
N
1738 782.909 M
250 782.909 L
S
GR
GS
[0.9 0 0 0.9 0 0] CT
0.851 GC
1 LJ
0.556 LW
N
1738 711.818 M
250 711.818 L
S
GR
GS
[0.9 0 0 0.9 0 0] CT
0.851 GC
1 LJ
0.556 LW
N
1738 640.727 M
250 640.727 L
S
GR
GS
[0.9 0 0 0.9 0 0] CT
0.851 GC
1 LJ
0.556 LW
N
1738 569.636 M
250 569.636 L
S
GR
GS
[0.9 0 0 0.9 0 0] CT
0.851 GC
1 LJ
0.556 LW
N
1738 498.545 M
250 498.545 L
S
GR
GS
[0.9 0 0 0.9 0 0] CT
0.851 GC
1 LJ
0.556 LW
N
1738 427.455 M
250 427.455 L
S
GR
GS
[0.9 0 0 0.9 0 0] CT
0.851 GC
1 LJ
0.556 LW
N
1738 356.364 M
250 356.364 L
S
GR
GS
[0.9 0 0 0.9 0 0] CT
0.851 GC
1 LJ
0.556 LW
N
1738 285.273 M
250 285.273 L
S
GR
GS
[0.9 0 0 0.9 0 0] CT
0.851 GC
1 LJ
0.556 LW
N
1738 214.182 M
250 214.182 L
S
GR
GS
[0.9 0 0 0.9 0 0] CT
0.851 GC
1 LJ
0.556 LW
N
1738 143.091 M
250 143.091 L
S
GR
GS
[0.9 0 0 0.9 0 0] CT
0.851 GC
1 LJ
0.556 LW
N
1738 72 M
250 72 L
S
GR
GS
[0.9 0 0 0.9 0 0] CT
0.149 GC
2 setlinecap
1 LJ
0.556 LW
N
250 854 M
1738 854 L
S
GR
GS
[0.9 0 0 0.9 0 0] CT
0.149 GC
2 setlinecap
1 LJ
0.556 LW
N
250 72 M
1738 72 L
S
GR
GS
[0.9 0 0 0.9 0 0] CT
0.149 GC
2 setlinecap
1 LJ
0.556 LW
N
250 854 M
250 839.12 L
S
GR
GS
[0.9 0 0 0.9 0 0] CT
0.149 GC
2 setlinecap
1 LJ
0.556 LW
N
462.571 854 M
462.571 839.12 L
S
GR
GS
[0.9 0 0 0.9 0 0] CT
0.149 GC
2 setlinecap
1 LJ
0.556 LW
N
675.143 854 M
675.143 839.12 L
S
GR
GS
[0.9 0 0 0.9 0 0] CT
0.149 GC
2 setlinecap
1 LJ
0.556 LW
N
887.714 854 M
887.714 839.12 L
S
GR
GS
[0.9 0 0 0.9 0 0] CT
0.149 GC
2 setlinecap
1 LJ
0.556 LW
N
1100.286 854 M
1100.286 839.12 L
S
GR
GS
[0.9 0 0 0.9 0 0] CT
0.149 GC
2 setlinecap
1 LJ
0.556 LW
N
1312.857 854 M
1312.857 839.12 L
S
GR
GS
[0.9 0 0 0.9 0 0] CT
0.149 GC
2 setlinecap
1 LJ
0.556 LW
N
1525.429 854 M
1525.429 839.12 L
S
GR
GS
[0.9 0 0 0.9 0 0] CT
0.149 GC
2 setlinecap
1 LJ
0.556 LW
N
1738 854 M
1738 839.12 L
S
GR
GS
[0.9 0 0 0.9 0 0] CT
0.149 GC
2 setlinecap
1 LJ
0.556 LW
N
250 72 M
250 86.88 L
S
GR
GS
[0.9 0 0 0.9 0 0] CT
0.149 GC
2 setlinecap
1 LJ
0.556 LW
N
462.571 72 M
462.571 86.88 L
S
GR
GS
[0.9 0 0 0.9 0 0] CT
0.149 GC
2 setlinecap
1 LJ
0.556 LW
N
675.143 72 M
675.143 86.88 L
S
GR
GS
[0.9 0 0 0.9 0 0] CT
0.149 GC
2 setlinecap
1 LJ
0.556 LW
N
887.714 72 M
887.714 86.88 L
S
GR
GS
[0.9 0 0 0.9 0 0] CT
0.149 GC
2 setlinecap
1 LJ
0.556 LW
N
1100.286 72 M
1100.286 86.88 L
S
GR
GS
[0.9 0 0 0.9 0 0] CT
0.149 GC
2 setlinecap
1 LJ
0.556 LW
N
1312.857 72 M
1312.857 86.88 L
S
GR
GS
[0.9 0 0 0.9 0 0] CT
0.149 GC
2 setlinecap
1 LJ
0.556 LW
N
1525.429 72 M
1525.429 86.88 L
S
GR
GS
[0.9 0 0 0.9 0 0] CT
0.149 GC
2 setlinecap
1 LJ
0.556 LW
N
1738 72 M
1738 86.88 L
S
GR
GS
[0.9 0 0 0.9 225 777.6] CT
0.149 GC
/Helvetica 33.333 F
GS
[1 0 0 1 0 0] CT
-9.5 31 moveto 
1 -1 scale
(0) t 
GR
GR
GS
[0.9 0 0 0.9 416.3143 777.6] CT
0.149 GC
/Helvetica 33.333 F
GS
[1 0 0 1 0 0] CT
-9.5 31 moveto 
1 -1 scale
(2) t 
GR
GR
GS
[0.9 0 0 0.9 607.62859 777.6] CT
0.149 GC
/Helvetica 33.333 F
GS
[1 0 0 1 0 0] CT
-9.5 31 moveto 
1 -1 scale
(4) t 
GR
GR
GS
[0.9 0 0 0.9 798.94286 777.6] CT
0.149 GC
/Helvetica 33.333 F
GS
[1 0 0 1 0 0] CT
-9.5 31 moveto 
1 -1 scale
(6) t 
GR
GR
GS
[0.9 0 0 0.9 990.25719 777.6] CT
0.149 GC
/Helvetica 33.333 F
GS
[1 0 0 1 0 0] CT
-9.5 31 moveto 
1 -1 scale
(8) t 
GR
GR
GS
[0.9 0 0 0.9 1181.57146 777.6] CT
0.149 GC
/Helvetica 33.333 F
GS
[1 0 0 1 0 0] CT
-19 31 moveto 
1 -1 scale
(10) t 
GR
GR
GS
[0.9 0 0 0.9 1372.88573 777.6] CT
0.149 GC
/Helvetica 33.333 F
GS
[1 0 0 1 0 0] CT
-19 31 moveto 
1 -1 scale
(12) t 
GR
GR
GS
[0.9 0 0 0.9 1564.2 777.6] CT
0.149 GC
/Helvetica 33.333 F
GS
[1 0 0 1 0 0] CT
-19 31 moveto 
1 -1 scale
(14) t 
GR
GR
GS
[0.9 0 0 0.9 894.60066 813.30002] CT
0.149 GC
/Helvetica 33.333 F
GS
[1 0 0 1 0 0] CT
-52 31 moveto 
1 -1 scale
(x \(mm\)) t 
GR
GR
GS
[0.9 0 0 0.9 0 0] CT
2 setlinecap
1 LJ
0.556 LW
N
250 854 M
250 72 L
S
GR
GS
[0.9 0 0 0.9 0 0] CT
2 setlinecap
1 LJ
0.556 LW
N
250 854 M
264.88 854 L
S
GR
GS
[0.9 0 0 0.9 0 0] CT
2 setlinecap
1 LJ
0.556 LW
N
250 782.909 M
264.88 782.909 L
S
GR
GS
[0.9 0 0 0.9 0 0] CT
2 setlinecap
1 LJ
0.556 LW
N
250 711.818 M
264.88 711.818 L
S
GR
GS
[0.9 0 0 0.9 0 0] CT
2 setlinecap
1 LJ
0.556 LW
N
250 640.727 M
264.88 640.727 L
S
GR
GS
[0.9 0 0 0.9 0 0] CT
2 setlinecap
1 LJ
0.556 LW
N
250 569.636 M
264.88 569.636 L
S
GR
GS
[0.9 0 0 0.9 0 0] CT
2 setlinecap
1 LJ
0.556 LW
N
250 498.545 M
264.88 498.545 L
S
GR
GS
[0.9 0 0 0.9 0 0] CT
2 setlinecap
1 LJ
0.556 LW
N
250 427.455 M
264.88 427.455 L
S
GR
GS
[0.9 0 0 0.9 0 0] CT
2 setlinecap
1 LJ
0.556 LW
N
250 356.364 M
264.88 356.364 L
S
GR
GS
[0.9 0 0 0.9 0 0] CT
2 setlinecap
1 LJ
0.556 LW
N
250 285.273 M
264.88 285.273 L
S
GR
GS
[0.9 0 0 0.9 0 0] CT
2 setlinecap
1 LJ
0.556 LW
N
250 214.182 M
264.88 214.182 L
S
GR
GS
[0.9 0 0 0.9 0 0] CT
2 setlinecap
1 LJ
0.556 LW
N
250 143.091 M
264.88 143.091 L
S
GR
GS
[0.9 0 0 0.9 0 0] CT
2 setlinecap
1 LJ
0.556 LW
N
250 72 M
264.88 72 L
S
GR
GS
[0.9 0 0 0.9 216 768.6] CT
/Helvetica 33.333 F
GS
[1 0 0 1 0 0] CT
-67 12 moveto 
1 -1 scale
(-100) t 
GR
GR
GS
[0.9 0 0 0.9 216 704.61821] CT
/Helvetica 33.333 F
GS
[1 0 0 1 0 0] CT
-49 12 moveto 
1 -1 scale
(-50) t 
GR
GR
GS
[0.9 0 0 0.9 216 640.63636] CT
/Helvetica 33.333 F
GS
[1 0 0 1 0 0] CT
-19 12 moveto 
1 -1 scale
(0) t 
GR
GR
GS
[0.9 0 0 0.9 216 576.65457] CT
/Helvetica 33.333 F
GS
[1 0 0 1 0 0] CT
-38 12 moveto 
1 -1 scale
(50) t 
GR
GR
GS
[0.9 0 0 0.9 216 512.67272] CT
/Helvetica 33.333 F
GS
[1 0 0 1 0 0] CT
-56 12 moveto 
1 -1 scale
(100) t 
GR
GR
GS
[0.9 0 0 0.9 216 448.6909] CT
/Helvetica 33.333 F
GS
[1 0 0 1 0 0] CT
-56 12 moveto 
1 -1 scale
(150) t 
GR
GR
GS
[0.9 0 0 0.9 216 384.7091] CT
/Helvetica 33.333 F
GS
[1 0 0 1 0 0] CT
-56 12 moveto 
1 -1 scale
(200) t 
GR
GR
GS
[0.9 0 0 0.9 216 320.72728] CT
/Helvetica 33.333 F
GS
[1 0 0 1 0 0] CT
-56 12 moveto 
1 -1 scale
(250) t 
GR
GR
GS
[0.9 0 0 0.9 216 256.74546] CT
/Helvetica 33.333 F
GS
[1 0 0 1 0 0] CT
-56 12 moveto 
1 -1 scale
(300) t 
GR
GR
GS
[0.9 0 0 0.9 216 192.76364] CT
/Helvetica 33.333 F
GS
[1 0 0 1 0 0] CT
-56 12 moveto 
1 -1 scale
(350) t 
GR
GR
GS
[0.9 0 0 0.9 216 128.78182] CT
/Helvetica 33.333 F
GS
[1 0 0 1 0 0] CT
-56 12 moveto 
1 -1 scale
(400) t 
GR
GR
GS
[0.9 0 0 0.9 216 64.8] CT
/Helvetica 33.333 F
GS
[1 0 0 1 0 0] CT
-56 12 moveto 
1 -1 scale
(450) t 
GR
GR
GS
[0 -0.9 0.9 0 151.2 416.69967] CT
/Helvetica 33.333 F
GS
[1 0 0 1 0 0] CT
-83.5 -7 moveto 
1 -1 scale
(Intensity \(-\)) t 
GR
GR
GS
[0.9 0 0 0.9 0 0] CT
0.929 0.694 0.125 RC
2 setlinecap
1 LJ
0.556 LW
N
1738 854 M
1738 72 L
S
GR
GS
[0.9 0 0 0.9 0 0] CT
0.929 0.694 0.125 RC
2 setlinecap
1 LJ
0.556 LW
N
1738 854 M
1723.12 854 L
S
GR
GS
[0.9 0 0 0.9 0 0] CT
0.929 0.694 0.125 RC
2 setlinecap
1 LJ
0.556 LW
N
1738 767.111 M
1723.12 767.111 L
S
GR
GS
[0.9 0 0 0.9 0 0] CT
0.929 0.694 0.125 RC
2 setlinecap
1 LJ
0.556 LW
N
1738 680.222 M
1723.12 680.222 L
S
GR
GS
[0.9 0 0 0.9 0 0] CT
0.929 0.694 0.125 RC
2 setlinecap
1 LJ
0.556 LW
N
1738 593.333 M
1723.12 593.333 L
S
GR
GS
[0.9 0 0 0.9 0 0] CT
0.929 0.694 0.125 RC
2 setlinecap
1 LJ
0.556 LW
N
1738 506.444 M
1723.12 506.444 L
S
GR
GS
[0.9 0 0 0.9 0 0] CT
0.929 0.694 0.125 RC
2 setlinecap
1 LJ
0.556 LW
N
1738 419.556 M
1723.12 419.556 L
S
GR
GS
[0.9 0 0 0.9 0 0] CT
0.929 0.694 0.125 RC
2 setlinecap
1 LJ
0.556 LW
N
1738 332.667 M
1723.12 332.667 L
S
GR
GS
[0.9 0 0 0.9 0 0] CT
0.929 0.694 0.125 RC
2 setlinecap
1 LJ
0.556 LW
N
1738 245.778 M
1723.12 245.778 L
S
GR
GS
[0.9 0 0 0.9 0 0] CT
0.929 0.694 0.125 RC
2 setlinecap
1 LJ
0.556 LW
N
1738 158.889 M
1723.12 158.889 L
S
GR
GS
[0.9 0 0 0.9 0 0] CT
0.929 0.694 0.125 RC
2 setlinecap
1 LJ
0.556 LW
N
1738 72 M
1723.12 72 L
S
GR
GS
[0.9 0 0 0.9 1573.2 768.6] CT
0.929 0.694 0.125 RC
/Helvetica 33.333 F
GS
[1 0 0 1 0 0] CT
0 12 moveto 
1 -1 scale
(-5) t 
GR
GR
GS
[0.9 0 0 0.9 1573.2 690.39998] CT
0.929 0.694 0.125 RC
/Helvetica 33.333 F
GS
[1 0 0 1 0 0] CT
0 12 moveto 
1 -1 scale
(0) t 
GR
GR
GS
[0.9 0 0 0.9 1573.2 612.20001] CT
0.929 0.694 0.125 RC
/Helvetica 33.333 F
GS
[1 0 0 1 0 0] CT
0 12 moveto 
1 -1 scale
(5) t 
GR
GR
GS
[0.9 0 0 0.9 1573.2 533.99998] CT
0.929 0.694 0.125 RC
/Helvetica 33.333 F
GS
[1 0 0 1 0 0] CT
0 12 moveto 
1 -1 scale
(10) t 
GR
GR
GS
[0.9 0 0 0.9 1573.2 455.80001] CT
0.929 0.694 0.125 RC
/Helvetica 33.333 F
GS
[1 0 0 1 0 0] CT
0 12 moveto 
1 -1 scale
(15) t 
GR
GR
GS
[0.9 0 0 0.9 1573.2 377.59999] CT
0.929 0.694 0.125 RC
/Helvetica 33.333 F
GS
[1 0 0 1 0 0] CT
0 12 moveto 
1 -1 scale
(20) t 
GR
GR
GS
[0.9 0 0 0.9 1573.2 299.39999] CT
0.929 0.694 0.125 RC
/Helvetica 33.333 F
GS
[1 0 0 1 0 0] CT
0 12 moveto 
1 -1 scale
(25) t 
GR
GR
GS
[0.9 0 0 0.9 1573.2 221.19999] CT
0.929 0.694 0.125 RC
/Helvetica 33.333 F
GS
[1 0 0 1 0 0] CT
0 12 moveto 
1 -1 scale
(30) t 
GR
GR
GS
[0.9 0 0 0.9 1573.2 143] CT
0.929 0.694 0.125 RC
/Helvetica 33.333 F
GS
[1 0 0 1 0 0] CT
0 12 moveto 
1 -1 scale
(35) t 
GR
GR
GS
[0.9 0 0 0.9 1573.2 64.8] CT
0.929 0.694 0.125 RC
/Helvetica 33.333 F
GS
[1 0 0 1 0 0] CT
0 12 moveto 
1 -1 scale
(40) t 
GR
GR
GS
[0 -0.9 0.9 0 1611.9 416.69967] CT
0.929 0.694 0.125 RC
/Helvetica 33.333 F
GS
[1 0 0 1 0 0] CT
-134.5 31 moveto 
1 -1 scale
(Diff. in intensity \(-\)) t 
GR
GR
GS
[0.9 0 0 0.9 0 0] CT
N
250 72 M
1739 72 L
1739 855 L
250 855 L
250 72 L
cp
clip
0 0.447 0.741 RC
1 LJ
0.556 LW
N
251.461 705.022 M
254.384 705.94 L
257.307 706.676 L
260.23 707.231 L
263.153 707.89 L
266.076 708.437 L
268.999 708.812 L
271.921 708.894 L
274.844 708.637 L
277.767 707.882 L
280.69 706.602 L
283.613 704.675 L
286.536 702.006 L
289.459 698.407 L
292.381 693.633 L
295.304 687.438 L
298.227 679.484 L
301.15 669.473 L
304.073 656.599 L
306.996 641.243 L
309.919 622.603 L
312.841 600.991 L
315.764 576.675 L
318.687 549.774 L
321.61 519.416 L
324.533 486.313 L
327.456 450.08 L
330.379 414.785 L
333.301 386.134 L
336.224 368.974 L
339.147 369.026 L
342.07 382.318 L
344.993 404.027 L
347.916 428.616 L
350.839 451.578 L
353.761 473.482 L
356.684 494.105 L
359.607 513.985 L
362.53 533.229 L
365.453 551.879 L
368.376 569.135 L
371.299 585.053 L
374.221 599.751 L
377.144 612.744 L
380.067 624.745 L
382.99 635.365 L
385.913 644.869 L
388.836 653.49 L
391.759 661.302 L
394.681 667.87 L
397.604 672.96 L
400.527 676.233 L
403.45 678.158 L
406.373 679.067 L
409.296 679.759 L
412.219 680.467 L
415.141 681.718 L
418.064 682.74 L
420.987 683.646 L
423.91 684.383 L
426.833 685.004 L
429.756 685.802 L
432.679 686.444 L
435.601 687.301 L
438.524 688.112 L
441.447 688.972 L
444.37 689.955 L
447.293 690.759 L
450.216 691.394 L
453.139 691.411 L
456.061 691.172 L
458.984 690.933 L
461.907 690.77 L
464.83 691.147 L
467.753 691.796 L
470.676 692.476 L
473.599 693.334 L
476.521 693.79 L
479.444 694.597 L
482.367 694.988 L
485.29 695.589 L
488.213 696.356 L
491.136 697.443 L
494.059 698.194 L
496.981 698.824 L
499.904 698.838 L
502.827 698.892 L
505.75 698.736 L
508.673 698.689 L
511.596 698.405 L
514.519 698.166 L
517.441 697.844 L
520.364 697.685 L
523.287 697.503 L
526.21 697.335 L
529.133 696.772 L
532.056 696.248 L
534.979 695.406 L
537.901 694.399 L
540.824 693.391 L
543.747 692.582 L
546.67 692.23 L
549.593 691.898 L
552.516 692.21 L
555.439 692.236 L
558.361 692.783 L
561.284 693.367 L
564.207 693.823 L
567.13 694.919 L
570.053 695.677 L
572.976 696.142 L
575.899 696.743 L
578.821 696.987 L
581.744 697.156 L
584.667 697.495 L
587.59 697.562 L
590.513 697.52 L
593.436 697.643 L
596.359 697.582 L
599.281 697.733 L
602.204 697.631 L
605.127 697.57 L
608.05 697.228 L
610.973 697.014 L
613.896 696.758 L
616.819 696.079 L
619.741 695.166 L
622.664 694.154 L
625.587 693.59 L
628.51 692.954 L
631.433 693.162 L
634.356 693.093 L
637.279 693.222 L
640.201 693.754 L
643.124 694.105 L
646.047 694.975 L
648.97 695.505 L
651.893 695.936 L
654.816 696.24 L
657.739 696.351 L
660.661 696.411 L
663.584 696.731 L
666.507 696.902 L
669.43 697.48 L
672.353 697.522 L
675.276 697.892 L
678.199 697.807 L
681.121 697.864 L
684.044 697.771 L
686.967 697.795 L
689.89 697.619 L
692.813 697.458 L
695.736 697.091 L
698.659 696.506 L
701.581 696.117 L
704.504 695.163 L
707.427 694.602 L
710.35 694.135 L
713.273 693.643 L
716.196 693.756 L
719.119 693.719 L
722.041 693.813 L
724.964 694.207 L
727.887 694.432 L
730.81 694.681 L
733.733 695.012 L
736.656 695.1 L
739.579 695.387 L
742.501 695.871 L
745.424 696.191 L
748.347 697.107 L
751.27 697.827 L
754.193 698.325 L
757.116 698.667 L
760.039 698.885 L
762.961 699.104 L
765.884 699.185 L
768.807 699.341 L
771.73 699.608 L
774.653 699.627 L
777.576 699.712 L
780.499 699.486 L
783.421 699.122 L
786.344 698.49 L
789.267 697.786 L
792.19 697.015 L
795.113 696.205 L
798.036 695.561 L
800.959 694.884 L
803.881 693.957 L
806.804 693.509 L
809.727 693.09 L
812.65 692.413 L
815.573 691.72 L
818.496 691.27 L
821.419 690.664 L
824.341 690.54 L
827.264 690.669 L
830.187 691.377 L
833.11 692.062 L
836.033 692.802 L
838.956 693.277 L
841.879 693.859 L
844.801 694.653 L
847.724 695.84 L
850.647 697.16 L
853.57 698.804 L
856.493 700.429 L
859.416 701.636 L
862.339 702.732 L
865.261 703.685 L
868.184 704.424 L
871.107 705.048 L
874.03 705.62 L
876.953 706.202 L
879.876 706.818 L
882.799 707.27 L
885.721 707.411 L
888.644 707.1 L
891.567 706.405 L
894.49 705.282 L
897.413 703.647 L
900.336 701.547 L
903.259 698.76 L
906.181 695.089 L
909.104 690.392 L
912.027 684.286 L
914.95 676.766 L
917.873 667.454 L
920.796 656.758 L
923.719 644.156 L
926.641 630.46 L
929.564 615.864 L
932.487 600.021 L
935.41 582.627 L
938.333 563.506 L
941.256 543.006 L
944.179 523.338 L
947.101 508.861 L
950.024 502.032 L
952.947 506.583 L
955.87 520.049 L
958.793 538.785 L
961.716 559.009 L
964.639 578.814 L
967.561 597.789 L
970.484 615.058 L
973.407 630.997 L
976.33 645.522 L
979.253 657.734 L
982.176 668.148 L
985.099 676.43 L
988.021 683.182 L
990.944 688.503 L
993.867 692.729 L
996.79 696.401 L
999.713 699.314 L
1002.636 701.898 L
1005.559 703.932 L
1008.481 705.449 L
1011.404 706.49 L
1014.327 707.068 L
1017.25 707.257 L
1020.173 707.155 L
1023.096 706.87 L
1026.019 706.462 L
1028.941 705.961 L
1031.864 705.213 L
1034.787 704.33 L
1037.71 703.148 L
1040.633 701.873 L
1043.556 700.589 L
1046.479 699.546 L
1049.401 698.389 L
1052.324 697.328 L
1055.247 696.407 L
1058.17 695.67 L
1061.093 694.331 L
1064.016 692.35 L
1066.939 690.233 L
1069.861 687.557 L
1072.784 685.133 L
1075.707 683.536 L
1078.63 682.909 L
1081.553 683.509 L
1084.476 684.64 L
1087.399 686.44 L
1090.321 688.633 L
1093.244 690.965 L
1096.167 693.336 L
1099.09 695.876 L
1102.013 698.173 L
1104.936 700.218 L
1107.859 701.642 L
1110.781 702.49 L
1113.704 702.832 L
1116.627 703.038 L
1119.55 703.295 L
1122.473 703.292 L
1125.396 703.331 L
1128.319 703.299 L
1131.241 703.362 L
1134.164 703.122 L
1137.087 702.709 L
1140.01 701.824 L
1142.933 700.661 L
1145.856 698.673 L
1148.779 696.355 L
1151.701 693.526 L
1154.624 690.408 L
1157.547 687.442 L
1160.47 684.662 L
1163.393 682.081 L
1166.316 680.3 L
1169.239 678.763 L
1172.161 678.333 L
1175.084 679.513 L
1178.007 681.802 L
1180.93 685.016 L
1183.853 688.293 L
1186.776 690.943 L
1189.699 693.266 L
1192.621 695.267 L
1195.544 697.167 L
1198.467 699.014 L
1201.39 700.923 L
1204.313 702.799 L
1207.236 704.517 L
1210.159 706.204 L
1213.081 707.625 L
1216.004 708.75 L
1218.927 709.667 L
1221.85 710.451 L
1224.773 711.065 L
1227.696 711.584 L
1230.619 711.818 L
1233.541 711.818 L
1236.464 711.818 L
1239.387 711.818 L
1242.31 711.818 L
1245.233 711.693 L
1248.156 710.353 L
1251.078 708.014 L
1254.001 704.303 L
1256.924 698.705 L
1259.847 690.704 L
1262.77 679.412 L
1265.693 663.977 L
1268.616 643.19 L
1271.539 616.065 L
1274.461 581.72 L
1277.384 539.082 L
1280.307 488.218 L
1283.23 429.311 L
1286.153 362.473 L
1289.076 289.848 L
1291.999 217.515 L
1294.922 154.874 L
1297.844 113.885 L
1300.767 103.244 L
1303.69 127.52 L
1306.613 179.084 L
1309.536 247.322 L
1312.459 320.192 L
1315.381 389.822 L
1318.304 451.486 L
1321.227 504.671 L
1324.15 550.776 L
1327.073 589.319 L
1329.996 621.339 L
1332.919 646.984 L
1335.841 666.702 L
1338.764 681.515 L
1341.687 692.314 L
1344.61 699.938 L
1347.533 705.125 L
1350.456 708.452 L
1353.379 710.397 L
1356.301 711.395 L
1359.224 711.782 L
1362.147 711.8 L
1365.07 711.562 L
1367.993 711.097 L
1370.916 710.37 L
1373.839 709.293 L
1376.761 707.862 L
1379.684 705.96 L
1382.607 703.566 L
1385.53 700.541 L
1388.453 696.628 L
1391.376 691.759 L
1394.299 685.558 L
1397.221 678.456 L
1400.144 669.768 L
1403.067 660.27 L
1405.99 649.973 L
1408.913 639.194 L
1411.836 628.419 L
1414.759 619.232 L
1417.681 612.425 L
1420.604 609.456 L
1423.527 611.513 L
1426.45 616.562 L
1429.373 624.649 L
1432.296 634.08 L
1435.219 644.107 L
1438.141 653.487 L
1441.064 662.122 L
1443.987 670.312 L
1446.91 677.545 L
1449.833 683.884 L
1452.756 689.505 L
1455.679 694.059 L
1458.601 697.839 L
1461.524 700.522 L
1464.447 702.615 L
1467.37 704.154 L
1470.293 705.271 L
1473.216 706.02 L
1476.139 706.55 L
1479.061 706.819 L
1481.984 706.71 L
1484.907 706.467 L
1487.83 706.003 L
1490.753 705.376 L
1493.676 704.651 L
1496.599 703.531 L
1499.521 702.193 L
1502.444 700.672 L
1505.367 698.815 L
1508.29 697.093 L
1511.213 695.33 L
1514.136 694.101 L
1517.059 692.779 L
1519.981 692.286 L
1522.904 691.767 L
1525.827 692.054 L
1528.75 692.542 L
1531.673 693.613 L
1534.596 694.439 L
1537.519 694.971 L
1540.441 695.588 L
1543.364 696.12 L
1546.287 696.517 L
1549.21 696.792 L
1552.133 697.114 L
1555.056 697.429 L
1557.979 697.702 L
1560.901 698.054 L
1563.824 698.373 L
1566.747 698.847 L
1569.67 699.25 L
1572.593 699.415 L
1575.516 699.482 L
1578.439 699.261 L
1581.361 698.732 L
1584.284 697.932 L
1587.207 697.039 L
1590.13 696.344 L
1593.053 695.895 L
1595.976 695.647 L
1598.899 695.632 L
1601.821 695.856 L
1604.744 696.49 L
1607.667 697.204 L
1610.59 698.149 L
1613.513 698.572 L
1616.436 698.865 L
1619.359 699.074 L
1622.281 699.132 L
1625.204 698.905 L
1628.127 698.855 L
1631.05 698.671 L
1633.973 698.683 L
1636.896 698.854 L
1639.819 699.002 L
1642.741 699.152 L
1645.664 699.553 L
1648.587 699.897 L
1651.51 700.082 L
1654.433 700.362 L
1657.356 700.279 L
1660.279 700.19 L
1663.201 699.807 L
1666.124 699.338 L
1669.047 698.809 L
1671.97 698.181 L
1674.893 697.678 L
1677.816 697.187 L
1680.739 696.872 L
1683.661 696.944 L
1686.584 696.874 L
1689.507 697.039 L
1692.43 696.886 L
1695.353 696.424 L
1698.276 695.927 L
1701.199 694.95 L
1704.121 694.134 L
1707.044 693.576 L
1709.967 693.278 L
1712.89 693.071 L
1715.813 693.385 L
1718.736 693.631 L
1721.659 694.529 L
1724.581 695.268 L
1727.504 696.43 L
1730.427 697.872 L
1733.35 699.169 L
1736.273 700.53 L
1739.196 701.901 L
1742.119 703.03 L
1745.041 704.037 L
S
GR
GS
[0.9 0 0 0.9 0 0] CT
N
250 72 M
1739 72 L
1739 855 L
250 855 L
250 72 L
cp
clip
0.851 0.325 0.098 RC
1 LJ
0.556 LW
N
251.461 705.706 M
254.384 706.113 L
257.307 706.64 L
260.23 707.227 L
263.153 707.807 L
266.076 708.275 L
268.999 708.56 L
271.921 708.57 L
274.844 708.212 L
277.767 707.394 L
280.69 706.021 L
283.613 703.987 L
286.536 701.155 L
289.459 697.346 L
292.381 692.336 L
295.304 685.848 L
298.227 677.558 L
301.15 667.11 L
304.073 654.173 L
306.996 638.499 L
309.919 619.948 L
312.841 598.496 L
315.764 574.174 L
318.687 546.952 L
321.61 516.881 L
324.533 484.492 L
327.456 451.388 L
330.379 420.645 L
333.301 396.355 L
336.224 382.325 L
339.147 380.445 L
342.07 389.737 L
344.993 406.97 L
347.916 428.275 L
350.839 450.622 L
353.761 472.462 L
356.684 493.362 L
359.607 513.362 L
362.53 532.532 L
365.453 550.791 L
368.376 567.953 L
371.299 583.86 L
374.221 598.431 L
377.144 611.663 L
380.067 623.614 L
382.99 634.368 L
385.913 644.024 L
388.836 652.652 L
391.759 660.209 L
394.681 666.547 L
397.604 671.496 L
400.527 675.027 L
403.45 677.326 L
406.373 678.77 L
409.296 679.784 L
412.219 680.704 L
415.141 681.664 L
418.064 682.628 L
420.987 683.52 L
423.91 684.316 L
426.833 685.053 L
429.756 685.78 L
432.679 686.529 L
435.601 687.319 L
438.524 688.151 L
441.447 689.009 L
444.37 689.839 L
447.293 690.539 L
450.216 691 L
453.139 691.176 L
456.061 691.141 L
458.984 691.06 L
461.907 691.107 L
464.83 691.388 L
467.753 691.889 L
470.676 692.526 L
473.599 693.201 L
476.521 693.851 L
479.444 694.466 L
482.367 695.076 L
485.29 695.739 L
488.213 696.497 L
491.136 697.288 L
494.059 697.988 L
496.981 698.476 L
499.904 698.725 L
502.827 698.783 L
505.75 698.723 L
508.673 698.583 L
511.596 698.385 L
514.519 698.149 L
517.441 697.913 L
520.364 697.688 L
523.287 697.448 L
526.21 697.129 L
529.133 696.673 L
532.056 696.052 L
534.979 695.276 L
537.901 694.408 L
540.824 693.564 L
543.747 692.873 L
546.67 692.416 L
549.593 692.217 L
552.516 692.252 L
555.439 692.48 L
558.361 692.876 L
561.284 693.416 L
564.207 694.072 L
567.13 694.8 L
570.053 695.501 L
572.976 696.095 L
575.899 696.564 L
578.821 696.914 L
581.744 697.174 L
584.667 697.367 L
587.59 697.488 L
590.513 697.556 L
593.436 697.598 L
596.359 697.627 L
599.281 697.63 L
602.204 697.576 L
605.127 697.444 L
608.05 697.231 L
610.973 696.93 L
613.896 696.495 L
616.819 695.885 L
619.741 695.135 L
622.664 694.376 L
625.587 693.751 L
628.51 693.353 L
631.433 693.197 L
634.356 693.235 L
637.279 693.44 L
640.201 693.805 L
643.124 694.298 L
646.047 694.858 L
648.97 695.388 L
651.893 695.812 L
654.816 696.116 L
657.739 696.327 L
660.661 696.519 L
663.584 696.745 L
666.507 697.019 L
669.43 697.304 L
672.353 697.547 L
675.276 697.713 L
678.199 697.796 L
681.121 697.809 L
684.044 697.779 L
686.967 697.702 L
689.89 697.558 L
692.813 697.318 L
695.736 696.96 L
698.659 696.486 L
701.581 695.916 L
704.504 695.295 L
707.427 694.711 L
710.35 694.242 L
713.273 693.935 L
716.196 693.805 L
719.119 693.824 L
722.041 693.958 L
724.964 694.178 L
727.887 694.432 L
730.81 694.689 L
733.733 694.938 L
736.656 695.193 L
739.579 695.505 L
742.501 695.914 L
745.424 696.44 L
748.347 697.057 L
751.27 697.669 L
754.193 698.182 L
757.116 698.567 L
760.039 698.841 L
762.961 699.044 L
765.884 699.212 L
768.807 699.368 L
771.73 699.501 L
774.653 699.57 L
777.576 699.524 L
780.499 699.321 L
783.421 698.938 L
786.344 698.393 L
789.267 697.731 L
792.19 697.008 L
795.113 696.27 L
798.036 695.543 L
800.959 694.832 L
803.881 694.161 L
806.804 693.552 L
809.727 692.979 L
812.65 692.399 L
815.573 691.825 L
818.496 691.314 L
821.419 690.953 L
824.341 690.838 L
827.264 691.022 L
830.187 691.468 L
833.11 692.064 L
836.033 692.697 L
838.956 693.337 L
841.879 694.046 L
844.801 694.925 L
847.724 696.031 L
850.647 697.346 L
853.57 698.78 L
856.493 700.197 L
859.416 701.481 L
862.339 702.59 L
865.261 703.528 L
868.184 704.318 L
871.107 704.999 L
874.03 705.614 L
876.953 706.184 L
879.876 706.675 L
882.799 706.999 L
885.721 707.047 L
888.644 706.735 L
891.567 706.012 L
894.49 704.841 L
897.413 703.174 L
900.336 700.928 L
903.259 697.971 L
906.181 694.126 L
909.104 689.19 L
912.027 682.966 L
914.95 675.289 L
917.873 666.066 L
920.796 655.292 L
923.719 643.059 L
926.641 629.515 L
929.564 614.74 L
932.487 598.67 L
935.41 581.246 L
938.333 562.753 L
941.256 544.225 L
944.179 527.688 L
947.101 515.785 L
950.024 510.908 L
952.947 514.158 L
955.87 524.779 L
958.793 540.575 L
961.716 559.002 L
964.639 578.045 L
967.561 596.503 L
970.484 613.773 L
973.407 629.574 L
976.33 643.704 L
979.253 655.998 L
982.176 666.397 L
985.099 674.977 L
988.021 681.938 L
990.944 687.548 L
993.867 692.091 L
996.79 695.818 L
999.713 698.901 L
1002.636 701.441 L
1005.559 703.475 L
1008.481 705.017 L
1011.404 706.087 L
1014.327 706.725 L
1017.25 706.997 L
1020.173 706.979 L
1023.096 706.746 L
1026.019 706.345 L
1028.941 705.784 L
1031.864 705.049 L
1034.787 704.131 L
1037.71 703.053 L
1040.633 701.88 L
1043.556 700.694 L
1046.479 699.545 L
1049.401 698.455 L
1052.324 697.425 L
1055.247 696.412 L
1058.17 695.284 L
1061.093 693.868 L
1064.016 692.075 L
1066.939 689.968 L
1069.861 687.755 L
1072.784 685.778 L
1075.707 684.393 L
1078.63 683.83 L
1081.553 684.13 L
1084.476 685.175 L
1087.399 686.791 L
1090.321 688.799 L
1093.244 691.039 L
1096.167 693.387 L
1099.09 695.72 L
1102.013 697.891 L
1104.936 699.741 L
1107.859 701.15 L
1110.781 702.096 L
1113.704 702.664 L
1116.627 702.987 L
1119.55 703.169 L
1122.473 703.264 L
1125.396 703.3 L
1128.319 703.284 L
1131.241 703.177 L
1134.164 702.902 L
1137.087 702.359 L
1140.01 701.455 L
1142.933 700.107 L
1145.856 698.269 L
1148.779 695.971 L
1151.701 693.314 L
1154.624 690.461 L
1157.547 687.61 L
1160.47 684.936 L
1163.393 682.604 L
1166.316 680.787 L
1169.239 679.691 L
1172.161 679.559 L
1175.084 680.531 L
1178.007 682.499 L
1180.93 685.12 L
1183.853 687.943 L
1186.776 690.619 L
1189.699 693.01 L
1192.621 695.146 L
1195.544 697.123 L
1198.467 699.025 L
1201.39 700.888 L
1204.313 702.701 L
1207.236 704.423 L
1210.159 706.003 L
1213.081 707.39 L
1216.004 708.56 L
1218.927 709.526 L
1221.85 710.312 L
1224.773 710.932 L
1227.696 711.379 L
1230.619 711.648 L
1233.541 711.772 L
1236.464 711.808 L
1239.387 711.763 L
1242.31 711.528 L
1245.233 710.842 L
1248.156 709.359 L
1251.078 706.732 L
1254.001 702.591 L
1256.924 696.463 L
1259.847 687.731 L
1262.77 675.615 L
1265.693 659.205 L
1268.616 637.514 L
1271.539 609.566 L
1274.461 574.51 L
1277.384 531.74 L
1280.307 481.031 L
1283.23 422.736 L
1286.153 358.288 L
1289.076 291.029 L
1291.999 226.796 L
1294.922 173.585 L
1297.844 139.825 L
1300.767 131.761 L
1303.69 151.012 L
1306.613 193.801 L
1309.536 252.455 L
1312.459 318.213 L
1315.381 383.73 L
1318.304 444.348 L
1321.227 497.989 L
1324.15 544.229 L
1327.073 583.309 L
1329.996 615.662 L
1332.919 641.784 L
1335.841 662.277 L
1338.764 677.887 L
1341.687 689.43 L
1344.61 697.705 L
1347.533 703.424 L
1350.456 707.194 L
1353.379 709.52 L
1356.301 710.818 L
1359.224 711.417 L
1362.147 711.546 L
1365.07 711.34 L
1367.993 710.85 L
1370.916 710.069 L
1373.839 708.955 L
1376.761 707.453 L
1379.684 705.491 L
1382.607 702.975 L
1385.53 699.772 L
1388.453 695.729 L
1391.376 690.697 L
1394.299 684.568 L
1397.221 677.296 L
1400.144 668.922 L
1403.067 659.601 L
1405.99 649.617 L
1408.913 639.421 L
1411.836 629.724 L
1414.759 621.488 L
1417.681 615.744 L
1420.604 613.321 L
1423.527 614.517 L
1426.45 619 L
1429.373 626.001 L
1432.296 634.568 L
1435.219 643.774 L
1438.141 652.914 L
1441.064 661.571 L
1443.987 669.557 L
1446.91 676.767 L
1449.833 683.145 L
1452.756 688.653 L
1455.679 693.27 L
1458.601 697.003 L
1461.524 699.915 L
1464.447 702.122 L
1467.37 703.763 L
1470.293 704.953 L
1473.216 705.781 L
1476.139 706.303 L
1479.061 706.546 L
1481.984 706.531 L
1484.907 706.291 L
1487.83 705.852 L
1490.753 705.222 L
1493.676 704.385 L
1496.599 703.312 L
1499.521 702.001 L
1502.444 700.483 L
1505.367 698.834 L
1508.29 697.167 L
1511.213 695.613 L
1514.136 694.271 L
1517.059 693.228 L
1519.981 692.54 L
1522.904 692.254 L
1525.827 692.375 L
1528.75 692.852 L
1531.673 693.541 L
1534.596 694.275 L
1537.519 694.943 L
1540.441 695.524 L
1543.364 696.021 L
1546.287 696.437 L
1549.21 696.79 L
1552.133 697.11 L
1555.056 697.419 L
1557.979 697.735 L
1560.901 698.071 L
1563.824 698.432 L
1566.747 698.793 L
1569.67 699.095 L
1572.593 699.268 L
1575.516 699.252 L
1578.439 699.005 L
1581.361 698.524 L
1584.284 697.87 L
1587.207 697.164 L
1590.13 696.54 L
1593.053 696.089 L
1595.976 695.858 L
1598.899 695.868 L
1601.821 696.133 L
1604.744 696.627 L
1607.667 697.26 L
1610.59 697.895 L
1613.513 698.409 L
1616.436 698.752 L
1619.359 698.937 L
1622.281 698.982 L
1625.204 698.93 L
1628.127 698.842 L
1631.05 698.781 L
1633.973 698.789 L
1636.896 698.881 L
1639.819 699.043 L
1642.741 699.268 L
1645.664 699.541 L
1648.587 699.817 L
1651.51 700.045 L
1654.433 700.175 L
1657.356 700.17 L
1660.279 700.011 L
1663.201 699.702 L
1666.124 699.272 L
1669.047 698.766 L
1671.97 698.235 L
1674.893 697.741 L
1677.816 697.342 L
1680.739 697.085 L
1683.661 696.967 L
1686.584 696.924 L
1689.507 696.857 L
1692.43 696.662 L
1695.353 696.274 L
1698.276 695.698 L
1701.199 695.004 L
1704.121 694.325 L
1707.044 693.787 L
1709.967 693.457 L
1712.89 693.371 L
1715.813 693.538 L
1718.736 693.959 L
1721.659 694.627 L
1724.581 695.521 L
1727.504 696.617 L
1730.427 697.865 L
1733.35 699.182 L
1736.273 700.499 L
1739.196 701.661 L
1742.119 702.57 L
1745.041 703.186 L
S
GR
GS
[0.9 0 0 0.9 0 0] CT
N
250 72 M
1739 72 L
1739 855 L
250 855 L
250 72 L
cp
clip
0.929 0.694 0.125 RC
1 LJ
0.556 LW
N
251.461 758.749 M
254.384 764.998 L
257.307 767.555 L
260.23 767.155 L
263.153 768.12 L
266.076 769.082 L
268.999 770.194 L
271.921 771.068 L
274.844 772.307 L
277.767 773.076 L
280.69 774.221 L
283.613 775.527 L
286.536 777.521 L
289.459 780.082 L
292.381 782.967 L
295.304 786.551 L
298.227 790.656 L
301.15 795.995 L
304.073 796.754 L
306.996 800.656 L
309.919 799.557 L
312.841 797.602 L
315.764 797.68 L
318.687 801.598 L
321.61 798.092 L
324.533 789.364 L
327.456 751.125 L
330.379 695.492 L
333.301 642.19 L
336.224 603.932 L
339.147 627.544 L
342.07 676.438 L
344.993 731.144 L
347.916 771.27 L
350.839 778.807 L
353.761 779.579 L
356.684 776.188 L
359.607 774.728 L
362.53 775.621 L
365.453 780.41 L
368.376 781.567 L
371.299 781.698 L
374.221 783.236 L
377.144 780.323 L
380.067 780.934 L
382.99 779.292 L
385.913 777.434 L
388.836 777.357 L
391.759 780.462 L
394.681 783.286 L
397.604 784.998 L
400.527 781.846 L
403.45 777.274 L
406.373 770.747 L
409.296 766.81 L
412.219 764.21 L
415.141 767.769 L
418.064 768.483 L
420.987 768.656 L
423.91 767.93 L
426.833 766.512 L
429.756 767.38 L
432.679 766.069 L
435.601 766.889 L
438.524 766.638 L
441.447 766.67 L
444.37 768.532 L
447.293 769.809 L
450.216 771.926 L
453.139 769.982 L
456.061 767.499 L
458.984 765.557 L
461.907 762.99 L
464.83 764.171 L
467.753 765.978 L
470.676 766.497 L
473.599 768.747 L
476.521 766.372 L
479.444 768.721 L
482.367 766.036 L
485.29 765.278 L
488.213 765.389 L
491.136 769.003 L
494.059 769.637 L
496.981 771.358 L
499.904 768.5 L
502.827 768.446 L
505.75 767.274 L
508.673 768.413 L
511.596 767.362 L
514.519 767.32 L
517.441 766.265 L
520.364 767.073 L
523.287 767.782 L
526.21 769.622 L
529.133 768.331 L
532.056 769.511 L
534.979 768.705 L
537.901 767.003 L
540.824 764.999 L
543.747 763.555 L
546.67 764.843 L
549.593 763.211 L
552.516 766.595 L
555.439 764.128 L
558.361 765.974 L
561.284 766.514 L
564.207 764.077 L
567.13 768.558 L
570.053 769.268 L
572.976 767.682 L
575.899 769.29 L
578.821 768.005 L
581.744 766.891 L
584.667 768.675 L
587.59 768.017 L
590.513 766.671 L
593.436 767.657 L
596.359 766.557 L
599.281 768.379 L
602.204 767.789 L
605.127 768.661 L
608.05 767.073 L
610.973 768.142 L
613.896 770.326 L
616.819 769.478 L
619.741 767.492 L
622.664 764.397 L
625.587 765.149 L
628.51 762.226 L
631.433 766.686 L
634.356 765.375 L
637.279 764.444 L
640.201 766.479 L
643.124 764.751 L
646.047 768.54 L
648.97 768.546 L
651.893 768.632 L
654.816 768.623 L
657.739 767.404 L
660.661 765.785 L
663.584 766.942 L
666.507 765.683 L
669.43 769.264 L
672.353 766.798 L
675.276 769.304 L
678.199 767.256 L
681.121 767.777 L
684.044 767.012 L
686.967 768.24 L
689.89 767.851 L
692.813 768.822 L
695.736 768.703 L
698.659 767.35 L
701.581 769.57 L
704.504 765.491 L
707.427 765.78 L
710.35 765.796 L
713.273 763.551 L
716.196 766.508 L
719.119 765.83 L
722.041 765.331 L
724.964 767.463 L
727.887 767.113 L
730.81 767.014 L
733.733 768.013 L
736.656 765.976 L
739.579 765.673 L
742.501 766.576 L
745.424 764.056 L
748.347 767.73 L
751.27 769.044 L
754.193 768.85 L
757.116 768.332 L
760.039 767.649 L
762.961 767.843 L
765.884 766.777 L
768.807 766.776 L
771.73 768.412 L
774.653 767.805 L
777.576 769.408 L
780.499 769.132 L
783.421 769.357 L
786.344 768.289 L
789.267 767.793 L
792.19 767.2 L
795.113 766.316 L
798.036 767.33 L
800.959 767.739 L
803.881 764.623 L
806.804 766.582 L
809.727 768.46 L
812.65 767.289 L
815.573 765.838 L
818.496 766.575 L
821.419 763.582 L
824.341 763.472 L
827.264 762.804 L
830.187 766.006 L
833.11 767.091 L
836.033 768.404 L
838.956 766.376 L
841.879 764.825 L
844.801 763.791 L
847.724 764.785 L
850.647 764.845 L
853.57 767.407 L
856.493 769.952 L
859.416 769.003 L
862.339 768.843 L
865.261 769.037 L
868.184 768.417 L
871.107 767.71 L
874.03 767.179 L
876.953 767.331 L
879.876 768.856 L
882.799 770.417 L
885.721 771.556 L
888.644 771.574 L
891.567 771.92 L
894.49 772.498 L
897.413 772.887 L
900.336 774.67 L
903.259 776.755 L
906.181 778.888 L
909.104 781.805 L
912.027 783.242 L
914.95 785.157 L
917.873 784.073 L
920.796 785.03 L
923.719 780.516 L
926.641 778.664 L
929.564 780.849 L
932.487 783.613 L
935.41 783.984 L
938.333 776.315 L
941.256 752.215 L
944.179 713.941 L
947.101 682.481 L
950.024 658.63 L
952.947 674.528 L
955.87 709.3 L
958.793 745.236 L
961.716 767.196 L
964.639 776.511 L
967.561 782.828 L
970.484 782.816 L
973.407 784.501 L
976.33 789.328 L
979.253 788.329 L
982.176 788.513 L
985.099 784.864 L
988.021 782.307 L
990.944 778.776 L
993.867 774.909 L
996.79 774.245 L
999.713 772.165 L
1002.636 772.703 L
1005.559 772.69 L
1008.481 772.392 L
1011.404 772.038 L
1014.327 771.303 L
1017.25 770.288 L
1020.173 769.258 L
1023.096 768.627 L
1026.019 768.546 L
1028.941 769.276 L
1031.864 769.111 L
1034.787 769.543 L
1037.71 768.273 L
1040.633 767.021 L
1043.556 765.825 L
1046.479 767.124 L
1049.401 766.299 L
1052.324 765.927 L
1055.247 767.054 L
1058.17 771.822 L
1061.093 772.77 L
1064.016 770.472 L
1066.939 770.348 L
1069.861 764.695 L
1072.784 759.226 L
1075.707 756.632 L
1078.63 755.845 L
1081.553 759.518 L
1084.476 760.565 L
1087.399 762.825 L
1090.321 765.079 L
1093.244 766.206 L
1096.167 766.485 L
1099.09 769.016 L
1102.013 770.564 L
1104.936 772.94 L
1107.859 773.125 L
1110.781 771.924 L
1113.704 769.169 L
1116.627 767.732 L
1119.55 768.644 L
1122.473 767.453 L
1125.396 767.487 L
1128.319 767.297 L
1131.241 769.375 L
1134.164 769.809 L
1137.087 771.386 L
1140.01 771.613 L
1142.933 773.883 L
1145.856 772.042 L
1148.779 771.806 L
1151.701 769.702 L
1154.624 766.468 L
1157.547 765.058 L
1160.47 763.76 L
1163.393 760.712 L
1166.316 761.154 L
1169.239 755.761 L
1172.161 752.126 L
1175.084 754.67 L
1178.007 758.589 L
1180.93 765.841 L
1183.853 771.39 L
1186.776 771.073 L
1189.699 770.24 L
1192.621 768.58 L
1195.544 767.649 L
1198.467 766.982 L
1201.39 767.54 L
1204.313 768.313 L
1207.236 768.26 L
1210.159 769.567 L
1213.081 769.984 L
1216.004 769.428 L
1218.927 768.839 L
1221.85 768.812 L
1224.773 768.744 L
1227.696 769.627 L
1230.619 769.188 L
1233.541 767.674 L
1236.464 767.238 L
1239.387 767.789 L
1242.31 770.66 L
1245.233 777.51 L
1248.156 779.259 L
1251.078 782.785 L
1254.001 788.04 L
1256.924 794.509 L
1259.847 803.451 L
1262.77 813.525 L
1265.693 825.433 L
1268.616 836.492 L
1271.539 846.553 L
1274.461 855.24 L
1277.384 856.844 L
1280.307 854.952 L
1283.23 847.468 L
1286.153 818.26 L
1289.076 752.674 L
1291.999 653.672 L
1294.922 538.425 L
1297.844 450.067 L
1300.767 418.57 L
1303.69 479.986 L
1306.613 587.236 L
1309.536 704.384 L
1312.459 791.309 L
1315.381 841.563 L
1318.304 854.357 L
1321.227 848.776 L
1324.15 847.135 L
1327.073 840.564 L
1329.996 836.495 L
1332.919 830.665 L
1335.841 821.2 L
1338.764 811.453 L
1341.687 802.363 L
1344.61 794.401 L
1347.533 787.894 L
1350.456 782.49 L
1353.379 777.838 L
1356.301 774.161 L
1359.224 771.578 L
1362.147 770.217 L
1365.07 769.823 L
1367.993 770.131 L
1370.916 770.788 L
1373.839 771.247 L
1376.761 772.111 L
1379.684 772.844 L
1382.607 774.336 L
1385.53 776.519 L
1388.453 778.094 L
1391.376 780.093 L
1394.299 779.211 L
1397.221 781.284 L
1400.144 777.442 L
1403.067 775.286 L
1405.99 771.455 L
1408.913 764.339 L
1411.836 751.157 L
1414.759 739.537 L
1417.681 726.554 L
1420.604 719.874 L
1423.527 730.395 L
1426.45 737.312 L
1429.373 750.592 L
1432.296 761.149 L
1435.219 771.18 L
1438.141 774.112 L
1441.064 773.844 L
1443.987 776.33 L
1446.91 776.617 L
1449.833 776.152 L
1452.756 777.516 L
1455.679 776.753 L
1458.601 777.328 L
1461.524 774.534 L
1464.447 773.134 L
1467.37 771.897 L
1470.293 770.997 L
1473.216 770.024 L
1476.139 770.12 L
1479.061 770.438 L
1481.984 769.298 L
1484.907 769.262 L
1487.83 768.965 L
1490.753 768.989 L
1493.676 770.359 L
1496.599 769.788 L
1499.521 769.46 L
1502.444 769.426 L
1505.367 766.874 L
1508.29 766.199 L
1511.213 763.656 L
1514.136 765.025 L
1517.059 761.629 L
1519.981 764.008 L
1522.904 761.159 L
1525.827 763.188 L
1528.75 763.331 L
1531.673 767.986 L
1534.596 769.112 L
1537.519 767.455 L
1540.441 767.898 L
1543.364 768.331 L
1546.287 768.085 L
1549.21 767.137 L
1552.133 767.158 L
1555.056 767.23 L
1557.979 766.706 L
1560.901 766.896 L
1563.824 766.393 L
1566.747 767.774 L
1569.67 768.997 L
1572.593 768.905 L
1575.516 769.917 L
1578.439 770.231 L
1581.361 769.657 L
1584.284 767.863 L
1587.207 765.578 L
1590.13 764.714 L
1593.053 764.741 L
1595.976 764.535 L
1598.899 764.228 L
1601.821 763.72 L
1604.744 765.437 L
1607.667 766.424 L
1610.59 770.217 L
1613.513 769.103 L
1616.436 768.483 L
1619.359 768.781 L
1622.281 768.944 L
1625.204 766.802 L
1628.127 767.266 L
1631.05 765.765 L
1633.973 765.813 L
1636.896 766.778 L
1639.819 766.613 L
1642.741 765.696 L
1645.664 767.253 L
1648.587 768.085 L
1651.51 767.56 L
1654.433 769.395 L
1657.356 768.446 L
1660.279 769.306 L
1663.201 768.391 L
1666.124 767.917 L
1669.047 767.633 L
1671.97 766.448 L
1674.893 766.342 L
1677.816 765.218 L
1680.739 764.502 L
1683.661 766.833 L
1686.584 766.508 L
1689.507 769.327 L
1692.43 769.853 L
1695.353 768.947 L
1698.276 769.921 L
1701.199 766.452 L
1704.121 764.784 L
1707.044 764.531 L
1709.967 764.923 L
1712.89 763.444 L
1715.813 765.248 L
1718.736 763.1 L
1721.659 765.913 L
1724.581 764.016 L
1727.504 764.823 L
1730.427 767.197 L
1733.35 766.957 L
1736.273 767.498 L
1739.196 770.037 L
1742.119 772.73 L
1745.041 777.517 L
S
GR
GS
[0.9 0 0 0.9 303.91713 543.53897] CT
0 0 1 RC
10.0 ML
N
0 -5 M
0 5 L
-5 0 M
5 0 L
-3.143 -3.143 M
3.143 3.143 L
-3.143 3.143 M
3.143 -3.143 L
S
GR
GS
[0.9 0 0 0.9 351.26743 699.62162] CT
0 0 1 RC
10.0 ML
N
0 -5 M
0 5 L
-5 0 M
5 0 L
-3.143 -3.143 M
3.143 3.143 L
-3.143 3.143 M
3.143 -3.143 L
S
GR
GS
[0.9 0 0 0.9 372.31199 687.78907] CT
0 0 1 RC
10.0 ML
N
0 -5 M
0 5 L
-5 0 M
5 0 L
-3.143 -3.143 M
3.143 3.143 L
-3.143 3.143 M
3.143 -3.143 L
S
GR
GS
[0.9 0 0 0.9 417.0317 686.6911] CT
0 0 1 RC
10.0 ML
N
0 -5 M
0 5 L
-5 0 M
5 0 L
-3.143 -3.143 M
3.143 3.143 L
-3.143 3.143 M
3.143 -3.143 L
S
GR
GS
[0.9 0 0 0.9 495.94883 686.89023] CT
0 0 1 RC
10.0 ML
N
0 -5 M
0 5 L
-5 0 M
5 0 L
-3.143 -3.143 M
3.143 3.143 L
-3.143 3.143 M
3.143 -3.143 L
S
GR
GS
[0.9 0 0 0.9 566.97429 686.0038] CT
0 0 1 RC
10.0 ML
N
0 -5 M
0 5 L
-5 0 M
5 0 L
-3.143 -3.143 M
3.143 3.143 L
-3.143 3.143 M
3.143 -3.143 L
S
GR
GS
[0.9 0 0 0.9 643.26083 687.19625] CT
0 0 1 RC
10.0 ML
N
0 -5 M
0 5 L
-5 0 M
5 0 L
-3.143 -3.143 M
3.143 3.143 L
-3.143 3.143 M
3.143 -3.143 L
S
GR
GS
[0.9 0 0 0.9 745.85314 686.524] CT
0 0 1 RC
10.0 ML
N
0 -5 M
0 5 L
-5 0 M
5 0 L
-3.143 -3.143 M
3.143 3.143 L
-3.143 3.143 M
3.143 -3.143 L
S
GR
GS
[0.9 0 0 0.9 835.29256 700.79744] CT
0 0 1 RC
10.0 ML
N
0 -5 M
0 5 L
-5 0 M
5 0 L
-3.143 -3.143 M
3.143 3.143 L
-3.143 3.143 M
3.143 -3.143 L
S
GR
GS
[0.9 0 0 0.9 856.33715 592.76739] CT
0 0 1 RC
10.0 ML
N
0 -5 M
0 5 L
-5 0 M
5 0 L
-3.143 -3.143 M
3.143 3.143 L
-3.143 3.143 M
3.143 -3.143 L
S
GR
GS
[0.9 0 0 0.9 940.51538 689.24213] CT
0 0 1 RC
10.0 ML
N
0 -5 M
0 5 L
-5 0 M
5 0 L
-3.143 -3.143 M
3.143 3.143 L
-3.143 3.143 M
3.143 -3.143 L
S
GR
GS
[0.9 0 0 0.9 972.08229 680.26086] CT
0 0 1 RC
10.0 ML
N
0 -5 M
0 5 L
-5 0 M
5 0 L
-3.143 -3.143 M
3.143 3.143 L
-3.143 3.143 M
3.143 -3.143 L
S
GR
GS
[0.9 0 0 0.9 1016.80203 690.56713] CT
0 0 1 RC
10.0 ML
N
0 -5 M
0 5 L
-5 0 M
5 0 L
-3.143 -3.143 M
3.143 3.143 L
-3.143 3.143 M
3.143 -3.143 L
S
GR
GS
[0.9 0 0 0.9 1056.26052 676.91316] CT
0 0 1 RC
10.0 ML
N
0 -5 M
0 5 L
-5 0 M
5 0 L
-3.143 -3.143 M
3.143 3.143 L
-3.143 3.143 M
3.143 -3.143 L
S
GR
GS
[0.9 0 0 0.9 1172.00566 376.7132] CT
0 0 1 RC
10.0 ML
N
0 -5 M
0 5 L
-5 0 M
5 0 L
-3.143 -3.143 M
3.143 3.143 L
-3.143 3.143 M
3.143 -3.143 L
S
GR
GS
[0.9 0 0 0.9 1229.87834 692.84097] CT
0 0 1 RC
10.0 ML
N
0 -5 M
0 5 L
-5 0 M
5 0 L
-3.143 -3.143 M
3.143 3.143 L
-3.143 3.143 M
3.143 -3.143 L
S
GR
GS
[0.9 0 0 0.9 1279.85911 647.8864] CT
0 0 1 RC
10.0 ML
N
0 -5 M
0 5 L
-5 0 M
5 0 L
-3.143 -3.143 M
3.143 3.143 L
-3.143 3.143 M
3.143 -3.143 L
S
GR
GS
[0.9 0 0 0.9 1371.92915 685.04271] CT
0 0 1 RC
10.0 ML
N
0 -5 M
0 5 L
-5 0 M
5 0 L
-3.143 -3.143 M
3.143 3.143 L
-3.143 3.143 M
3.143 -3.143 L
S
GR
GS
[0.9 0 0 0.9 1442.95455 687.34786] CT
0 0 1 RC
10.0 ML
N
0 -5 M
0 5 L
-5 0 M
5 0 L
-3.143 -3.143 M
3.143 3.143 L
-3.143 3.143 M
3.143 -3.143 L
S
GR
GS
[0.9 0 0 0.9 1513.98007 688.05137] CT
0 0 1 RC
10.0 ML
N
0 -5 M
0 5 L
-5 0 M
5 0 L
-3.143 -3.143 M
3.143 3.143 L
-3.143 3.143 M
3.143 -3.143 L
S
GR
GS
[0.9 0 0 0.9 1548.17743 686.79042] CT
0 0 1 RC
10.0 ML
N
0 -5 M
0 5 L
-5 0 M
5 0 L
-3.143 -3.143 M
3.143 3.143 L
-3.143 3.143 M
3.143 -3.143 L
S
GR
%%Trailer
%%Pages: 1
%%EOF
