%!PS-Adobe-3.0 EPSF-3.0
%%Creator: (MATLAB, The Mathworks, Inc. Version 8.4.0.150421 \(R2014b\). Operating System: Windows 8)
%%Title: ./2D_reconstructed.eps
%%CreationDate: 2017-04-19T08:59:32
%%Pages: (atend)
%%BoundingBox: (atend)
%%LanguageLevel: 3
%%EndComments
%%BeginProlog
%%BeginResource: procset (Apache XML Graphics Std ProcSet) 1.2 0
%%Version: 1.2 0
%%Copyright: (Copyright 2001-2003,2010 The Apache Software Foundation. License terms: http://www.apache.org/licenses/LICENSE-2.0)
/bd{bind def}bind def
/ld{load def}bd
/GR/grestore ld
/M/moveto ld
/LJ/setlinejoin ld
/C/curveto ld
/f/fill ld
/LW/setlinewidth ld
/GC/setgray ld
/t/show ld
/N/newpath ld
/CT/concat ld
/cp/closepath ld
/S/stroke ld
/L/lineto ld
/CC/setcmykcolor ld
/A/ashow ld
/GS/gsave ld
/RC/setrgbcolor ld
/RM/rmoveto ld
/ML/setmiterlimit ld
/re {4 2 roll M
1 index 0 rlineto
0 exch rlineto
neg 0 rlineto
cp } bd
/_ctm matrix def
/_tm matrix def
/BT { _ctm currentmatrix pop matrix _tm copy pop 0 0 moveto } bd
/ET { _ctm setmatrix } bd
/iTm { _ctm setmatrix _tm concat } bd
/Tm { _tm astore pop iTm 0 0 moveto } bd
/ux 0.0 def
/uy 0.0 def
/F {
  /Tp exch def
  /Tf exch def
  Tf findfont Tp scalefont setfont
  /cf Tf def  /cs Tp def
} bd
/ULS {currentpoint /uy exch def /ux exch def} bd
/ULE {
  /Tcx currentpoint pop def
  gsave
  newpath
  cf findfont cs scalefont dup
  /FontMatrix get 0 get /Ts exch def /FontInfo get dup
  /UnderlinePosition get Ts mul /To exch def
  /UnderlineThickness get Ts mul /Tt exch def
  ux uy To add moveto  Tcx uy To add lineto
  Tt setlinewidth stroke
  grestore
} bd
/OLE {
  /Tcx currentpoint pop def
  gsave
  newpath
  cf findfont cs scalefont dup
  /FontMatrix get 0 get /Ts exch def /FontInfo get dup
  /UnderlinePosition get Ts mul /To exch def
  /UnderlineThickness get Ts mul /Tt exch def
  ux uy To add cs add moveto Tcx uy To add cs add lineto
  Tt setlinewidth stroke
  grestore
} bd
/SOE {
  /Tcx currentpoint pop def
  gsave
  newpath
  cf findfont cs scalefont dup
  /FontMatrix get 0 get /Ts exch def /FontInfo get dup
  /UnderlinePosition get Ts mul /To exch def
  /UnderlineThickness get Ts mul /Tt exch def
  ux uy To add cs 10 mul 26 idiv add moveto Tcx uy To add cs 10 mul 26 idiv add lineto
  Tt setlinewidth stroke
  grestore
} bd
/QT {
/Y22 exch store
/X22 exch store
/Y21 exch store
/X21 exch store
currentpoint
/Y21 load 2 mul add 3 div exch
/X21 load 2 mul add 3 div exch
/X21 load 2 mul /X22 load add 3 div
/Y21 load 2 mul /Y22 load add 3 div
/X22 load /Y22 load curveto
} bd
/SSPD {
dup length /d exch dict def
{
/v exch def
/k exch def
currentpagedevice k known {
/cpdv currentpagedevice k get def
v cpdv ne {
/upd false def
/nullv v type /nulltype eq def
/nullcpdv cpdv type /nulltype eq def
nullv nullcpdv or
{
/upd true def
} {
/sametype v type cpdv type eq def
sametype {
v type /arraytype eq {
/vlen v length def
/cpdvlen cpdv length def
vlen cpdvlen eq {
0 1 vlen 1 sub {
/i exch def
/obj v i get def
/cpdobj cpdv i get def
obj cpdobj ne {
/upd true def
exit
} if
} for
} {
/upd true def
} ifelse
} {
v type /dicttype eq {
v {
/dv exch def
/dk exch def
/cpddv cpdv dk get def
dv cpddv ne {
/upd true def
exit
} if
} forall
} {
/upd true def
} ifelse
} ifelse
} if
} ifelse
upd true eq {
d k v put
} if
} if
} if
} forall
d length 0 gt {
d setpagedevice
} if
} bd
%%EndResource
%%BeginResource: procset (Apache XML Graphics EPS ProcSet) 1.0 0
%%Version: 1.0 0
%%Copyright: (Copyright 2002-2003 The Apache Software Foundation. License terms: http://www.apache.org/licenses/LICENSE-2.0)
/BeginEPSF { %def
/b4_Inc_state save def         % Save state for cleanup
/dict_count countdictstack def % Count objects on dict stack
/op_count count 1 sub def      % Count objects on operand stack
userdict begin                 % Push userdict on dict stack
/showpage { } def              % Redefine showpage, { } = null proc
0 setgray 0 setlinecap         % Prepare graphics state
1 setlinewidth 0 setlinejoin
10 setmiterlimit [ ] 0 setdash newpath
/languagelevel where           % If level not equal to 1 then
{pop languagelevel             % set strokeadjust and
1 ne                           % overprint to their defaults.
{false setstrokeadjust false setoverprint
} if
} if
} bd
/EndEPSF { %def
count op_count sub {pop} repeat            % Clean up stacks
countdictstack dict_count sub {end} repeat
b4_Inc_state restore
} bd
%%EndResource
%FOPBeginFontDict
%%IncludeResource: font Courier-Bold
%%IncludeResource: font Helvetica
%%IncludeResource: font Courier-BoldOblique
%%IncludeResource: font Courier-Oblique
%%IncludeResource: font Times-Roman
%%IncludeResource: font Helvetica-BoldOblique
%%IncludeResource: font Helvetica-Bold
%%IncludeResource: font Helvetica-Oblique
%%IncludeResource: font Times-BoldItalic
%%IncludeResource: font Courier
%%IncludeResource: font Times-Italic
%%IncludeResource: font Times-Bold
%%IncludeResource: font Symbol
%%IncludeResource: font ZapfDingbats
%FOPEndFontDict
%%BeginResource: encoding WinAnsiEncoding
/WinAnsiEncoding [
/.notdef /.notdef /.notdef /.notdef /.notdef
/.notdef /.notdef /.notdef /.notdef /.notdef
/.notdef /.notdef /.notdef /.notdef /.notdef
/.notdef /.notdef /.notdef /.notdef /.notdef
/.notdef /.notdef /.notdef /.notdef /.notdef
/.notdef /.notdef /.notdef /.notdef /.notdef
/.notdef /.notdef /space /exclam /quotedbl
/numbersign /dollar /percent /ampersand /quotesingle
/parenleft /parenright /asterisk /plus /comma
/hyphen /period /slash /zero /one
/two /three /four /five /six
/seven /eight /nine /colon /semicolon
/less /equal /greater /question /at
/A /B /C /D /E
/F /G /H /I /J
/K /L /M /N /O
/P /Q /R /S /T
/U /V /W /X /Y
/Z /bracketleft /backslash /bracketright /asciicircum
/underscore /quoteleft /a /b /c
/d /e /f /g /h
/i /j /k /l /m
/n /o /p /q /r
/s /t /u /v /w
/x /y /z /braceleft /bar
/braceright /asciitilde /bullet /Euro /bullet
/quotesinglbase /florin /quotedblbase /ellipsis /dagger
/daggerdbl /circumflex /perthousand /Scaron /guilsinglleft
/OE /bullet /Zcaron /bullet /bullet
/quoteleft /quoteright /quotedblleft /quotedblright /bullet
/endash /emdash /asciitilde /trademark /scaron
/guilsinglright /oe /bullet /zcaron /Ydieresis
/space /exclamdown /cent /sterling /currency
/yen /brokenbar /section /dieresis /copyright
/ordfeminine /guillemotleft /logicalnot /sfthyphen /registered
/macron /degree /plusminus /twosuperior /threesuperior
/acute /mu /paragraph /middot /cedilla
/onesuperior /ordmasculine /guillemotright /onequarter /onehalf
/threequarters /questiondown /Agrave /Aacute /Acircumflex
/Atilde /Adieresis /Aring /AE /Ccedilla
/Egrave /Eacute /Ecircumflex /Edieresis /Igrave
/Iacute /Icircumflex /Idieresis /Eth /Ntilde
/Ograve /Oacute /Ocircumflex /Otilde /Odieresis
/multiply /Oslash /Ugrave /Uacute /Ucircumflex
/Udieresis /Yacute /Thorn /germandbls /agrave
/aacute /acircumflex /atilde /adieresis /aring
/ae /ccedilla /egrave /eacute /ecircumflex
/edieresis /igrave /iacute /icircumflex /idieresis
/eth /ntilde /ograve /oacute /ocircumflex
/otilde /odieresis /divide /oslash /ugrave
/uacute /ucircumflex /udieresis /yacute /thorn
/ydieresis
] def
%%EndResource
%FOPBeginFontReencode
/Courier-Bold findfont
dup length dict begin
  {1 index /FID ne {def} {pop pop} ifelse} forall
  /Encoding WinAnsiEncoding def
  currentdict
end
/Courier-Bold exch definefont pop
/Helvetica findfont
dup length dict begin
  {1 index /FID ne {def} {pop pop} ifelse} forall
  /Encoding WinAnsiEncoding def
  currentdict
end
/Helvetica exch definefont pop
/Courier-BoldOblique findfont
dup length dict begin
  {1 index /FID ne {def} {pop pop} ifelse} forall
  /Encoding WinAnsiEncoding def
  currentdict
end
/Courier-BoldOblique exch definefont pop
/Courier-Oblique findfont
dup length dict begin
  {1 index /FID ne {def} {pop pop} ifelse} forall
  /Encoding WinAnsiEncoding def
  currentdict
end
/Courier-Oblique exch definefont pop
/Times-Roman findfont
dup length dict begin
  {1 index /FID ne {def} {pop pop} ifelse} forall
  /Encoding WinAnsiEncoding def
  currentdict
end
/Times-Roman exch definefont pop
/Helvetica-BoldOblique findfont
dup length dict begin
  {1 index /FID ne {def} {pop pop} ifelse} forall
  /Encoding WinAnsiEncoding def
  currentdict
end
/Helvetica-BoldOblique exch definefont pop
/Helvetica-Bold findfont
dup length dict begin
  {1 index /FID ne {def} {pop pop} ifelse} forall
  /Encoding WinAnsiEncoding def
  currentdict
end
/Helvetica-Bold exch definefont pop
/Helvetica-Oblique findfont
dup length dict begin
  {1 index /FID ne {def} {pop pop} ifelse} forall
  /Encoding WinAnsiEncoding def
  currentdict
end
/Helvetica-Oblique exch definefont pop
/Times-BoldItalic findfont
dup length dict begin
  {1 index /FID ne {def} {pop pop} ifelse} forall
  /Encoding WinAnsiEncoding def
  currentdict
end
/Times-BoldItalic exch definefont pop
/Courier findfont
dup length dict begin
  {1 index /FID ne {def} {pop pop} ifelse} forall
  /Encoding WinAnsiEncoding def
  currentdict
end
/Courier exch definefont pop
/Times-Italic findfont
dup length dict begin
  {1 index /FID ne {def} {pop pop} ifelse} forall
  /Encoding WinAnsiEncoding def
  currentdict
end
/Times-Italic exch definefont pop
/Times-Bold findfont
dup length dict begin
  {1 index /FID ne {def} {pop pop} ifelse} forall
  /Encoding WinAnsiEncoding def
  currentdict
end
/Times-Bold exch definefont pop
%FOPEndFontReencode
%%EndProlog
%%Page: 1 1
%%PageBoundingBox: 0 0 2126 1701
%%BeginPageSetup
[1 0 0 -1 0 1701] CT
%%EndPageSetup
GS
[1.97033 0 0 1.9685 0 0.21265] CT
N
0 0 M
1079 0 L
1079 864 L
0 864 L
0 0 L
cp
clip
0.997 GC
N
0 0 1079 864 re
f
GR
GS
[1.97033 0 0 1.9685 0 0.21265] CT
N
0 0 M
1079 0 L
1079 864 L
0 864 L
0 0 L
cp
clip
0.997 GC
N
0 0 1079 864 re
f
GR
GS
[1.97033 0 0 1.9685 0 0.21265] CT
0.997 GC
N
893 65 M
226 65 L
226 732 L
893 732 L
cp
f
GR
GS
[5.12408 0 0 5.11933 447.87111 130.7399] CT
[1 0 0 1 0 0] CT
N
0 256 M
0 0 L
256 0 L
256 256 L
cp
clip
GS
0 0 translate
256 256 scale
%AXGBeginBitmap: java.awt.image.BufferedImage
{{
/RawData currentfile /ASCII85Decode filter def
/Data RawData /FlateDecode filter def
/DeviceGray setcolorspace
<<
  /Decode [0 1]
  /BitsPerComponent 8
  /Width 256
  /ImageType 1
  /DataSource Data
  /ImageMatrix [256 0 0 256 0 0]
  /Height 256
>> image
} stopped {handleerror} if
  RawData flushfile
} exec
Gb"0I!=]#/#fEnD2[qN;6E=L`!<<*"zzzzzz!!!!Y+A"Ygb5^p[zzzzzzz!!!!Y@KA,+"oA~>

%AXGEndBitmap
GR
GR
GS
[1.97033 0 0 1.9685 0 0.21265] CT
0.997 GC
2 setlinecap
10.0 ML
4 LW
N
571.271 397.192 M
571.263 397.649 L
571.239 398.104 L
571.199 398.559 L
571.143 399.012 L
571.072 399.463 L
570.985 399.911 L
570.882 400.356 L
570.764 400.797 L
570.63 401.234 L
570.482 401.665 L
570.318 402.091 L
570.14 402.512 L
569.947 402.925 L
569.74 403.332 L
569.518 403.731 L
569.283 404.123 L
569.035 404.506 L
568.773 404.879 L
568.498 405.244 L
568.211 405.599 L
567.911 405.943 L
567.6 406.277 L
567.277 406.6 L
566.943 406.911 L
566.599 407.211 L
566.244 407.498 L
565.879 407.773 L
565.505 408.035 L
565.123 408.283 L
564.731 408.518 L
564.332 408.74 L
563.925 408.947 L
563.512 409.14 L
563.091 409.318 L
562.665 409.482 L
562.234 409.63 L
561.797 409.764 L
561.356 409.882 L
560.911 409.985 L
560.463 410.072 L
560.012 410.143 L
559.559 410.199 L
559.104 410.239 L
558.649 410.263 L
558.192 410.271 L
557.736 410.263 L
557.28 410.239 L
556.825 410.199 L
556.372 410.143 L
555.921 410.072 L
555.473 409.985 L
555.028 409.882 L
554.587 409.764 L
554.151 409.63 L
553.719 409.482 L
553.293 409.318 L
552.873 409.14 L
552.459 408.947 L
552.052 408.74 L
551.653 408.518 L
551.262 408.283 L
550.879 408.035 L
550.505 407.773 L
550.14 407.498 L
549.786 407.211 L
549.441 406.911 L
549.107 406.6 L
548.784 406.277 L
548.473 405.943 L
548.174 405.599 L
547.886 405.244 L
547.612 404.879 L
547.35 404.506 L
547.101 404.123 L
546.866 403.731 L
546.645 403.332 L
546.437 402.925 L
546.244 402.512 L
546.066 402.091 L
545.902 401.665 L
545.754 401.234 L
545.62 400.797 L
545.502 400.356 L
545.4 399.911 L
545.312 399.463 L
545.241 399.012 L
545.185 398.559 L
545.146 398.104 L
545.122 397.649 L
545.114 397.192 L
545.122 396.736 L
545.146 396.28 L
545.185 395.825 L
545.241 395.372 L
545.312 394.921 L
545.4 394.473 L
545.502 394.028 L
545.62 393.587 L
545.754 393.151 L
545.902 392.719 L
546.066 392.293 L
546.244 391.873 L
546.437 391.459 L
546.645 391.052 L
546.866 390.653 L
547.101 390.262 L
547.35 389.879 L
547.612 389.505 L
547.886 389.14 L
548.174 388.786 L
548.473 388.441 L
548.784 388.107 L
549.107 387.784 L
549.441 387.473 L
549.786 387.173 L
550.14 386.886 L
550.505 386.611 L
550.879 386.35 L
551.262 386.101 L
551.653 385.866 L
552.052 385.645 L
552.459 385.437 L
552.873 385.244 L
553.293 385.066 L
553.719 384.902 L
554.151 384.754 L
554.587 384.62 L
555.028 384.502 L
555.473 384.4 L
555.921 384.312 L
556.372 384.241 L
556.825 384.185 L
557.28 384.146 L
557.736 384.122 L
558.192 384.114 L
558.649 384.122 L
559.104 384.146 L
559.559 384.185 L
560.012 384.241 L
560.463 384.312 L
560.911 384.4 L
561.356 384.502 L
561.797 384.62 L
562.234 384.754 L
562.665 384.902 L
563.091 385.066 L
563.512 385.244 L
563.925 385.437 L
564.332 385.645 L
564.731 385.866 L
565.123 386.101 L
565.505 386.35 L
565.879 386.611 L
566.244 386.886 L
566.599 387.173 L
566.943 387.473 L
567.277 387.784 L
567.6 388.107 L
567.911 388.441 L
568.211 388.786 L
568.498 389.14 L
568.773 389.505 L
569.035 389.879 L
569.283 390.262 L
569.518 390.653 L
569.74 391.052 L
569.947 391.459 L
570.14 391.873 L
570.318 392.293 L
570.482 392.719 L
570.63 393.151 L
570.764 393.587 L
570.882 394.028 L
570.985 394.473 L
571.072 394.921 L
571.143 395.372 L
571.199 395.825 L
571.239 396.28 L
571.263 396.736 L
571.271 397.192 L
S
GR
GS
[1.97033 0 0 1.9685 0 0.21265] CT
0 GC
2 setlinecap
10.0 ML
2.667 LW
N
571.271 397.192 M
571.263 397.649 L
571.239 398.104 L
571.199 398.559 L
571.143 399.012 L
571.072 399.463 L
570.985 399.911 L
570.882 400.356 L
570.764 400.797 L
570.63 401.234 L
570.482 401.665 L
570.318 402.091 L
570.14 402.512 L
569.947 402.925 L
569.74 403.332 L
569.518 403.731 L
569.283 404.123 L
569.035 404.506 L
568.773 404.879 L
568.498 405.244 L
568.211 405.599 L
567.911 405.943 L
567.6 406.277 L
567.277 406.6 L
566.943 406.911 L
566.599 407.211 L
566.244 407.498 L
565.879 407.773 L
565.505 408.035 L
565.123 408.283 L
564.731 408.518 L
564.332 408.74 L
563.925 408.947 L
563.512 409.14 L
563.091 409.318 L
562.665 409.482 L
562.234 409.63 L
561.797 409.764 L
561.356 409.882 L
560.911 409.985 L
560.463 410.072 L
560.012 410.143 L
559.559 410.199 L
559.104 410.239 L
558.649 410.263 L
558.192 410.271 L
557.736 410.263 L
557.28 410.239 L
556.825 410.199 L
556.372 410.143 L
555.921 410.072 L
555.473 409.985 L
555.028 409.882 L
554.587 409.764 L
554.151 409.63 L
553.719 409.482 L
553.293 409.318 L
552.873 409.14 L
552.459 408.947 L
552.052 408.74 L
551.653 408.518 L
551.262 408.283 L
550.879 408.035 L
550.505 407.773 L
550.14 407.498 L
549.786 407.211 L
549.441 406.911 L
549.107 406.6 L
548.784 406.277 L
548.473 405.943 L
548.174 405.599 L
547.886 405.244 L
547.612 404.879 L
547.35 404.506 L
547.101 404.123 L
546.866 403.731 L
546.645 403.332 L
546.437 402.925 L
546.244 402.512 L
546.066 402.091 L
545.902 401.665 L
545.754 401.234 L
545.62 400.797 L
545.502 400.356 L
545.4 399.911 L
545.312 399.463 L
545.241 399.012 L
545.185 398.559 L
545.146 398.104 L
545.122 397.649 L
545.114 397.192 L
545.122 396.736 L
545.146 396.28 L
545.185 395.825 L
545.241 395.372 L
545.312 394.921 L
545.4 394.473 L
545.502 394.028 L
545.62 393.587 L
545.754 393.151 L
545.902 392.719 L
546.066 392.293 L
546.244 391.873 L
546.437 391.459 L
546.645 391.052 L
546.866 390.653 L
547.101 390.262 L
547.35 389.879 L
547.612 389.505 L
547.886 389.14 L
548.174 388.786 L
548.473 388.441 L
548.784 388.107 L
549.107 387.784 L
549.441 387.473 L
549.786 387.173 L
550.14 386.886 L
550.505 386.611 L
550.879 386.35 L
551.262 386.101 L
551.653 385.866 L
552.052 385.645 L
552.459 385.437 L
552.873 385.244 L
553.293 385.066 L
553.719 384.902 L
554.151 384.754 L
554.587 384.62 L
555.028 384.502 L
555.473 384.4 L
555.921 384.312 L
556.372 384.241 L
556.825 384.185 L
557.28 384.146 L
557.736 384.122 L
558.192 384.114 L
558.649 384.122 L
559.104 384.146 L
559.559 384.185 L
560.012 384.241 L
560.463 384.312 L
560.911 384.4 L
561.356 384.502 L
561.797 384.62 L
562.234 384.754 L
562.665 384.902 L
563.091 385.066 L
563.512 385.244 L
563.925 385.437 L
564.332 385.645 L
564.731 385.866 L
565.123 386.101 L
565.505 386.35 L
565.879 386.611 L
566.244 386.886 L
566.599 387.173 L
566.943 387.473 L
567.277 387.784 L
567.6 388.107 L
567.911 388.441 L
568.211 388.786 L
568.498 389.14 L
568.773 389.505 L
569.035 389.879 L
569.283 390.262 L
569.518 390.653 L
569.74 391.052 L
569.947 391.459 L
570.14 391.873 L
570.318 392.293 L
570.482 392.719 L
570.63 393.151 L
570.764 393.587 L
570.882 394.028 L
570.985 394.473 L
571.072 394.921 L
571.143 395.372 L
571.199 395.825 L
571.239 396.28 L
571.263 396.736 L
571.271 397.192 L
S
GR
GS
[1.97033 0 0 1.9685 1102.39876 1579.83969] CT
0 GC
/Helvetica-Bold 51 F
GS
[1 0 0 1 0 0] CT
-68.008 51.274 moveto 
1 -1 scale
(x \(px\)) t 
GR
GR
GS
[1.97033 0 0 1.9685 0 0.21265] CT
0 GC
2 setlinecap
10.0 ML
N
226 732 M
893 732 L
S
GR
GS
[1.97033 0 0 1.9685 0 0.21265] CT
0 GC
2 setlinecap
10.0 ML
N
226 65 M
893 65 L
S
GR
GS
[1.97033 0 0 1.9685 0 0.21265] CT
0 GC
2 setlinecap
10.0 ML
N
226 732 M
226 725.33 L
S
GR
GS
[1.97033 0 0 1.9685 0 0.21265] CT
0 GC
2 setlinecap
10.0 ML
N
226 65 M
226 71.67 L
S
GR
GS
[1.97033 0 0 1.9685 0 0.21265] CT
0 GC
2 setlinecap
10.0 ML
N
487.569 732 M
487.569 725.33 L
S
GR
GS
[1.97033 0 0 1.9685 0 0.21265] CT
0 GC
2 setlinecap
10.0 ML
N
487.569 65 M
487.569 71.67 L
S
GR
GS
[1.97033 0 0 1.9685 0 0.21265] CT
0 GC
2 setlinecap
10.0 ML
N
749.137 732 M
749.137 725.33 L
S
GR
GS
[1.97033 0 0 1.9685 0 0.21265] CT
0 GC
2 setlinecap
10.0 ML
N
749.137 65 M
749.137 71.67 L
S
GR
GS
[1.97033 0 0 1.9685 445.29422 1464.77953] CT
0 GC
/Helvetica-Bold 47 F
GS
[1 0 0 1 0 0] CT
-13.07 47.252 moveto 
1 -1 scale
(0) t 
GR
GR
GS
[1.97033 0 0 1.9685 960.67034 1464.77953] CT
0 GC
/Helvetica-Bold 47 F
GS
[1 0 0 1 0 0] CT
-39.209 47.252 moveto 
1 -1 scale
(100) t 
GR
GR
GS
[1.97033 0 0 1.9685 1476.04646 1464.77953] CT
0 GC
/Helvetica-Bold 47 F
GS
[1 0 0 1 0 0] CT
-39.209 47.252 moveto 
1 -1 scale
(200) t 
GR
GR
GS
[0 -1.9685 1.97033 0 259.26078 784.66144] CT
0 GC
/Helvetica-Bold 51 F
GS
[1 0 0 1 0 0] CT
-68.008 -10.875 moveto 
1 -1 scale
(y \(px\)) t 
GR
GR
GS
[1.97033 0 0 1.9685 0 0.21265] CT
0 GC
2 setlinecap
10.0 ML
N
226 65 M
226 732 L
S
GR
GS
[1.97033 0 0 1.9685 0 0.21265] CT
0 GC
2 setlinecap
10.0 ML
N
893 65 M
893 732 L
S
GR
GS
[1.97033 0 0 1.9685 0 0.21265] CT
0 GC
2 setlinecap
10.0 ML
N
226 65 M
232.67 65 L
S
GR
GS
[1.97033 0 0 1.9685 0 0.21265] CT
0 GC
2 setlinecap
10.0 ML
N
893 65 M
886.33 65 L
S
GR
GS
[1.97033 0 0 1.9685 0 0.21265] CT
0 GC
2 setlinecap
10.0 ML
N
226 195.784 M
232.67 195.784 L
S
GR
GS
[1.97033 0 0 1.9685 0 0.21265] CT
0 GC
2 setlinecap
10.0 ML
N
893 195.784 M
886.33 195.784 L
S
GR
GS
[1.97033 0 0 1.9685 0 0.21265] CT
0 GC
2 setlinecap
10.0 ML
N
226 326.569 M
232.67 326.569 L
S
GR
GS
[1.97033 0 0 1.9685 0 0.21265] CT
0 GC
2 setlinecap
10.0 ML
N
893 326.569 M
886.33 326.569 L
S
GR
GS
[1.97033 0 0 1.9685 0 0.21265] CT
0 GC
2 setlinecap
10.0 ML
N
226 457.353 M
232.67 457.353 L
S
GR
GS
[1.97033 0 0 1.9685 0 0.21265] CT
0 GC
2 setlinecap
10.0 ML
N
893 457.353 M
886.33 457.353 L
S
GR
GS
[1.97033 0 0 1.9685 0 0.21265] CT
0 GC
2 setlinecap
10.0 ML
N
226 588.137 M
232.67 588.137 L
S
GR
GS
[1.97033 0 0 1.9685 0 0.21265] CT
0 GC
2 setlinecap
10.0 ML
N
893 588.137 M
886.33 588.137 L
S
GR
GS
[1.97033 0 0 1.9685 0 0.21265] CT
0 GC
2 setlinecap
10.0 ML
N
226 718.922 M
232.67 718.922 L
S
GR
GS
[1.97033 0 0 1.9685 0 0.21265] CT
0 GC
2 setlinecap
10.0 ML
N
893 718.922 M
886.33 718.922 L
S
GR
GS
[1.97033 0 0 1.9685 421.65028 128.1654] CT
0 GC
/Helvetica-Bold 47 F
GS
[1 0 0 1 0 0] CT
-26.139 18.694 moveto 
1 -1 scale
(0) t 
GR
GR
GS
[1.97033 0 0 1.9685 421.65028 385.61483] CT
0 GC
/Helvetica-Bold 47 F
GS
[1 0 0 1 0 0] CT
-52.278 18.694 moveto 
1 -1 scale
(50) t 
GR
GR
GS
[1.97033 0 0 1.9685 421.65028 643.06427] CT
0 GC
/Helvetica-Bold 47 F
GS
[1 0 0 1 0 0] CT
-78.417 18.694 moveto 
1 -1 scale
(100) t 
GR
GR
GS
[1.97033 0 0 1.9685 421.65028 900.51368] CT
0 GC
/Helvetica-Bold 47 F
GS
[1 0 0 1 0 0] CT
-78.417 18.694 moveto 
1 -1 scale
(150) t 
GR
GR
GS
[1.97033 0 0 1.9685 421.65028 1157.96314] CT
0 GC
/Helvetica-Bold 47 F
GS
[1 0 0 1 0 0] CT
-78.417 18.694 moveto 
1 -1 scale
(200) t 
GR
GR
GS
[1.97033 0 0 1.9685 421.65028 1415.41255] CT
0 GC
/Helvetica-Bold 47 F
GS
[1 0 0 1 0 0] CT
-78.417 18.694 moveto 
1 -1 scale
(250) t 
GR
GR
%%Trailer
%%BoundingBox: 136 0 1760 1629
%%Pages: 1
%%EOF
