%!PS-Adobe-3.0 EPSF-3.0
%%Creator: (MATLAB, The Mathworks, Inc. Version 8.4.0.150421 \(R2014b\). Operating System: Windows 8)
%%Title: ./dataSimulaceOdrazivosti_full_output_25.eps
%%CreationDate: 2017-08-21T11:15:23
%%Pages: (atend)
%%BoundingBox: (atend)
%%LanguageLevel: 3
%%EndComments
%%BeginProlog
%%BeginResource: procset (Apache XML Graphics Std ProcSet) 1.2 0
%%Version: 1.2 0
%%Copyright: (Copyright 2001-2003,2010 The Apache Software Foundation. License terms: http://www.apache.org/licenses/LICENSE-2.0)
/bd{bind def}bind def
/ld{load def}bd
/GR/grestore ld
/M/moveto ld
/LJ/setlinejoin ld
/C/curveto ld
/f/fill ld
/LW/setlinewidth ld
/GC/setgray ld
/t/show ld
/N/newpath ld
/CT/concat ld
/cp/closepath ld
/S/stroke ld
/L/lineto ld
/CC/setcmykcolor ld
/A/ashow ld
/GS/gsave ld
/RC/setrgbcolor ld
/RM/rmoveto ld
/ML/setmiterlimit ld
/re {4 2 roll M
1 index 0 rlineto
0 exch rlineto
neg 0 rlineto
cp } bd
/_ctm matrix def
/_tm matrix def
/BT { _ctm currentmatrix pop matrix _tm copy pop 0 0 moveto } bd
/ET { _ctm setmatrix } bd
/iTm { _ctm setmatrix _tm concat } bd
/Tm { _tm astore pop iTm 0 0 moveto } bd
/ux 0.0 def
/uy 0.0 def
/F {
  /Tp exch def
  /Tf exch def
  Tf findfont Tp scalefont setfont
  /cf Tf def  /cs Tp def
} bd
/ULS {currentpoint /uy exch def /ux exch def} bd
/ULE {
  /Tcx currentpoint pop def
  gsave
  newpath
  cf findfont cs scalefont dup
  /FontMatrix get 0 get /Ts exch def /FontInfo get dup
  /UnderlinePosition get Ts mul /To exch def
  /UnderlineThickness get Ts mul /Tt exch def
  ux uy To add moveto  Tcx uy To add lineto
  Tt setlinewidth stroke
  grestore
} bd
/OLE {
  /Tcx currentpoint pop def
  gsave
  newpath
  cf findfont cs scalefont dup
  /FontMatrix get 0 get /Ts exch def /FontInfo get dup
  /UnderlinePosition get Ts mul /To exch def
  /UnderlineThickness get Ts mul /Tt exch def
  ux uy To add cs add moveto Tcx uy To add cs add lineto
  Tt setlinewidth stroke
  grestore
} bd
/SOE {
  /Tcx currentpoint pop def
  gsave
  newpath
  cf findfont cs scalefont dup
  /FontMatrix get 0 get /Ts exch def /FontInfo get dup
  /UnderlinePosition get Ts mul /To exch def
  /UnderlineThickness get Ts mul /Tt exch def
  ux uy To add cs 10 mul 26 idiv add moveto Tcx uy To add cs 10 mul 26 idiv add lineto
  Tt setlinewidth stroke
  grestore
} bd
/QT {
/Y22 exch store
/X22 exch store
/Y21 exch store
/X21 exch store
currentpoint
/Y21 load 2 mul add 3 div exch
/X21 load 2 mul add 3 div exch
/X21 load 2 mul /X22 load add 3 div
/Y21 load 2 mul /Y22 load add 3 div
/X22 load /Y22 load curveto
} bd
/SSPD {
dup length /d exch dict def
{
/v exch def
/k exch def
currentpagedevice k known {
/cpdv currentpagedevice k get def
v cpdv ne {
/upd false def
/nullv v type /nulltype eq def
/nullcpdv cpdv type /nulltype eq def
nullv nullcpdv or
{
/upd true def
} {
/sametype v type cpdv type eq def
sametype {
v type /arraytype eq {
/vlen v length def
/cpdvlen cpdv length def
vlen cpdvlen eq {
0 1 vlen 1 sub {
/i exch def
/obj v i get def
/cpdobj cpdv i get def
obj cpdobj ne {
/upd true def
exit
} if
} for
} {
/upd true def
} ifelse
} {
v type /dicttype eq {
v {
/dv exch def
/dk exch def
/cpddv cpdv dk get def
dv cpddv ne {
/upd true def
exit
} if
} forall
} {
/upd true def
} ifelse
} ifelse
} if
} ifelse
upd true eq {
d k v put
} if
} if
} if
} forall
d length 0 gt {
d setpagedevice
} if
} bd
%%EndResource
%%BeginResource: procset (Apache XML Graphics EPS ProcSet) 1.0 0
%%Version: 1.0 0
%%Copyright: (Copyright 2002-2003 The Apache Software Foundation. License terms: http://www.apache.org/licenses/LICENSE-2.0)
/BeginEPSF { %def
/b4_Inc_state save def         % Save state for cleanup
/dict_count countdictstack def % Count objects on dict stack
/op_count count 1 sub def      % Count objects on operand stack
userdict begin                 % Push userdict on dict stack
/showpage { } def              % Redefine showpage, { } = null proc
0 setgray 0 setlinecap         % Prepare graphics state
1 setlinewidth 0 setlinejoin
10 setmiterlimit [ ] 0 setdash newpath
/languagelevel where           % If level not equal to 1 then
{pop languagelevel             % set strokeadjust and
1 ne                           % overprint to their defaults.
{false setstrokeadjust false setoverprint
} if
} if
} bd
/EndEPSF { %def
count op_count sub {pop} repeat            % Clean up stacks
countdictstack dict_count sub {end} repeat
b4_Inc_state restore
} bd
%%EndResource
%FOPBeginFontDict
%%IncludeResource: font Courier-Bold
%%IncludeResource: font Helvetica
%%IncludeResource: font Courier-BoldOblique
%%IncludeResource: font Courier-Oblique
%%IncludeResource: font Times-Roman
%%IncludeResource: font Helvetica-BoldOblique
%%IncludeResource: font Helvetica-Bold
%%IncludeResource: font Helvetica-Oblique
%%IncludeResource: font Times-BoldItalic
%%IncludeResource: font Courier
%%IncludeResource: font Times-Italic
%%IncludeResource: font Times-Bold
%%IncludeResource: font Symbol
%%IncludeResource: font ZapfDingbats
%FOPEndFontDict
%%BeginResource: encoding WinAnsiEncoding
/WinAnsiEncoding [
/.notdef /.notdef /.notdef /.notdef /.notdef
/.notdef /.notdef /.notdef /.notdef /.notdef
/.notdef /.notdef /.notdef /.notdef /.notdef
/.notdef /.notdef /.notdef /.notdef /.notdef
/.notdef /.notdef /.notdef /.notdef /.notdef
/.notdef /.notdef /.notdef /.notdef /.notdef
/.notdef /.notdef /space /exclam /quotedbl
/numbersign /dollar /percent /ampersand /quotesingle
/parenleft /parenright /asterisk /plus /comma
/hyphen /period /slash /zero /one
/two /three /four /five /six
/seven /eight /nine /colon /semicolon
/less /equal /greater /question /at
/A /B /C /D /E
/F /G /H /I /J
/K /L /M /N /O
/P /Q /R /S /T
/U /V /W /X /Y
/Z /bracketleft /backslash /bracketright /asciicircum
/underscore /quoteleft /a /b /c
/d /e /f /g /h
/i /j /k /l /m
/n /o /p /q /r
/s /t /u /v /w
/x /y /z /braceleft /bar
/braceright /asciitilde /bullet /Euro /bullet
/quotesinglbase /florin /quotedblbase /ellipsis /dagger
/daggerdbl /circumflex /perthousand /Scaron /guilsinglleft
/OE /bullet /Zcaron /bullet /bullet
/quoteleft /quoteright /quotedblleft /quotedblright /bullet
/endash /emdash /asciitilde /trademark /scaron
/guilsinglright /oe /bullet /zcaron /Ydieresis
/space /exclamdown /cent /sterling /currency
/yen /brokenbar /section /dieresis /copyright
/ordfeminine /guillemotleft /logicalnot /sfthyphen /registered
/macron /degree /plusminus /twosuperior /threesuperior
/acute /mu /paragraph /middot /cedilla
/onesuperior /ordmasculine /guillemotright /onequarter /onehalf
/threequarters /questiondown /Agrave /Aacute /Acircumflex
/Atilde /Adieresis /Aring /AE /Ccedilla
/Egrave /Eacute /Ecircumflex /Edieresis /Igrave
/Iacute /Icircumflex /Idieresis /Eth /Ntilde
/Ograve /Oacute /Ocircumflex /Otilde /Odieresis
/multiply /Oslash /Ugrave /Uacute /Ucircumflex
/Udieresis /Yacute /Thorn /germandbls /agrave
/aacute /acircumflex /atilde /adieresis /aring
/ae /ccedilla /egrave /eacute /ecircumflex
/edieresis /igrave /iacute /icircumflex /idieresis
/eth /ntilde /ograve /oacute /ocircumflex
/otilde /odieresis /divide /oslash /ugrave
/uacute /ucircumflex /udieresis /yacute /thorn
/ydieresis
] def
%%EndResource
%FOPBeginFontReencode
/Courier-Bold findfont
dup length dict begin
  {1 index /FID ne {def} {pop pop} ifelse} forall
  /Encoding WinAnsiEncoding def
  currentdict
end
/Courier-Bold exch definefont pop
/Helvetica findfont
dup length dict begin
  {1 index /FID ne {def} {pop pop} ifelse} forall
  /Encoding WinAnsiEncoding def
  currentdict
end
/Helvetica exch definefont pop
/Courier-BoldOblique findfont
dup length dict begin
  {1 index /FID ne {def} {pop pop} ifelse} forall
  /Encoding WinAnsiEncoding def
  currentdict
end
/Courier-BoldOblique exch definefont pop
/Courier-Oblique findfont
dup length dict begin
  {1 index /FID ne {def} {pop pop} ifelse} forall
  /Encoding WinAnsiEncoding def
  currentdict
end
/Courier-Oblique exch definefont pop
/Times-Roman findfont
dup length dict begin
  {1 index /FID ne {def} {pop pop} ifelse} forall
  /Encoding WinAnsiEncoding def
  currentdict
end
/Times-Roman exch definefont pop
/Helvetica-BoldOblique findfont
dup length dict begin
  {1 index /FID ne {def} {pop pop} ifelse} forall
  /Encoding WinAnsiEncoding def
  currentdict
end
/Helvetica-BoldOblique exch definefont pop
/Helvetica-Bold findfont
dup length dict begin
  {1 index /FID ne {def} {pop pop} ifelse} forall
  /Encoding WinAnsiEncoding def
  currentdict
end
/Helvetica-Bold exch definefont pop
/Helvetica-Oblique findfont
dup length dict begin
  {1 index /FID ne {def} {pop pop} ifelse} forall
  /Encoding WinAnsiEncoding def
  currentdict
end
/Helvetica-Oblique exch definefont pop
/Times-BoldItalic findfont
dup length dict begin
  {1 index /FID ne {def} {pop pop} ifelse} forall
  /Encoding WinAnsiEncoding def
  currentdict
end
/Times-BoldItalic exch definefont pop
/Courier findfont
dup length dict begin
  {1 index /FID ne {def} {pop pop} ifelse} forall
  /Encoding WinAnsiEncoding def
  currentdict
end
/Courier exch definefont pop
/Times-Italic findfont
dup length dict begin
  {1 index /FID ne {def} {pop pop} ifelse} forall
  /Encoding WinAnsiEncoding def
  currentdict
end
/Times-Italic exch definefont pop
/Times-Bold findfont
dup length dict begin
  {1 index /FID ne {def} {pop pop} ifelse} forall
  /Encoding WinAnsiEncoding def
  currentdict
end
/Times-Bold exch definefont pop
%FOPEndFontReencode
%%EndProlog
%%Page: 1 1
%%PageBoundingBox: 0 0 4535 2551
%%BeginPageSetup
[1 0 0 -1 0 2551] CT
%%EndPageSetup
GS
[2.95468 0 0 2.95276 0 -0.18115] CT
0.997 GC
N
0 0 1535 864 re
f
GR
GS
[2.95468 0 0 2.95276 0 -0.18115] CT
0.997 GC
N
0 0 1535 864 re
f
GR
GS
[2.95468 0 0 2.95276 0 -0.18115] CT
0.997 GC
N
173 768 M
1204 768 L
1204 65 L
173 65 L
cp
f
GR
GS
[2.95468 0 0 2.95276 2034.29687 2418.64124] CT
0 GC
/Helvetica-Bold 37 F
GS
[1 0 0 1 0 0] CT
-101.741 37.199 moveto 
1 -1 scale
(Angle \(deg\)) t 
GR
GR
GS
[2.95468 0 0 2.95276 0 -0.18115] CT
0 GC
2 setlinecap
10.0 ML
N
173 768 M
1204 768 L
S
GR
GS
[2.95468 0 0 2.95276 0 -0.18115] CT
0 GC
2 setlinecap
10.0 ML
N
173 768 M
173 757.69 L
S
GR
GS
[2.95468 0 0 2.95276 0 -0.18115] CT
0 GC
2 setlinecap
10.0 ML
N
430.75 768 M
430.75 757.69 L
S
GR
GS
[2.95468 0 0 2.95276 0 -0.18115] CT
0 GC
2 setlinecap
10.0 ML
N
688.5 768 M
688.5 757.69 L
S
GR
GS
[2.95468 0 0 2.95276 0 -0.18115] CT
0 GC
2 setlinecap
10.0 ML
N
946.25 768 M
946.25 757.69 L
S
GR
GS
[2.95468 0 0 2.95276 0 -0.18115] CT
0 GC
2 setlinecap
10.0 ML
N
1204 768 M
1204 757.69 L
S
GR
GS
[2.95468 0 0 2.95276 511.15956 2295.09442] CT
0 GC
/Helvetica-Bold 33 F
GS
[1 0 0 1 0 0] CT
-9.177 33.177 moveto 
1 -1 scale
(0) t 
GR
GR
GS
[2.95468 0 0 2.95276 1272.72822 2295.09442] CT
0 GC
/Helvetica-Bold 33 F
GS
[1 0 0 1 0 0] CT
-22.937 33.177 moveto 
1 -1 scale
(0.5) t 
GR
GR
GS
[2.95468 0 0 2.95276 2034.29687 2295.09442] CT
0 GC
/Helvetica-Bold 33 F
GS
[1 0 0 1 0 0] CT
-9.177 33.177 moveto 
1 -1 scale
(1) t 
GR
GR
GS
[2.95468 0 0 2.95276 2795.86552 2295.09442] CT
0 GC
/Helvetica-Bold 33 F
GS
[1 0 0 1 0 0] CT
-22.937 33.177 moveto 
1 -1 scale
(1.5) t 
GR
GR
GS
[2.95468 0 0 2.95276 3557.43418 2295.09442] CT
0 GC
/Helvetica-Bold 33 F
GS
[1 0 0 1 0 0] CT
-9.177 33.177 moveto 
1 -1 scale
(2) t 
GR
GR
GS
[0 -2.95276 2.95468 0 336.21935 1229.64171] CT
0 GC
/Helvetica-Bold 37 F
GS
[1 0 0 1 0 0] CT
-122.328 -8.34 moveto 
1 -1 scale
(Reflectivity \(-\)) t 
GR
GR
GS
[2.95468 0 0 2.95276 0 -0.18115] CT
0 GC
2 setlinecap
10.0 ML
N
173 768 M
173 65 L
S
GR
GS
[2.95468 0 0 2.95276 0 -0.18115] CT
0 GC
2 setlinecap
10.0 ML
N
173 768 M
183.31 768 L
S
GR
GS
[2.95468 0 0 2.95276 0 -0.18115] CT
0 GC
2 setlinecap
10.0 ML
N
173 627.4 M
183.31 627.4 L
S
GR
GS
[2.95468 0 0 2.95276 0 -0.18115] CT
0 GC
2 setlinecap
10.0 ML
N
173 486.8 M
183.31 486.8 L
S
GR
GS
[2.95468 0 0 2.95276 0 -0.18115] CT
0 GC
2 setlinecap
10.0 ML
N
173 346.2 M
183.31 346.2 L
S
GR
GS
[2.95468 0 0 2.95276 0 -0.18115] CT
0 GC
2 setlinecap
10.0 ML
N
173 205.6 M
183.31 205.6 L
S
GR
GS
[2.95468 0 0 2.95276 0 -0.18115] CT
0 GC
2 setlinecap
10.0 ML
N
173 65 M
183.31 65 L
S
GR
GS
[2.95468 0 0 2.95276 483.58257 2267.53543] CT
0 GC
/Helvetica-Bold 33 F
GS
[1 0 0 1 0 0] CT
-18.353 12.923 moveto 
1 -1 scale
(0) t 
GR
GR
GS
[2.95468 0 0 2.95276 483.58257 1852.37801] CT
0 GC
/Helvetica-Bold 33 F
GS
[1 0 0 1 0 0] CT
-45.875 12.923 moveto 
1 -1 scale
(0.2) t 
GR
GR
GS
[2.95468 0 0 2.95276 483.58257 1437.22041] CT
0 GC
/Helvetica-Bold 33 F
GS
[1 0 0 1 0 0] CT
-45.875 12.923 moveto 
1 -1 scale
(0.4) t 
GR
GR
GS
[2.95468 0 0 2.95276 483.58257 1022.06291] CT
0 GC
/Helvetica-Bold 33 F
GS
[1 0 0 1 0 0] CT
-45.875 12.923 moveto 
1 -1 scale
(0.6) t 
GR
GR
GS
[2.95468 0 0 2.95276 483.58257 606.90545] CT
0 GC
/Helvetica-Bold 33 F
GS
[1 0 0 1 0 0] CT
-45.875 12.923 moveto 
1 -1 scale
(0.8) t 
GR
GR
GS
[2.95468 0 0 2.95276 483.58257 191.74799] CT
0 GC
/Helvetica-Bold 33 F
GS
[1 0 0 1 0 0] CT
-18.353 12.923 moveto 
1 -1 scale
(1) t 
GR
GR
GS
[2.95468 0 0 2.95276 0 -0.18115] CT
0 GC
2 setlinecap
10.0 ML
2.667 LW
N
173 65 M
188.517 65.662 L
203.982 66.323 L
219.498 66.984 L
234.984 67.644 L
250.48 68.303 L
265.976 68.962 L
281.472 69.62 L
296.968 70.278 L
312.464 70.935 L
327.96 71.591 L
343.456 72.247 L
358.952 72.902 L
374.448 73.557 L
389.944 74.211 L
405.44 74.865 L
420.936 75.518 L
436.432 76.171 L
451.928 76.822 L
467.424 77.473 L
482.92 78.124 L
498.416 78.775 L
513.912 79.424 L
529.408 80.074 L
544.904 80.722 L
560.4 81.37 L
575.896 82.018 L
591.392 82.665 L
606.888 83.311 L
622.384 83.957 L
637.88 84.603 L
653.376 85.248 L
668.872 85.892 L
684.368 86.536 L
699.862 87.18 L
715.358 87.823 L
730.853 88.465 L
746.349 89.107 L
761.845 89.749 L
777.341 90.39 L
792.837 91.031 L
808.333 91.671 L
823.834 92.311 L
839.33 92.95 L
854.826 93.589 L
870.322 94.227 L
885.818 94.865 L
901.314 95.502 L
916.81 96.139 L
932.306 96.776 L
947.802 97.413 L
963.298 98.048 L
978.794 98.683 L
994.289 99.318 L
1009.785 99.952 L
1025.281 100.587 L
1040.777 101.22 L
1056.273 101.853 L
1071.769 102.486 L
1087.265 103.119 L
1102.761 103.751 L
1118.257 104.382 L
1133.753 105.013 L
1149.249 105.645 L
1164.745 106.275 L
1180.241 106.905 L
1195.737 107.535 L
1204.103 107.875 L
S
GR
GS
[2.95468 0 0 2.95276 0 -0.18115] CT
0 GC
[8 2 4 2] 0 setdash
2 LJ
2.667 LW
N
173 65 M
188.517 70.218 L
203.982 75.402 L
219.498 80.559 L
234.984 85.691 L
250.48 90.805 L
265.976 95.902 L
281.472 100.991 L
296.968 106.08 L
312.464 111.164 L
327.96 116.257 L
343.456 121.353 L
358.952 126.468 L
374.448 131.609 L
389.944 136.781 L
405.44 141.976 L
420.936 147.197 L
436.432 152.467 L
451.928 157.791 L
467.424 163.178 L
482.92 168.616 L
498.416 174.108 L
513.912 179.708 L
529.408 185.354 L
544.904 191.127 L
560.4 196.987 L
575.896 202.969 L
591.392 209.059 L
606.888 215.294 L
622.384 221.69 L
637.88 228.231 L
653.376 234.962 L
668.872 241.869 L
684.368 249.004 L
699.862 256.392 L
715.358 264.018 L
730.853 271.948 L
746.349 280.217 L
761.845 288.816 L
777.341 297.827 L
792.837 307.252 L
808.333 317.19 L
823.834 327.707 L
839.33 338.815 L
854.826 350.656 L
870.322 363.326 L
885.818 376.866 L
901.314 391.39 L
916.81 407.189 L
932.306 424.25 L
947.802 442.696 L
963.298 462.716 L
978.794 484.332 L
994.289 507.408 L
1009.785 531.448 L
1025.281 555.783 L
1040.777 579.76 L
1056.273 602.205 L
1071.769 622.779 L
1087.265 640.904 L
1102.761 656.524 L
1118.257 669.784 L
1133.753 681.281 L
1149.249 691.474 L
1164.745 700.301 L
1180.241 707.612 L
1195.737 713.377 L
1204.103 715.996 L
S
GR
GS
[2.95468 0 0 2.95276 0 -0.18115] CT
0 GC
[8 8] 0 setdash
2 LJ
2.667 LW
N
173 65 M
178.155 67.686 L
183.31 70.366 L
188.517 73.036 L
193.672 75.71 L
198.827 78.375 L
203.982 81.052 L
209.137 83.753 L
214.343 86.41 L
219.498 89.134 L
224.653 91.852 L
229.818 94.561 L
234.984 97.313 L
240.15 100.056 L
245.315 102.854 L
250.48 105.716 L
255.645 108.577 L
260.811 111.43 L
265.976 114.361 L
271.141 117.383 L
276.307 120.408 L
281.472 123.429 L
286.637 126.558 L
291.803 129.81 L
296.968 133.072 L
302.133 136.34 L
307.299 139.753 L
312.464 143.33 L
317.629 146.933 L
322.794 150.725 L
327.96 154.555 L
333.125 158.607 L
338.29 162.713 L
343.456 166.876 L
348.621 171.525 L
353.786 176.051 L
358.952 180.903 L
364.117 186.125 L
369.283 191.502 L
374.448 197.335 L
379.613 203.388 L
384.779 210.013 L
389.944 217.311 L
395.109 224.642 L
400.275 233.212 L
405.44 242.4 L
410.605 252.317 L
415.771 263.647 L
420.936 276.146 L
426.101 290.771 L
431.267 307.382 L
436.432 327.44 L
441.597 352.157 L
446.762 381.839 L
451.928 417.46 L
457.093 460.504 L
462.258 507.911 L
467.424 552.153 L
472.589 588.739 L
477.754 617.088 L
482.92 641.59 L
488.085 662.516 L
493.25 675.54 L
498.416 684.521 L
503.581 696.26 L
508.747 708.386 L
513.912 715.205 L
519.077 717.384 L
524.243 720.758 L
529.408 727.507 L
534.573 734.397 L
539.739 737.912 L
544.904 738.544 L
550.069 739.107 L
555.234 741.567 L
560.4 745.434 L
565.565 749.019 L
570.73 750.917 L
575.896 751.128 L
581.061 750.706 L
586.226 751.058 L
591.392 752.885 L
596.557 755.768 L
601.722 758.088 L
606.888 758.65 L
612.053 757.596 L
617.218 756.401 L
622.384 756.752 L
627.549 758.861 L
632.715 761.455 L
637.88 762.833 L
643.045 762.256 L
648.211 760.689 L
653.376 759.705 L
658.541 760.478 L
663.706 762.432 L
668.872 764.351 L
674.037 764.963 L
679.202 764.133 L
684.368 762.861 L
689.531 762.313 L
694.696 762.981 L
699.862 764.394 L
705.027 765.624 L
710.192 765.954 L
715.358 765.462 L
720.523 764.717 L
725.688 764.387 L
730.853 764.682 L
736.019 765.406 L
741.184 766.088 L
746.349 766.425 L
751.515 766.376 L
756.68 766.137 L
761.845 765.919 L
767.011 765.87 L
772.176 766.003 L
777.341 766.271 L
782.507 766.587 L
787.672 766.861 L
792.837 766.995 L
798.003 766.931 L
803.168 766.721 L
808.333 766.496 L
813.498 766.439 L
818.664 766.629 L
823.834 767.002 L
829 767.36 L
834.165 767.486 L
839.33 767.321 L
844.495 766.988 L
849.661 766.735 L
854.826 766.749 L
859.991 767.03 L
865.157 767.428 L
870.322 767.687 L
875.487 767.673 L
880.653 767.431 L
885.818 767.142 L
890.983 767.023 L
896.149 767.135 L
901.314 767.414 L
906.479 767.686 L
911.644 767.798 L
916.81 767.718 L
921.975 767.534 L
927.14 767.385 L
932.306 767.365 L
937.471 767.476 L
942.636 767.644 L
947.802 767.776 L
952.967 767.814 L
958.132 767.769 L
963.298 767.692 L
968.463 767.638 L
973.628 767.632 L
978.794 767.67 L
983.959 767.727 L
989.124 767.783 L
994.289 767.825 L
999.455 767.843 L
1004.62 767.838 L
1009.785 767.81 L
1014.951 767.771 L
1020.116 767.743 L
1025.281 767.746 L
1030.447 767.788 L
1035.612 767.855 L
1040.777 767.911 L
1045.943 767.925 L
1051.108 767.889 L
1056.273 767.825 L
1061.438 767.774 L
1066.604 767.77 L
1071.769 767.819 L
1076.934 767.894 L
1082.1 767.952 L
1087.265 767.96 L
1092.43 767.919 L
1097.596 767.858 L
1102.761 767.817 L
1107.926 767.821 L
1113.092 767.868 L
1118.257 767.929 L
1123.422 767.969 L
1128.588 767.97 L
1133.753 767.938 L
1138.918 767.898 L
1144.083 767.876 L
1149.249 767.883 L
1154.414 767.914 L
1159.579 767.95 L
1164.745 767.971 L
1169.91 767.972 L
1175.075 767.957 L
1180.241 767.94 L
1185.406 767.93 L
1190.571 767.932 L
1195.737 767.942 L
1200.902 767.956 L
1204.103 767.962 L
S
GR
GS
[2.95468 0 0 2.95276 0 -0.18115] CT
0 GC
[2 2] 0 setdash
2 LJ
2.667 LW
N
173 65 M
178.155 69.369 L
183.31 73.816 L
188.517 78.235 L
193.672 82.955 L
198.827 87.665 L
203.982 92.956 L
209.137 99.177 L
214.343 104.66 L
219.498 112.583 L
224.653 121.348 L
229.818 131.17 L
234.984 145.231 L
240.15 163.786 L
245.315 198.972 L
250.48 315.795 L
255.645 592.651 L
260.811 677.771 L
265.976 723.359 L
271.141 734.818 L
276.307 732.639 L
281.472 754.01 L
286.637 747.543 L
291.803 756.963 L
296.968 760.056 L
302.133 757.033 L
307.299 765.118 L
312.464 759.494 L
317.629 766.643 L
322.794 763.17 L
327.96 766.685 L
333.125 765.378 L
338.29 766.791 L
343.456 766.341 L
348.621 766.988 L
353.786 766.777 L
358.952 767.016 L
364.117 767.135 L
369.283 767.241 L
374.448 767.493 L
379.613 767.438 L
384.779 767.75 L
389.944 767.599 L
395.109 767.857 L
400.275 767.678 L
405.44 767.879 L
410.605 767.764 L
415.771 767.854 L
420.936 767.857 L
426.101 767.848 L
431.267 767.933 L
436.432 767.873 L
441.597 767.969 L
446.762 767.919 L
451.928 767.972 L
457.093 767.955 L
462.258 767.96 L
467.424 767.98 L
472.589 767.949 L
477.754 767.994 L
482.92 767.955 L
488.085 767.998 L
493.25 767.969 L
498.416 767.996 L
503.581 767.985 L
508.747 767.992 L
513.912 767.995 L
519.077 767.99 L
524.243 767.998 L
529.408 767.991 L
534.573 767.998 L
539.739 767.994 L
544.904 767.997 L
550.069 767.997 L
555.234 767.997 L
560.4 767.999 L
565.565 767.998 L
570.73 767.999 L
575.896 767.999 L
581.061 767.999 L
586.226 768 L
591.392 767.999 L
596.557 768 L
601.722 767.999 L
606.888 768 L
612.053 767.999 L
617.218 768 L
622.384 768 L
627.549 768 L
632.715 768 L
637.88 768 L
643.045 768 L
648.211 768 L
653.376 768 L
658.541 768 L
663.706 768 L
668.872 768 L
674.037 768 L
679.202 768 L
684.368 768 L
689.531 768 L
694.696 768 L
699.862 768 L
705.027 768 L
710.192 768 L
715.358 768 L
720.523 768 L
725.688 768 L
730.853 768 L
736.019 768 L
741.184 768 L
746.349 768 L
751.515 768 L
756.68 768 L
761.845 768 L
767.011 768 L
772.176 768 L
777.341 768 L
782.507 768 L
787.672 768 L
792.837 768 L
798.003 768 L
803.168 768 L
808.333 768 L
813.498 768 L
818.664 768 L
823.834 768 L
829 768 L
834.165 768 L
839.33 768 L
844.495 768 L
849.661 768 L
854.826 768 L
859.991 768 L
865.157 768 L
870.322 768 L
875.487 768 L
880.653 768 L
885.818 768 L
890.983 768 L
896.149 768 L
901.314 768 L
906.479 768 L
911.644 768 L
916.81 768 L
921.975 768 L
927.14 768 L
932.306 768 L
937.471 768 L
942.636 768 L
947.802 768 L
952.967 768 L
958.132 768 L
963.298 768 L
968.463 768 L
973.628 768 L
978.794 768 L
983.959 768 L
989.124 768 L
994.289 768 L
999.455 768 L
1004.62 768 L
1009.785 768 L
1014.951 768 L
1020.116 768 L
1025.281 768 L
1030.447 768 L
1035.612 768 L
1040.777 768 L
1045.943 768 L
1051.108 768 L
1056.273 768 L
1061.438 768 L
1066.604 768 L
1071.769 768 L
1076.934 768 L
1082.1 768 L
1087.265 768 L
1092.43 768 L
1097.596 768 L
1102.761 768 L
1107.926 768 L
1113.092 768 L
1118.257 768 L
1123.422 768 L
1128.588 768 L
1133.753 768 L
1138.918 768 L
1144.083 768 L
1149.249 768 L
1154.414 768 L
1159.579 768 L
1164.745 768 L
1169.91 768 L
1175.075 768 L
1180.241 768 L
1185.406 768 L
1190.571 768 L
1195.737 768 L
1200.902 768 L
1204.103 768 L
S
GR
GS
[2.95468 0 0 2.95276 3781.61327 1062.80189] CT
0 GC
/Helvetica-Bold 30 F
GS
[1 0 0 1 0 0] CT
0 11.794 moveto 
1 -1 scale
(110 eV) t 
GR
GR
GS
[2.95468 0 0 2.95276 0 -0.18115] CT
0 GC
2 setlinecap
10.0 ML
2.667 LW
N
1235.98 359.997 M
1275.882 359.997 L
S
GR
GS
[2.95468 0 0 2.95276 3781.61327 1173.04418] CT
0 GC
/Helvetica-Bold 30 F
GS
[1 0 0 1 0 0] CT
0 11.794 moveto 
1 -1 scale
(2123 eV) t 
GR
GR
GS
[2.95468 0 0 2.95276 0 -0.18115] CT
0 GC
[8 2 4 2] 0 setdash
2 LJ
2.667 LW
N
1235.98 397.332 M
1275.882 397.332 L
S
GR
GS
[2.95468 0 0 2.95276 3781.61327 1283.28647] CT
0 GC
/Helvetica-Bold 30 F
GS
[1 0 0 1 0 0] CT
0 11.794 moveto 
1 -1 scale
(8048 eV) t 
GR
GR
GS
[2.95468 0 0 2.95276 0 -0.18115] CT
0 GC
[8 8] 0 setdash
2 LJ
2.667 LW
N
1235.98 434.668 M
1275.882 434.668 L
S
GR
GS
[2.95468 0 0 2.95276 3781.61327 1393.52876] CT
0 GC
/Helvetica-Bold 30 F
GS
[1 0 0 1 0 0] CT
0 11.794 moveto 
1 -1 scale
(30973 eV) t 
GR
GR
GS
[2.95468 0 0 2.95276 0 -0.18115] CT
0 GC
[2 2] 0 setdash
2 LJ
2.667 LW
N
1235.98 472.003 M
1275.882 472.003 L
S
GR
%%Trailer
%%BoundingBox: 201 0 4161 2419
%%Pages: 1
%%EOF
